Rain Rate,Dust Rate,Droput Rate,RTK Error,Lidar Error,Stereo QF,Timed Out,Anvel Dropped,Collision,RolledOver,Simulation Time,Effective Speed,Point Cloud Error,Odometry Error,Path Error,Grid Error,Obstacle Error,Detection Range,Random Seed
0,1,0,0,0,100,0,0,0,0,7.78,11.1577,0.0229281,1.96086e-06,1.74075,0.0107048,0.969421,125.86,1568200771
0,1,0,0,0,100,0,0,0,0,7.75,11.1812,0.0123558,1.94233e-06,1.59864,0.0102553,1.07408,185.281,1568200815
0,1,0,0,0,100,0,0,0,0,7.8,11.1502,0.0224792,1.94674e-06,1.59253,0.00986901,0.759724,122.879,1568200856
0,1,0,0,0,100,0,0,0,0,7.8,11.1262,0.0120197,1.91882e-06,1.43606,0.00948701,1.02771,140.289,1568200900
0,1,0,0,0,100,0,0,0,0,7.8,11.1698,0.0198224,1.92261e-06,1.71644,0.010226,1.06678,173.262,1568200941
0,1,0,0,0,100,0,0,0,0,8.37,10.4038,0.0203476,1.88222e-06,1.89944,0.00946752,0.912798,125.173,1568200983
0,1,0,0,0,100,0,0,0,0,7.81,11.1715,0.0137147,1.9133e-06,1.93358,0.0112493,1.17704,186.512,1568201026
0,1,0,0,0,100,0,0,0,0,7.78,11.1614,0.0099386,1.96403e-06,1.5872,0.0107519,1.04726,198.229,1568201069
0,1,0,0,0,100,0,0,0,0,7.74,11.1819,0.0102269,1.95058e-06,1.48278,0.0115512,1.02466,159.253,1568201110
0,1,0,0,0,100,0,0,0,0,7.82,11.0691,0.0277073,1.90559e-06,1.84002,0.0112665,1.0171,220.771,1568201152
0,1,0,0,0,100,0,0,0,0,7.77,11.1225,0.0222755,1.97062e-06,1.6854,0.011242,1.01577,230.254,1568201194
0,1,0,0,0,100,0,0,0,0,8.6,10.0729,0.0176654,1.90437e-06,2.98154,0.0104101,0.923199,208.814,1568201236
0,1,0,0,0,100,0,0,0,0,7.78,11.1641,0.0323443,1.97944e-06,1.41182,0.0114457,0.716814,129.866,1568201280
0,1,0,0,0,100,0,0,0,0,7.72,11.2253,0.0451392,1.93653e-06,1.62477,0.00985424,0.803496,125.54,1568201322
0,1,0,0,0,100,0,0,0,0,7.77,11.1748,0.0242686,1.95032e-06,1.67831,0.00956327,1.15582,190.463,1568201364
0,1,0,0,0,100,0,0,0,0,8.37,10.5704,0.00756637,1.92475e-06,3.27275,0.0104568,1.05143,123.872,1568201406
0,1,0,0,0,100,0,0,0,0,7.76,11.1867,0.0221292,1.96016e-06,1.7065,0.00976771,0.520363,125.34,1568201449
0,1,0,0,0,100,0,0,0,0,7.76,11.1275,0.0110367,1.92479e-06,1.41851,0.0107519,0.891344,124.893,1568201492
0,1,0,0,0,100,0,0,0,0,7.91,10.9385,0.0418378,1.9394e-06,1.32395,0.00922998,0.972813,195.834,1568201534
0,1,0,0,0,100,0,0,0,0,7.77,11.201,0.0248763,1.94786e-06,1.59286,0.00955063,0.82043,175.074,1568201576
0,1,0,0,0,100,0,0,0,0,7.9,11.0396,0.0212931,1.98791e-06,1.93603,0.0117604,1.17839,128.305,1568201619
0,1,0,0,0,100,0,0,0,0,8.1,10.7522,0.00699978,1.94124e-06,2.73016,0.00944347,0.756674,124.687,1568201661
0,1,0,0,0,100,0,0,0,0,7.72,11.2565,0.0219139,1.94406e-06,1.40153,0.00837117,1.07787,190.776,1568201705
0,1,0,0,0,100,0,0,0,0,8.27,10.4275,0.0365591,1.87751e-06,0.736981,0.0112212,1.05775,128.807,1568201747
0,1,0,0,0,100,0,0,0,0,7.81,11.1487,0.0105456,1.9538e-06,1.69329,0.0113967,0.910055,168.577,1568201791
0,1,0,0,0,100,0,0,0,0,7.9,11.0456,0.0136062,1.92247e-06,1.91837,0.00868325,0.944642,224.252,1568201832
0,1,0,0,0,100,0,0,0,0,7.8,11.1029,0.017765,1.93371e-06,1.65426,0.011033,0.912199,219.282,1568201875
0,1,0,0,0,100,0,0,0,0,7.77,11.19,0.0291155,1.97834e-06,1.4547,0.00993798,0.904997,179.78,1568201918
0,1,0,0,0,100,0,0,0,0,7.77,11.1673,0.0138478,1.97366e-06,1.48629,0.00983411,1.22494,134.104,1568201961
0,1,0,0,0,100,0,0,0,0,7.87,11.0757,0.0188801,1.97922e-06,2.11302,0.0115078,0.809333,160.153,1568202003
0,1,0,0,0,100,0,0,0,0,7.8,11.0816,0.0312538,1.94779e-06,1.42184,0.0104298,0.843226,243.429,1568202045
0,1,0,0,0,100,0,0,0,0,7.75,11.1854,0.0207346,1.93149e-06,1.62161,0.0106931,1.05107,150.556,1568202086
0,1,0,0,0,100,0,0,0,0,7.8,11.0835,0.0245012,1.93162e-06,1.44353,0.00952683,1.00389,128.192,1568202129
0,1,0,0,0,100,0,0,0,0,7.8,11.1478,0.0229932,1.93081e-06,1.7197,0.0104237,0.838444,150.023,1568202171
0,1,0,0,0,100,0,0,0,0,7.8,11.1643,0.0346966,1.91091e-06,1.84929,0.0105924,0.992472,179.371,1568202214
0,1,0,0,0,100,0,0,0,0,7.79,11.1547,0.0118373,1.93202e-06,1.7354,0.0106225,0.90771,123.53,1568202256
0,1,0,0,0,100,0,0,0,0,7.8,11.1438,0.0138721,1.94582e-06,1.74805,0.0108702,1.01781,243.57,1568202299
0,1,0,0,0,100,0,0,0,0,7.86,11.024,0.0374828,1.91807e-06,1.40131,0.0106031,0.850874,125.283,1568202344
0,1,0,0,0,100,0,0,0,0,7.74,11.1839,0.0228397,1.86337e-06,1.43723,0.00982015,0.907919,244.385,1568202389
0,1,0,0,0,100,0,0,0,0,7.8,11.1803,0.0214289,1.92353e-06,1.836,0.011248,0.995013,150.932,1568202430
0,1,0,0,0,100,0,0,0,0,7.88,11.0633,0.0183482,1.90672e-06,1.92213,0.00985912,1.06914,103.318,1568202472
0,1,0,0,0,100,0,0,0,0,8.59,10.2051,0.0127883,1.90952e-06,4.1147,0.0113584,0.7571,180.244,1568202515
0,1,0,0,0,100,0,0,0,0,7.74,11.1892,0.0218982,1.89373e-06,1.3721,0.00943561,1.08877,124.678,1568202560
0,1,0,0,0,100,0,0,0,0,7.8,11.1514,0.0155918,1.93732e-06,1.74285,0.0102862,0.886387,122.311,1568202602
0,1,0,0,0,100,0,0,0,0,7.81,11.1362,0.0087156,1.8845e-06,1.71442,0.00959885,1.21947,126.978,1568202644
0,1,0,0,0,100,0,0,0,0,7.8,11.151,0.0201233,1.95412e-06,1.73902,0.00915133,0.809694,180.442,1568202686
0,1,0,0,0,100,0,0,0,0,7.82,11.1384,0.0165903,1.93713e-06,1.88465,0.0106086,0.819912,137.884,1568202728
0,1,0,0,0,100,0,0,0,0,7.8,11.1678,0.0198328,1.9518e-06,1.74603,0.0102591,1.20223,88.8985,1568202770
0,1,0,0,0,100,0,0,0,0,7.7,11.2445,0.00904209,1.90114e-06,1.34327,0.0102301,1.26205,128.181,1568202812
0,1,0,0,0,100,0,0,0,0,7.8,11.1362,0.0586413,1.95051e-06,1.69676,0.0105712,0.991176,145.919,1568202855
0,1,0,0,0,100,0,0,0,0,7.73,11.165,0.0224366,1.92458e-06,1.17058,0.0100214,0.946725,139.294,1568202898
0,1,0,0,0,100,0,0,0,0,7.78,11.1711,0.0214956,1.88801e-06,1.76063,0.00961154,1.08028,184.032,1568202940
0,1,0,0,0,100,0,0,0,0,7.78,11.1314,0.0342807,1.92317e-06,1.53851,0.0100514,0.825691,177.364,1568202981
0,1,0,0,0,100,0,0,0,0,7.88,11.0777,0.0101479,1.95543e-06,1.88849,0.0122433,0.959137,247.723,1568203024
0,1,0,0,0,100,0,0,0,0,7.78,11.1416,0.0215569,1.91946e-06,1.73088,0.00945806,0.70563,162.408,1568203067
0,1,0,0,0,100,0,0,0,0,8.14,10.6035,0.015135,1.90404e-06,1.95,0.0108119,1.23081,226.268,1568203109
0,1,0,0,0,100,0,0,0,0,7.81,11.1553,0.0223771,1.96382e-06,1.73129,0.00947083,1.03152,209.41,1568203151
0,1,0,0,0,100,0,0,0,0,7.78,11.1012,0.0284311,1.95089e-06,1.41222,0.0110288,0.989367,122.662,1568203193
0,1,0,0,0,100,0,0,0,0,7.92,11.0358,0.0137947,1.90344e-06,1.93015,0.00959203,1.02644,166.435,1568203235
0,1,0,0,0,100,0,0,0,0,7.85,11.0834,0.0513744,1.92828e-06,1.84515,0.0104339,0.584964,244.519,1568203277
0,1,0,0,0,100,0,0,0,0,8.42,10.3812,0.0193213,1.9171e-06,3.51531,0.0101818,1.18584,138.159,1568203319
0,1,0,0,0,100,0,0,0,0,7.7,11.2258,0.0311946,1.92362e-06,1.51021,0.0105949,0.850248,90.5329,1568203362
0,1,0,0,0,100,0,0,0,0,7.8,11.1444,0.0124532,1.9225e-06,1.78682,0.0106529,0.560258,124.559,1568203405
0,1,0,0,0,100,0,0,0,0,7.73,11.1752,0.0211205,1.98261e-06,1.26179,0.010246,0.862864,168.22,1568203448
0,1,0,0,0,100,0,0,0,0,8.7,10.0407,0.016,1.93637e-06,4.05584,0.0098225,1.02359,124.321,1568203489
0,1,0,0,0,100,0,0,0,0,7.8,11.1665,0.0173837,1.93573e-06,1.7572,0.0104069,1.00219,134.622,1568203533
0,1,0,0,0,100,0,0,0,0,9.27,9.44434,0.0194729,1.86137e-06,4.8664,0.00944426,0.904435,208.406,1568203575
0,1,0,0,0,100,0,0,0,0,7.78,11.1354,0.0366297,1.93581e-06,1.51072,0.0103873,1.00784,182.127,1568203621
0,1,0,0,0,100,0,0,0,0,7.79,11.1567,0.0253026,1.93835e-06,1.74376,0.0104551,1.08653,242.895,1568203663
0,1,0,0,0,100,0,0,0,0,7.83,11.1067,0.0125402,1.90922e-06,1.88255,0.00934019,0.970204,163.861,1568203705
0,1,0,0,0,100,0,0,0,0,7.75,11.2158,0.0256285,1.92323e-06,1.75114,0.0118976,1.02484,125.253,1568203747
0,1,0,0,0,100,0,0,0,0,8.18,10.5747,0.0177836,1.95577e-06,2.03248,0.0109137,1.11262,167.996,1568203789
0,1,0,0,0,100,0,0,0,0,7.74,11.2397,0.0132274,1.95687e-06,1.60043,0.0103748,0.97983,241.66,1568203832
0,1,0,0,0,100,0,0,0,0,7.8,11.1602,0.0143859,1.9438e-06,1.68895,0.0119866,0.657276,124.777,1568203874
0,1,0,0,0,100,0,0,0,0,7.8,11.1587,0.0207514,1.90464e-06,1.75465,0.00994232,0.893914,170.702,1568203917
0,1,0,0,0,100,0,0,0,0,7.74,11.2019,0.0132104,1.87284e-06,1.56948,0.010141,1.12333,243.507,1568203959
0,1,0,0,0,100,0,0,0,0,7.86,11.1113,0.0207306,1.91905e-06,1.83231,0.0112394,0.786023,187.81,1568204001
0,1,0,0,0,100,0,0,0,0,7.8,11.1534,0.0271652,1.94998e-06,1.78803,0.0106111,0.887804,158.321,1568204044
0,1,0,0,0,100,0,0,0,0,7.85,11.093,0.0234198,1.89354e-06,1.88904,0.0107474,0.978263,164.5,1568204087
0,1,0,0,0,100,0,0,0,0,7.77,11.1196,0.0092247,1.95216e-06,1.51623,0.0115969,0.887841,127.745,1568204130
0,1,0,0,0,100,0,0,0,0,7.72,11.2095,0.00566674,1.93588e-06,1.172,0.00991129,1.20284,135.905,1568204172
0,1,0,0,0,100,0,0,0,0,7.75,11.1901,0.015679,1.98215e-06,1.61403,0.00877361,1.09058,240.775,1568204214
0,1,0,0,0,100,0,0,0,0,7.84,11.1412,0.0237585,1.97644e-06,1.67707,0.0090057,0.991839,121.929,1568204257
0,1,0,0,0,100,0,0,0,0,7.77,11.1644,0.0291132,1.9235e-06,1.68052,0.0101522,0.916818,184.576,1568204300
0,1,0,0,0,100,0,0,0,0,7.77,11.1622,0.0150342,1.89151e-06,1.54163,0.00986838,0.980545,205.263,1568204342
0,1,0,0,0,100,0,0,0,0,7.89,11.0602,0.0345184,1.93905e-06,1.87986,0.0091066,1.15449,227.37,1568204385
0,1,0,0,0,100,0,0,0,0,7.76,11.1648,0.0245702,1.90016e-06,1.29259,0.0102957,0.921218,135.248,1568204427
0,1,0,0,0,100,0,0,1,0,4.12,10.5698,0.0392265,2.25825e-06,0.468281,0.0101691,1.2371,154.075,1568204469
0,1,0,0,0,100,0,0,0,0,7.78,11.0747,0.00825144,1.95641e-06,1.44075,0.0111169,1.17942,231.035,1568204505
0,1,0,0,0,100,0,0,0,0,7.78,11.1298,0.0265614,1.95013e-06,1.55437,0.00946895,0.875779,243.669,1568204547
0,1,0,0,0,100,0,0,0,0,7.84,11.1167,0.0242458,1.92347e-06,1.99503,0.0101326,1.00989,172.197,1568204590
0,1,0,0,0,100,0,0,0,0,7.8,11.1615,0.00966684,1.92148e-06,1.63897,0.00985704,1.1626,125.327,1568204632
0,1,0,0,0,100,0,0,0,0,7.82,11.1324,0.0214446,1.96743e-06,1.87016,0.0115636,0.763706,127.557,1568204674
0,1,0,0,0,100,0,0,0,0,7.8,11.097,0.014088,1.92695e-06,1.67625,0.00944343,0.936812,141.452,1568204717
0,1,0,0,0,100,0,0,0,0,7.84,11.1023,0.0205275,1.9256e-06,1.83685,0.00962265,0.798767,122.522,1568204759
0,1,0,0,0,100,0,0,0,0,7.84,11.1005,0.0167147,1.92649e-06,1.70448,0.00880214,0.81602,187.865,1568204802
0,1,0,0,0,100,0,0,0,0,8.43,10.3341,0.0236731,1.96491e-06,3.64813,0.0112269,1.06811,243.195,1568204845
0,1,0,0,0,100,0,0,0,0,7.78,11.1739,0.0212015,1.94117e-06,1.6429,0.0101503,1.23044,125.632,1568204888
0,1,0,0,0,100,0,0,0,0,7.76,11.188,0.0259671,1.88752e-06,1.65221,0.010892,1.13162,225.341,1568204930
0,1,0,0,0,100,0,0,0,0,7.8,11.1373,0.0156635,1.9393e-06,1.70889,0.0114952,0.956388,157.045,1568204973
0,2,0,0,0,100,0,0,0,0,7.8,11.1502,0.0482716,1.96935e-06,1.75194,0.0103524,0.799924,190.687,1568205015
0,2,0,0,0,100,0,0,0,0,7.79,11.1269,0.0464218,1.96526e-06,1.62052,0.0102711,0.794717,121.384,1568205057
0,2,0,0,0,100,0,0,0,0,9.04,9.52994,0.0651707,1.88352e-06,0.976055,0.00997674,0.710059,243.758,1568205099
0,2,0,0,0,100,0,0,0,0,7.8,11.1117,0.0584305,1.96543e-06,1.41377,0.0110561,1.10876,127.777,1568205144
0,2,0,0,0,100,0,0,0,0,7.85,11.0889,0.0523628,1.90316e-06,2.0286,0.0113724,1.11503,156.646,1568205187
0,2,0,0,0,100,0,0,0,0,7.81,11.1734,0.0412795,1.99765e-06,1.94857,0.0110578,0.892286,243.959,1568205230
0,2,0,0,0,100,0,0,0,0,7.82,11.1308,0.048204,1.92578e-06,1.89624,0.0116884,0.857262,239.266,1568205272
0,2,0,0,0,100,0,0,0,0,7.91,11.0119,0.0538892,1.93775e-06,2.18717,0.0108537,0.884034,135.261,1568205315
0,2,0,0,0,100,0,0,0,0,7.88,11.0578,0.0368106,1.88525e-06,1.94181,0.0106745,0.699371,120.766,1568205358
0,2,0,0,0,100,0,0,0,0,7.84,11.0979,0.0522973,1.93152e-06,1.92206,0.0096512,0.907593,158.661,1568205400
0,2,0,0,0,100,0,0,0,0,7.77,11.1467,0.0436627,1.90144e-06,1.61921,0.0107849,0.836812,210.33,1568205442
0,2,0,0,0,100,0,0,0,0,7.74,11.1488,0.036214,1.94215e-06,1.41034,0.00965538,0.700002,240.001,1568205485
0,2,0,0,0,100,0,0,0,0,7.84,11.1054,0.0299576,1.98089e-06,1.80837,0.0111081,0.657473,243.661,1568205526
0,2,0,0,0,100,0,0,0,0,8.3,10.487,0.0205138,1.93265e-06,3.2947,0.0112189,0.85976,222.102,1568205570
0,2,0,0,0,100,0,0,0,0,7.82,11.1025,0.0585711,1.85684e-06,1.37908,0.00955286,0.866202,113.466,1568205613
0,2,0,0,0,100,0,0,0,0,7.78,11.1901,0.0388803,1.97668e-06,1.63467,0.0100899,1.01146,180.949,1568205656
0,2,0,0,0,100,0,0,0,0,7.8,11.1667,0.0361426,1.97732e-06,1.76777,0.00941477,0.880355,242.517,1568205697
0,2,0,0,0,100,0,0,0,0,7.82,11.1345,0.0360134,1.96557e-06,1.87776,0.0107189,0.681508,144.68,1568205739
0,2,0,0,0,100,0,0,0,0,7.77,11.1763,0.0327291,1.92319e-06,1.58754,0.00958673,0.944658,128.447,1568205781
0,2,0,0,0,100,0,0,0,0,7.76,11.1574,0.0494979,1.96923e-06,1.53298,0.00855423,0.922969,144.339,1568205822
0,2,0,0,0,100,0,0,0,0,7.78,11.1447,0.0393898,1.91867e-06,1.77949,0.0105019,0.87782,122.608,1568205865
0,2,0,0,0,100,0,0,0,0,7.76,11.159,0.0404548,1.94917e-06,1.55828,0.00991277,0.944038,147.096,1568205907
0,2,0,0,0,100,0,0,0,0,9.1,9.61139,0.0352317,1.88181e-06,4.62214,0.00955477,0.924187,167.355,1568205949
0,2,0,0,0,100,0,0,0,0,7.78,11.0903,0.0568897,1.96214e-06,1.60207,0.0108885,0.759196,145.029,1568205994
0,2,0,0,0,100,0,0,0,0,7.87,11.0744,0.0439129,1.9259e-06,2.02439,0.00952208,0.75288,178.343,1568206037
0,2,0,0,0,100,0,0,0,0,7.83,11.1205,0.0475449,1.90639e-06,1.87481,0.00974404,1.00599,140.46,1568206079
0,2,0,0,0,100,0,0,0,0,7.8,11.1395,0.044775,1.94315e-06,1.97803,0.0126813,0.862193,160.48,1568206122
0,2,0,0,0,100,0,0,0,0,7.82,11.1075,0.0453374,1.97304e-06,1.84272,0.010535,0.949033,154.16,1568206164
0,2,0,0,0,100,0,0,0,0,7.77,11.1464,0.0359734,1.92007e-06,1.6094,0.0108693,0.870627,243.498,1568206207
0,2,0,0,0,100,0,0,0,0,7.84,11.1031,0.0290599,1.90159e-06,1.80578,0.0116687,0.816028,243.847,1568206250
0,2,0,0,0,100,0,0,0,0,7.88,11.0676,0.043483,1.9258e-06,2.17483,0.0096592,0.816288,121.791,1568206293
0,2,0,0,0,100,0,0,0,0,7.9,11.0124,0.0311411,1.89821e-06,1.87126,0.0096336,1.06699,243.807,1568206336
0,2,0,0,0,100,0,0,0,0,7.81,11.1689,0.0473247,1.93645e-06,1.95194,0.00979238,0.817121,151.963,1568206378
0,2,0,0,0,100,0,0,0,0,7.81,11.1493,0.0366541,1.90305e-06,1.82135,0.00994318,0.623764,122.369,1568206421
0,2,0,0,0,100,0,0,0,0,7.78,11.144,0.04756,1.97491e-06,1.73199,0.0108544,1.07224,246.457,1568206464
0,2,0,0,0,100,0,0,0,0,7.8,11.1501,0.0398203,1.98355e-06,1.71544,0.011638,0.871466,124.981,1568206506
0,2,0,0,0,100,0,0,0,0,7.79,11.1347,0.0314674,1.9512e-06,1.63387,0.0102512,0.829908,157.521,1568206548
0,2,0,0,0,100,0,0,0,0,11.6,7.53164,0.0335709,1.79737e-06,4.15205,0.00930735,0.700035,171.872,1568206590
0,2,0,0,0,100,0,0,0,0,7.78,11.0983,0.0273003,1.87586e-06,1.27176,0.0108761,0.627068,209.829,1568206640
0,2,0,0,0,100,0,0,0,0,7.8,11.1101,0.0501285,1.94219e-06,1.80252,0.0104342,0.825062,198.663,1568206682
0,2,0,0,0,100,0,0,0,0,7.82,11.1204,0.0512333,1.89184e-06,1.63807,0.0101243,0.729086,118.109,1568206726
0,2,0,0,0,100,0,0,0,0,7.8,11.1361,0.0340951,1.94419e-06,1.78203,0.009678,0.752055,104.783,1568206768
0,2,0,0,0,100,0,0,0,0,7.8,11.12,0.0405928,1.89762e-06,1.46302,0.0106801,1.04144,128.206,1568206811
0,2,0,0,0,100,0,0,0,0,7.9,11.0106,0.0218305,1.9783e-06,1.78678,0.00975079,0.859951,121.877,1568206853
0,2,0,0,0,100,0,0,0,0,7.91,11.0449,0.0254909,1.95077e-06,1.98835,0.011617,0.837658,138.829,1568206895
0,2,0,0,0,100,0,0,0,0,7.72,11.2314,0.049143,1.9549e-06,1.65591,0.0107125,1.02115,125.118,1568206938
0,2,0,0,0,100,0,0,0,0,7.79,11.0726,0.0552917,1.8788e-06,1.20143,0.00984011,1.02348,124.802,1568206981
0,2,0,0,0,100,0,0,0,0,7.75,11.1756,0.0672245,1.97632e-06,1.77075,0.00884778,0.978447,122.053,1568207023
0,2,0,0,0,100,0,0,0,0,7.78,11.167,0.0603346,1.98361e-06,1.70459,0.00968242,0.896366,244.095,1568207066
0,2,0,0,0,100,0,0,0,0,7.81,11.1043,0.050869,1.9524e-06,1.72587,0.0104994,0.694911,213.484,1568207108
0,2,0,0,0,100,0,0,0,0,7.88,11.0742,0.0575127,1.91603e-06,1.7767,0.0112835,0.958333,175.604,1568207150
0,2,0,0,0,100,0,0,0,0,7.77,11.1816,0.0364675,1.96188e-06,1.73641,0.0111142,0.937603,228.732,1568207193
0,2,0,0,0,100,0,0,0,0,7.79,11.1613,0.0425168,2.00975e-06,1.62064,0.0105447,1.00458,130.498,1568207235
0,2,0,0,0,100,0,0,0,0,7.71,11.165,0.0229342,1.93374e-06,0.990689,0.0101372,1.19087,200.799,1568207277
0,2,0,0,0,100,0,0,0,0,8.2,10.6724,0.0319829,1.91852e-06,2.70814,0.00920923,0.848646,244.91,1568207320
0,2,0,0,0,100,0,0,0,0,7.86,11.076,0.0441514,1.94644e-06,1.92271,0.00922334,0.782471,127.854,1568207363
0,2,0,0,0,100,0,0,0,0,7.96,10.9257,0.0203753,1.92471e-06,1.8192,0.00956052,1.11057,172.349,1568207406
0,2,0,0,0,100,0,0,0,0,8.12,10.784,0.0308558,1.9293e-06,2.72823,0.00947292,0.668088,244.459,1568207448
0,2,0,0,0,100,0,0,0,0,7.92,11.0018,0.0375601,1.92522e-06,1.57767,0.0106374,0.988869,242.959,1568207491
0,2,0,0,0,100,0,0,0,0,7.85,11.0798,0.0488469,1.91503e-06,2.02925,0.0108848,0.749062,241.357,1568207533
0,2,0,0,0,100,0,0,0,0,7.8,11.1812,0.0266269,1.95572e-06,1.85011,0.0098094,0.772619,121.2,1568207575
0,2,0,0,0,100,0,0,0,0,7.78,11.1816,0.0281645,1.99225e-06,1.75201,0.0102767,1.09091,88.3866,1568207617
0,2,0,0,0,100,0,0,0,0,7.9,11.0619,0.0352523,1.96198e-06,1.95087,0.0106708,0.668633,121.666,1568207661
0,2,0,0,0,100,0,0,1,0,4.1,10.65,0.0293575,2.26983e-06,0.544854,0.0119289,1.14624,124.352,1568207703
0,2,0,0,0,100,0,0,0,0,8,10.8822,0.0383217,1.92837e-06,2.01632,0.0101677,0.82531,118.814,1568207738
0,2,0,0,0,100,0,0,0,0,7.74,11.1611,0.0455067,1.9414e-06,1.5296,0.00940506,0.738163,100.591,1568207781
0,2,0,0,0,100,0,0,0,0,7.78,11.1224,0.0340551,1.99628e-06,1.56779,0.0110812,0.80902,243.459,1568207823
0,2,0,0,0,100,0,0,0,0,7.87,11.0841,0.0291055,1.93208e-06,1.91127,0.0102609,0.895518,193.094,1568207865
0,2,0,0,0,100,0,0,0,0,7.88,10.9483,0.0678796,1.9092e-06,1.055,0.00969259,0.798842,137.593,1568207908
0,2,0,0,0,100,0,0,0,0,7.87,11.0962,0.0336625,1.95425e-06,1.8352,0.00954795,1.17961,121.498,1568207952
0,2,0,0,0,100,0,0,0,0,7.79,11.1357,0.0560012,1.93851e-06,1.80732,0.0103954,0.815183,245.748,1568207994
0,2,0,0,0,100,0,0,0,0,7.86,11.0896,0.0494203,1.93795e-06,1.86973,0.0114164,0.822484,244.617,1568208036
0,2,0,0,0,100,0,0,0,0,7.9,11.0448,0.0320333,1.87652e-06,2.03337,0.0106631,1.29565,138.601,1568208078
0,2,0,0,0,100,0,0,0,0,7.76,11.171,0.0578842,1.92897e-06,1.62603,0.0100193,0.940743,244.508,1568208122
0,2,0,0,0,100,0,0,0,0,7.8,11.1805,0.0416863,1.89344e-06,1.76003,0.0113939,0.88847,125.899,1568208164
0,2,0,0,0,100,0,0,0,0,7.87,11.0484,0.0648322,1.93911e-06,1.99111,0.0107948,0.833087,241.185,1568208207
0,2,0,0,0,100,0,0,0,0,7.79,11.0801,0.028863,1.89134e-06,1.47981,0.0116684,1.03103,120.48,1568208250
0,2,0,0,0,100,0,0,0,0,7.8,11.1249,0.0324148,1.94072e-06,1.71293,0.0107674,0.868392,244.779,1568208291
0,2,0,0,0,100,0,0,0,0,7.84,11.0991,0.0360956,1.96555e-06,1.87394,0.0115085,0.670034,199.592,1568208334
0,2,0,0,0,100,0,0,0,0,7.84,11.1118,0.0316854,1.98591e-06,1.90938,0.0110282,0.945609,125.286,1568208376
0,2,0,0,0,100,0,0,0,0,7.77,11.1571,0.0218975,1.91966e-06,1.60596,0.0103486,0.736046,194.045,1568208421
0,2,0,0,0,100,0,0,0,0,7.96,10.9628,0.0457255,1.98082e-06,2.18316,0.0100973,0.980476,147.332,1568208466
0,2,0,0,0,100,0,0,0,0,7.85,11.0898,0.0578783,1.90502e-06,1.88351,0.0104414,0.668633,128.341,1568208510
0,2,0,0,0,100,0,0,0,0,7.81,11.127,0.0299573,1.94451e-06,1.80459,0.0105132,0.829148,147.021,1568208553
0,2,0,0,0,100,0,0,0,0,7.78,11.1663,0.0394879,1.93553e-06,1.60712,0.010758,0.768847,134.835,1568208595
0,2,0,0,0,100,0,0,0,0,7.86,11.0764,0.0457394,1.95926e-06,1.89444,0.0109115,0.858634,123.192,1568208639
0,2,0,0,0,100,0,0,0,0,7.88,10.9586,0.0394515,1.9386e-06,1.84007,0.010171,1.02727,143.754,1568208682
0,2,0,0,0,100,0,0,0,0,7.86,11.1141,0.0553899,1.90449e-06,1.87216,0.00969609,0.963194,244.039,1568208725
0,2,0,0,0,100,0,0,0,0,7.8,11.136,0.0424704,1.93946e-06,1.80003,0.0103281,1.01381,127.708,1568208768
0,2,0,0,0,100,0,0,0,0,7.83,11.0855,0.0641152,1.96251e-06,1.85456,0.00979017,1.18025,172.585,1568208812
0,2,0,0,0,100,0,0,0,0,7.8,11.12,0.0573495,1.91982e-06,1.44737,0.0104449,0.747411,243.628,1568208854
0,2,0,0,0,100,0,0,0,0,8.15,10.6895,0.0396678,1.92275e-06,2.15123,0.0115409,0.72602,243.835,1568208896
0,2,0,0,0,100,0,0,0,0,8.03,10.8106,0.042354,1.96416e-06,2.23415,0.00945264,0.801381,243.079,1568208940
0,2,0,0,0,100,0,0,0,0,8.29,10.4414,0.0252141,1.95822e-06,2.88139,0.0104774,1.0865,161.46,1568208983
0,2,0,0,0,100,0,0,1,0,4.22,10.3998,0.0816137,2.22407e-06,0.479567,0.0115665,1.36714,173.935,1568209027
0,2,0,0,0,100,0,0,0,0,7.97,10.968,0.0350458,1.92471e-06,2.45872,0.0107997,0.947242,240.036,1568209063
0,2,0,0,0,100,0,0,0,0,7.88,11.0619,0.0357614,1.92644e-06,1.87769,0.0100844,0.747586,169.913,1568209106
0,2,0,0,0,100,0,0,0,0,7.89,11.0361,0.0345704,1.95816e-06,1.88474,0.0102955,0.942605,195.518,1568209148
0,2,0,0,0,100,0,0,0,0,7.88,11.0515,0.0534905,1.97379e-06,1.89406,0.00932441,0.744214,127.603,1568209190
0,2,0,0,0,100,0,0,0,0,8.15,10.6453,0.0574649,1.93347e-06,1.57737,0.00962616,0.803952,160.318,1568209233
0,3,0,0,0,100,0,0,0,0,8.4,10.4042,0.0306172,1.92858e-06,3.39725,0.0102818,0.7292,243.884,1568209276
0,3,0,0,0,100,0,0,0,0,7.85,11.0941,0.0676285,1.90716e-06,1.99879,0.0107146,0.788523,122.606,1568209320
0,3,0,0,0,100,0,0,0,0,7.8,11.1446,0.0487907,1.93411e-06,1.76581,0.0114131,1.09982,243.618,1568209363
0,3,0,0,0,100,0,0,0,0,7.8,11.0388,0.0697929,1.97775e-06,1.07519,0.010824,0.692784,243.73,1568209407
0,3,0,0,0,100,0,0,0,0,7.79,11.1544,0.0640055,1.96374e-06,1.80667,0.00981151,0.854341,243.236,1568209449
0,3,0,0,0,100,0,0,0,0,7.8,11.1505,0.0656695,1.92287e-06,1.81133,0.0104045,1.09143,243.568,1568209492
0,3,0,0,0,100,0,0,0,0,7.88,10.9442,0.0440355,1.92776e-06,1.90917,0.0101749,0.984218,244.262,1568209535
0,3,0,0,0,100,0,0,0,0,7.9,11.0576,0.0503029,1.98257e-06,2.01399,0.00935723,0.742504,122.09,1568209578
0,3,0,0,0,100,0,0,0,0,7.82,11.1289,0.0636537,1.96227e-06,1.86361,0.00961172,0.659219,243.517,1568209621
0,3,0,0,0,100,0,0,0,0,7.8,11.1311,0.0649758,1.90824e-06,1.91254,0.010737,0.929292,115.231,1568209664
0,3,0,0,0,100,0,0,0,0,7.82,11.1323,0.0556499,1.93358e-06,1.8845,0.0124514,0.724614,125.517,1568209707
0,3,0,0,0,100,0,0,0,0,7.82,11.1363,0.0615434,1.9033e-06,1.88019,0.00989168,0.668773,125.626,1568209749
0,3,0,0,0,100,0,0,0,0,7.8,11.1386,0.0864317,1.9864e-06,1.72291,0.0102178,0.632803,124.393,1568209792
0,3,0,0,0,100,0,0,0,0,8.52,10.1408,0.103894,1.90721e-06,1.18496,0.0110832,0.748911,109.554,1568209834
0,3,0,0,0,100,0,0,0,0,7.8,11.1625,0.055574,1.93273e-06,1.75186,0.009412,0.933587,122.415,1568209878
0,3,0,0,0,100,0,0,0,0,7.8,11.159,0.0647078,1.96905e-06,1.88146,0.0104928,0.934263,125.301,1568209920
0,3,0,0,0,100,0,0,0,0,7.8,11.1356,0.0576306,1.88174e-06,1.93748,0.0119162,0.771334,121.677,1568209963
0,3,0,0,0,100,0,0,0,0,7.79,11.1418,0.0611941,1.89841e-06,1.69197,0.0106888,0.927561,125.288,1568210005
0,3,0,0,0,100,0,0,0,0,8.5,10.1751,0.0807836,1.90841e-06,1.5526,0.00873102,0.918801,122.374,1568210047
0,3,0,0,0,100,0,0,0,0,10.48,8.28328,0.0817852,1.76286e-06,1.95497,0.0100798,0.606534,123.798,1568210091
0,3,0,0,0,100,0,0,0,0,8.15,10.6402,0.0351741,1.90416e-06,2.36111,0.0100236,1.0093,247.793,1568210139
0,3,0,0,0,100,0,0,0,0,7.8,11.124,0.0723461,1.91388e-06,1.71264,0.00915707,0.737812,243.41,1568210181
0,3,0,0,0,100,0,0,0,0,7.9,10.9511,0.0306853,1.90296e-06,2.01824,0.0109638,0.866623,143.634,1568210223
0,3,0,0,0,100,0,0,0,0,7.79,11.1618,0.0643994,1.92523e-06,1.9406,0.00966434,0.922253,122.734,1568210266
0,3,0,0,0,100,0,0,0,0,7.88,11.0754,0.0821821,1.95842e-06,1.94255,0.00986552,0.775134,243.941,1568210309
0,3,0,0,0,100,0,0,0,0,7.89,11.0577,0.0528756,1.94238e-06,2.00139,0.00963102,0.878832,243.579,1568210352
0,3,0,0,0,100,0,0,0,0,7.9,10.9845,0.0518393,1.93138e-06,1.69724,0.010125,0.815045,121.9,1568210394
0,3,0,0,0,100,0,0,0,0,8.7,10.0311,0.0516794,1.91255e-06,4.00082,0.00965204,0.109181,175.924,1568210437
0,3,0,0,0,100,0,0,0,0,7.87,11.0625,0.0623361,1.96989e-06,1.86965,0.0106864,0.491375,243.994,1568210482
0,3,0,0,0,100,0,0,0,0,7.86,11.0708,0.0641293,1.87942e-06,1.84926,0.0102708,0.911092,243.509,1568210524
0,3,0,0,0,100,0,0,0,0,7.85,11.0815,0.0727233,1.91701e-06,1.89858,0.0130104,0.55291,170.97,1568210568
0,3,0,0,0,100,0,0,0,0,7.8,11.1407,0.0499791,1.89077e-06,1.67479,0.0102703,0.762219,138.765,1568210611
0,3,0,0,0,100,0,0,0,0,7.83,11.1178,0.0700487,1.97947e-06,1.89524,0.00931443,0.658717,241.099,1568210654
0,3,0,0,0,100,0,0,0,0,8.25,10.5762,0.0492059,1.93039e-06,3.27607,0.00992925,0.527997,140.053,1568210697
0,3,0,0,0,100,0,0,1,0,4.21,10.5311,0.0855032,2.2226e-06,0.371473,0.00796824,1.55057,125.634,1568210741
0,3,0,0,0,100,0,0,0,0,7.75,11.1633,0.058584,1.92308e-06,1.61104,0.0106428,0.979009,183.74,1568210777
0,3,0,0,0,100,0,0,0,0,7.87,11.0447,0.0716227,1.92188e-06,2.04378,0.0108915,0.738245,189.101,1568210820
0,3,0,0,0,100,0,0,0,0,7.8,11.0915,0.0595944,1.93456e-06,1.46235,0.0102285,0.810161,125.07,1568210862
0,3,0,0,0,100,0,0,0,0,7.79,11.1779,0.0795989,1.9154e-06,1.80876,0.0113535,0.956939,183.874,1568210905
0,3,0,0,0,100,0,0,0,0,7.82,11.0548,0.0597346,1.94034e-06,1.84561,0.0094533,0.631235,242.944,1568210948
0,3,0,0,0,100,0,0,0,0,7.88,11.0919,0.0640891,1.92937e-06,1.96265,0.0106252,1.01385,243.287,1568210991
0,3,0,0,0,100,0,0,0,0,8.2,10.6606,0.0611378,1.92951e-06,2.59749,0.0108126,0.826267,130.447,1568211034
0,3,0,0,0,100,0,0,0,0,7.78,11.1302,0.0467124,1.91526e-06,1.54844,0.0103961,0.882078,162.816,1568211077
0,3,0,0,0,100,0,0,0,0,7.8,11.1644,0.04169,1.9779e-06,1.77484,0.0107583,0.884291,246.763,1568211120
0,3,0,0,0,100,0,0,0,0,7.72,11.1626,0.0626005,1.90346e-06,1.38039,0.00985381,0.875216,202.17,1568211162
0,3,0,0,0,100,0,0,0,0,7.8,11.1464,0.0637567,1.89116e-06,1.8496,0.0105159,0.630557,128.575,1568211205
0,3,0,0,0,100,0,0,0,0,7.78,11.1454,0.0576264,1.95956e-06,1.49807,0.010661,1.04644,128.857,1568211247
0,3,0,0,0,100,0,0,0,0,7.81,11.1406,0.0472458,1.92257e-06,1.89046,0.009774,1.13883,178.997,1568211291
0,3,0,0,0,100,0,0,0,0,7.8,11.1328,0.0347119,1.95914e-06,1.75528,0.0103949,0.965483,121.619,1568211334
0,3,0,0,0,100,0,0,0,0,7.8,11.0991,0.0538336,1.95485e-06,1.40697,0.0093268,0.898307,244.773,1568211377
0,3,0,0,0,100,0,0,0,0,7.88,11.0737,0.0367994,1.91865e-06,2.02359,0.0109896,0.749025,122.839,1568211420
0,3,0,0,0,100,0,0,0,0,7.79,11.1018,0.0619157,1.92972e-06,1.68846,0.0111153,1.15724,124.214,1568211463
0,3,0,0,0,100,0,0,0,0,7.8,11.1403,0.054008,1.94089e-06,1.7233,0.0101766,1.0293,124.148,1568211506
0,3,0,0,0,100,0,0,0,0,7.75,11.1945,0.0591036,1.87908e-06,1.77349,0.00971946,0.623721,207.863,1568211547
0,3,0,0,0,100,0,0,0,0,7.88,11.0445,0.0518241,1.89154e-06,1.99617,0.0115813,0.859517,243.384,1568211590
0,3,0,0,0,100,0,0,0,0,7.89,11.0275,0.062145,1.92798e-06,1.97852,0.00983691,0.864306,183.242,1568211633
0,3,0,0,0,100,0,0,0,0,7.77,11.142,0.0637855,1.98553e-06,1.32551,0.0103283,0.786488,177.451,1568211676
0,3,0,0,0,100,0,0,0,0,7.79,11.1566,0.0719685,1.90188e-06,1.78674,0.0122737,0.790364,242.98,1568211719
0,3,0,0,0,100,0,0,0,0,7.72,11.2377,0.0690788,1.9019e-06,1.79805,0.0103453,0.867262,175.191,1568211762
0,3,0,0,0,100,0,0,0,0,7.79,11.1645,0.0670621,1.95237e-06,1.70257,0.00908491,0.737526,124.297,1568211805
0,3,0,0,0,100,0,0,0,0,7.82,11.1046,0.0682904,1.94436e-06,1.70022,0.00920748,0.817156,193.107,1568211847
0,3,0,0,0,100,0,0,0,0,7.73,11.199,0.0612892,1.94971e-06,1.69674,0.0113492,0.808444,134.67,1568211890
0,3,0,0,0,100,0,0,0,0,7.76,11.1913,0.0646041,1.94383e-06,1.49741,0.0100683,0.860959,124.806,1568211934
0,3,0,0,0,100,0,0,0,0,7.75,11.1584,0.0645712,1.96335e-06,1.37364,0.00969302,0.929148,105.784,1568211976
0,3,0,0,0,100,0,0,0,0,7.77,11.1693,0.0686972,1.92107e-06,1.77488,0.0104872,0.785481,176.246,1568212019
0,3,0,0,0,100,0,0,0,0,7.88,11.037,0.0453881,1.88467e-06,1.75676,0.0104603,0.926041,151.203,1568212061
0,3,0,0,0,100,0,0,0,0,7.72,11.2091,0.0602872,1.97754e-06,1.63102,0.0100817,0.678007,243.989,1568212104
0,3,0,0,0,100,0,0,0,0,7.86,11.075,0.0638819,1.95642e-06,2.10574,0.0109065,0.770684,100.088,1568212147
0,3,0,0,0,100,0,0,0,0,7.79,11.0893,0.0403067,1.96234e-06,1.59486,0.00986623,1.04691,166.827,1568212189
0,3,0,0,0,100,0,0,1,0,4.11,10.6762,0.0776454,2.20412e-06,0.523431,0.0108874,1.48272,128.751,1568212232
0,3,0,0,0,100,0,0,0,0,7.84,11.1144,0.0638752,1.93485e-06,1.89067,0.0122429,0.900848,122.339,1568212268
0,3,0,0,0,100,0,0,0,0,7.78,11.1233,0.075886,1.95193e-06,1.39175,0.00995944,0.953569,121.872,1568212311
0,3,0,0,0,100,0,0,0,0,7.77,11.1406,0.0564789,1.91436e-06,1.24685,0.0113065,0.769202,121.471,1568212354
0,3,0,0,0,100,0,0,0,0,7.8,11.1551,0.0561897,1.94587e-06,1.72981,0.00925837,0.836363,150.446,1568212397
0,3,0,0,0,100,0,0,0,0,7.8,11.1599,0.055474,1.93939e-06,1.90078,0.0110097,0.80816,124.574,1568212440
0,3,0,0,0,100,0,0,0,0,7.81,11.1636,0.0592446,1.98132e-06,1.85575,0.0105244,0.850477,248.497,1568212483
0,3,0,0,0,100,0,0,0,0,7.79,11.1424,0.0453067,1.95696e-06,1.86029,0.0104596,0.8517,245.66,1568212526
0,3,0,0,0,100,0,0,0,0,7.76,11.1773,0.0545588,1.93374e-06,1.84066,0.00887166,0.808159,223.258,1568212569
0,3,0,0,0,100,0,0,0,0,7.88,11.0684,0.0573632,1.93241e-06,1.93765,0.008284,0.802039,121.712,1568212611
0,3,0,0,0,100,0,0,0,0,7.84,11.1125,0.0595446,1.93595e-06,1.80237,0.00961334,0.794358,146.282,1568212653
0,3,0,0,0,100,0,0,0,0,8.1,10.7834,0.0481931,1.9159e-06,3.0591,0.00956415,0.555962,222.599,1568212695
0,3,0,0,0,100,0,0,0,0,7.88,11.0623,0.0477388,1.91314e-06,1.70384,0.010148,0.71686,100.622,1568212739
0,3,0,0,0,100,0,0,0,0,7.85,11.0122,0.061139,1.93832e-06,1.35747,0.00926606,0.945332,125.143,1568212783
0,3,0,0,0,100,0,0,0,0,7.77,11.1285,0.0457794,1.95368e-06,1.46042,0.010669,1.05814,125.15,1568212826
0,3,0,0,0,100,0,0,0,0,9.1,9.59554,0.0276239,1.89828e-06,4.77536,0.0110185,0.717422,125.373,1568212870
0,3,0,0,0,100,0,0,0,0,7.82,11.0967,0.0778772,1.92168e-06,1.48123,0.0094304,0.718614,123.733,1568212915
0,3,0,0,0,100,0,0,0,0,7.8,11.0826,0.0496782,1.93813e-06,1.78943,0.00989018,1.06049,203.537,1568212957
0,3,0,0,0,100,0,0,0,0,7.84,11.1059,0.0576123,1.9498e-06,1.85859,0.0101562,0.887658,124.909,1568213000
0,3,0,0,0,100,0,0,0,0,8.46,10.2972,0.0612482,1.92723e-06,2.53747,0.010978,0.885246,89.4696,1568213043
0,3,0,0,0,100,0,0,0,0,8.02,10.8783,0.0599926,1.91644e-06,2.42901,0.00953291,0.764178,125.035,1568213087
0,3,0,0,0,100,0,0,0,0,7.82,11.092,0.0729212,1.95393e-06,1.81583,0.010377,0.899158,244.257,1568213130
0,3,0,0,0,100,0,0,0,0,7.89,11.0346,0.0479705,1.92578e-06,2.0162,0.00962067,0.760638,124.951,1568213172
0,3,0,0,0,100,0,0,0,0,8.3,10.5006,0.054896,1.90725e-06,1.81464,0.0117059,0.903508,246.566,1568213215
0,3,0,0,0,100,0,0,0,0,7.73,11.2196,0.070643,1.92747e-06,1.5611,0.0107893,0.820343,244.866,1568213259
0,3,0,0,0,100,0,0,0,0,7.75,11.1872,0.0481763,1.93418e-06,1.57039,0.0100132,0.993268,172.838,1568213301
0,3,0,0,0,100,0,0,0,0,7.79,11.1478,0.0823674,1.9542e-06,1.67923,0.0108025,0.731293,124.924,1568213343
0,3,0,0,0,100,0,0,0,0,7.8,11.1221,0.0627734,1.92771e-06,1.28015,0.0104085,0.709196,122.145,1568213386
0,3,0,0,0,100,0,0,0,0,8.01,11.0167,0.0570125,1.9364e-06,2.5026,0.00992166,0.84022,128.11,1568213428
0,3,0,0,0,100,0,0,0,0,7.8,11.1635,0.0554042,1.97947e-06,1.76667,0.00916705,0.701833,80.241,1568213470
0,3,0,0,0,100,0,0,0,0,7.83,11.0924,0.0505402,1.92383e-06,1.83473,0.011725,0.904818,156.765,1568213513
0,4,0,0,0,100,0,0,0,0,7.8,11.1045,0.0998924,1.96155e-06,1.35867,0.0103444,1.02814,243.901,1568213556
0,4,0,0,0,100,0,0,0,1,4.81,9.73763,0.104007,2.17288e-06,0.527056,0.0129255,1.33852,244.63,1568213599
0,4,0,0,0,100,0,0,0,0,7.79,11.171,0.113338,1.95719e-06,1.69062,0.0112339,0.829358,125.015,1568213637
0,4,0,0,0,100,0,0,0,0,7.79,11.1485,0.0658313,1.9316e-06,1.84208,0.0106794,0.711315,89.0236,1568213679
0,4,0,0,0,100,0,0,0,0,7.9,11.0393,0.101239,1.96111e-06,1.83152,0.0094008,1.14375,152.23,1568213722
0,4,0,0,0,100,0,0,0,0,7.8,11.1205,0.0685872,1.90356e-06,1.66078,0.0107806,0.693606,243.47,1568213765
0,4,0,0,0,100,0,0,0,0,7.8,11.1256,0.0768888,1.916e-06,1.7605,0.00866953,0.971082,112.062,1568213808
0,4,0,0,0,100,0,0,0,0,7.87,11.0873,0.0811899,2.00603e-06,2.14432,0.0113636,0.74352,122.381,1568213850
0,4,0,0,0,100,0,0,0,1,7.83,8.1765,0.0594175,1.89923e-06,1.33062,0.0126478,0.945041,87.6116,1568213893
0,4,0,0,0,100,0,0,0,0,7.78,11.1377,0.0807899,1.95382e-06,1.41767,0.0109852,1.01328,121.196,1568213936
0,4,0,0,0,100,0,0,0,0,7.82,11.1063,0.0755407,1.94696e-06,1.87737,0.0105683,0.751296,125.344,1568213979
0,4,0,0,0,100,0,0,0,0,8.2,10.6042,0.126576,1.92822e-06,1.47525,0.0101306,0.743967,126.143,1568214022
0,4,0,0,0,100,0,0,0,0,7.82,11.1344,0.0876344,1.96003e-06,2.07511,0.0106836,0.867055,128.369,1568214065
0,4,0,0,0,100,0,0,0,0,7.88,11.0707,0.0818193,1.89763e-06,1.83997,0.0103303,0.722256,243.619,1568214108
0,4,0,0,0,100,0,0,0,0,7.84,11.1081,0.0642885,1.94096e-06,1.93819,0.0116626,0.591103,125.298,1568214150
0,4,0,0,0,100,0,0,0,0,7.8,11.1443,0.0754588,1.92156e-06,1.63683,0.012103,0.642414,88.0289,1568214193
0,4,0,0,0,100,0,0,0,0,7.8,11.1402,0.0658191,1.94677e-06,1.90698,0.0105645,0.897948,90.4619,1568214236
0,4,0,0,0,100,0,0,0,0,7.8,11.1218,0.0813669,1.92014e-06,1.75687,0.0100543,0.773038,87.6666,1568214278
0,4,0,0,0,100,0,0,0,0,7.76,11.1346,0.0798603,1.94991e-06,1.58385,0.0112456,0.848212,128.176,1568214321
0,4,0,0,0,100,0,0,0,0,7.86,11.0994,0.0637045,1.95468e-06,2.06006,0.0104921,0.479467,243.981,1568214364
0,4,0,0,0,100,0,0,0,0,7.8,11.184,0.0974764,1.94778e-06,1.96475,0.00957767,0.690749,121.657,1568214407
0,4,0,0,0,100,0,0,0,0,36.2,2.41191,0.0958339,1.25452e-06,6.51595,0.00969521,0.726901,243.529,1568214450
0,4,0,0,0,100,0,0,0,0,7.82,11.1363,0.0815096,1.94314e-06,1.89749,0.0108839,0.694426,183.523,1568214544
0,4,0,0,0,100,0,0,0,0,7.84,11.105,0.0752972,1.94903e-06,1.78107,0.0101025,0.836325,125.499,1568214587
0,4,0,0,0,100,0,0,0,0,7.98,10.9007,0.0828459,1.91961e-06,1.55829,0.0103593,0.837209,124.46,1568214629
0,4,0,0,0,100,0,0,0,0,7.83,11.1034,0.0809225,1.91033e-06,1.78904,0.0106188,0.917555,177.246,1568214671
0,4,0,0,0,100,0,0,0,0,7.79,11.1141,0.0860816,1.95851e-06,1.51394,0.0116416,0.700317,244.157,1568214714
0,4,0,0,0,100,0,0,0,0,7.8,11.1334,0.0913012,1.97007e-06,1.59286,0.0105269,0.635567,129.169,1568214757
0,4,0,0,0,100,0,0,0,0,7.85,11.0929,0.064171,1.91001e-06,1.95928,0.0108157,0.621007,127.448,1568214799
0,4,0,0,0,100,0,0,0,0,8.09,10.8022,0.0527717,1.91172e-06,2.92712,0.0109342,0.720074,121.434,1568214842
0,4,0,0,0,100,0,0,0,0,7.84,11.0593,0.122163,1.88998e-06,1.81098,0.00982595,0.994885,243.966,1568214885
0,4,0,0,0,100,0,0,0,0,7.82,11.1572,0.0742925,1.88512e-06,1.89477,0.0105174,0.876513,245.236,1568214927
0,4,0,0,0,100,0,0,0,0,8,10.8678,0.0840408,1.9875e-06,2.19757,0.0101951,0.784812,90.4337,1568214970
0,4,0,0,0,100,0,0,0,0,7.84,11.1132,0.0688852,1.96762e-06,1.92263,0.0103115,0.798789,160.285,1568215014
0,4,0,0,0,100,0,0,0,0,7.79,11.1581,0.0861,1.91907e-06,1.78661,0.0105996,0.720004,145.979,1568215056
0,4,0,0,0,100,0,0,0,0,7.8,11.1512,0.0776905,1.94094e-06,1.95933,0.0105305,1.01258,153.641,1568215099
0,4,0,0,0,100,0,0,0,0,7.79,11.0918,0.0857463,1.89947e-06,1.33068,0.0109075,0.765386,156.73,1568215141
0,4,0,0,0,100,0,0,0,0,7.87,11.084,0.078892,1.94253e-06,1.90875,0.00998051,0.753908,125.085,1568215184
0,4,0,0,0,100,0,0,0,0,7.88,11.0954,0.0865043,1.88784e-06,2.06297,0.00989449,0.592415,243.809,1568215226
0,4,0,0,0,100,0,0,0,0,7.9,11.0386,0.0760715,1.9814e-06,1.96774,0.0104677,0.628705,121.655,1568215269
0,4,0,0,0,100,0,0,0,0,8.01,10.8634,0.0662614,1.91542e-06,2.5746,0.0107791,0.797581,129.014,1568215312
0,4,0,0,0,100,0,0,0,0,7.9,11.0411,0.0769447,1.94862e-06,1.94993,0.00934271,0.780748,140.188,1568215355
0,4,0,0,0,100,0,0,0,0,7.83,11.0182,0.080961,1.86822e-06,1.81976,0.00976972,0.694743,125.845,1568215400
0,4,0,0,0,100,0,0,0,0,7.82,11.0748,0.0878452,1.94636e-06,1.33414,0.0104105,0.852664,87.8801,1568215442
0,4,0,0,0,100,0,0,0,0,9.27,9.39181,0.0887289,1.9006e-06,2.4313,0.00997743,0.686137,245.116,1568215484
0,4,0,0,0,100,0,0,0,0,7.8,11.1419,0.0944494,1.96061e-06,1.71623,0.00917207,0.642582,88.0036,1568215530
0,4,0,0,0,100,0,0,0,0,7.8,11.1459,0.0935166,1.94512e-06,1.75333,0.00965598,0.74233,88.2532,1568215572
0,4,0,0,0,100,0,0,0,0,7.8,11.1295,0.0994016,1.89903e-06,1.70806,0.0118437,1.01993,237.011,1568215615
0,4,0,0,0,100,0,0,0,0,8.4,10.4091,0.0586284,1.98983e-06,3.55478,0.00974586,0.767077,243.532,1568215658
0,4,0,0,0,100,0,0,0,0,7.76,11.1457,0.102519,1.9783e-06,1.4641,0.00993107,0.705988,90.2372,1568215703
0,4,0,0,0,100,0,0,0,0,7.85,11.0907,0.0788677,1.9787e-06,1.83693,0.0114455,0.708072,244.105,1568215746
0,4,0,0,0,100,0,0,0,0,7.92,11.0025,0.0711372,1.95532e-06,2.47821,0.0109129,0.934937,244.084,1568215789
0,4,0,0,0,100,0,0,0,0,7.88,11.0618,0.0741018,1.93185e-06,1.83561,0.00913237,0.802594,244.062,1568215832
0,4,0,0,0,100,0,0,0,0,7.88,11.0899,0.0871603,1.94228e-06,1.86396,0.0101498,0.86247,168.303,1568215875
0,4,0,0,0,100,0,0,0,0,7.81,11.1412,0.0831158,1.92729e-06,1.75536,0.00889465,0.743678,126.28,1568215918
0,4,0,0,0,100,0,0,0,0,7.83,11.1032,0.0806323,1.95888e-06,1.89436,0.0102384,0.785873,123.357,1568215960
0,4,0,0,0,100,0,0,0,0,7.82,11.151,0.0646237,1.98008e-06,1.85437,0.0120329,0.757447,171.975,1568216003
0,4,0,0,0,100,0,0,0,0,7.9,11.0138,0.0755819,1.93182e-06,2.31108,0.0101941,0.823022,242.897,1568216045
0,4,0,0,0,100,0,0,0,0,7.85,11.0817,0.0800946,1.91711e-06,1.89375,0.0103801,0.762928,125.503,1568216087
0,4,0,0,0,100,0,0,0,0,7.79,11.1338,0.0745646,1.95323e-06,1.74392,0.00981623,0.814098,245.332,1568216130
0,4,0,0,0,100,0,0,0,0,7.8,11.1445,0.0893979,1.92714e-06,1.80289,0.00990525,0.67384,121.492,1568216171
0,4,0,0,0,100,0,0,0,0,7.82,11.0999,0.0939776,1.92307e-06,1.95877,0.00983306,0.861993,141.017,1568216214
0,4,0,0,0,100,0,0,0,0,7.82,11.1341,0.077973,1.90647e-06,1.83291,0.0111818,0.725591,243.866,1568216256
0,4,0,0,0,100,0,0,0,0,7.86,11.0828,0.1048,1.93855e-06,1.81656,0.0114766,0.837564,143.834,1568216298
0,4,0,0,0,100,0,0,0,0,7.8,11.1394,0.0908194,1.95827e-06,1.87819,0.00964344,1.04403,177.379,1568216341
0,4,0,0,0,100,0,0,0,0,7.9,11.0014,0.0761454,1.96245e-06,1.86679,0.011342,0.831149,125.434,1568216384
0,4,0,0,0,100,0,0,0,0,7.85,11.0836,0.0758156,1.94294e-06,1.9055,0.00938723,0.7526,136.675,1568216427
0,4,0,0,0,100,0,0,0,0,7.74,11.2083,0.0885504,1.90778e-06,1.77676,0.0106589,0.914159,119.693,1568216469
0,4,0,0,0,100,0,0,0,0,7.82,11.1302,0.0779512,1.94841e-06,1.71933,0.0100348,0.755792,125.295,1568216512
0,4,0,0,0,100,0,0,0,0,7.88,11.045,0.0920905,1.93592e-06,1.96517,0.0121989,0.853856,243.496,1568216555
0,4,0,0,0,100,0,0,0,0,7.89,11.0661,0.0645326,1.93246e-06,1.90457,0.0094928,1.04883,244.019,1568216597
0,4,0,0,0,100,0,0,0,0,8.23,10.6137,0.0658872,1.91844e-06,3.29959,0.00937335,0.646785,124.15,1568216640
0,4,0,0,0,100,0,0,0,0,7.83,11.0327,0.100351,1.9645e-06,1.40016,0.0108482,0.78015,243.676,1568216683
0,4,0,0,0,100,0,0,0,0,11.16,7.81307,0.0930951,1.76727e-06,2.52648,0.00889295,0.773096,243.164,1568216726
0,4,0,0,0,100,0,0,0,0,7.78,11.1823,0.0773521,1.95016e-06,1.76249,0.0101487,0.718396,156.809,1568216775
0,4,0,0,0,100,0,0,0,0,9.38,9.4438,0.0623184,1.91223e-06,5.13638,0.0115605,0.748888,244.932,1568216817
0,4,0,0,0,100,0,0,0,0,7.78,11.1469,0.0783166,1.94996e-06,1.59789,0.0111768,0.647342,244.71,1568216864
0,4,0,0,0,100,0,0,0,0,7.85,11.0957,0.0723249,1.91255e-06,2.01472,0.0101688,0.771182,140.191,1568216906
0,4,0,0,0,100,0,0,0,0,8.37,10.3107,0.0864565,1.92228e-06,0.871406,0.0104901,0.744754,243.966,1568216950
0,4,0,0,0,100,0,0,0,0,7.8,11.1428,0.0681393,1.89341e-06,1.87221,0.0105916,1.03262,121.771,1568216994
0,4,0,0,0,100,0,0,0,0,7.8,11.1301,0.0915102,1.90137e-06,1.91941,0.0102094,0.924063,196.011,1568217037
0,4,0,0,0,100,0,0,0,0,7.88,11.0728,0.0792434,1.89469e-06,2.0547,0.0106281,0.513149,101.982,1568217080
0,4,0,0,0,100,0,0,0,0,7.87,11.0873,0.0868679,1.91552e-06,1.95587,0.0101181,0.641367,125.435,1568217123
0,4,0,0,0,100,0,0,0,0,7.8,11.1541,0.0838019,1.90419e-06,1.78031,0.011,0.851807,243.646,1568217166
0,4,0,0,0,100,0,0,0,0,7.83,11.0989,0.0891739,1.91455e-06,1.90799,0.0117807,0.669982,124.096,1568217208
0,4,0,0,0,100,0,0,0,0,7.83,11.1355,0.095966,1.95253e-06,1.90669,0.0109989,0.55424,245.85,1568217250
0,4,0,0,0,100,0,0,0,0,8.02,10.8784,0.0953803,1.91011e-06,2.3176,0.011336,0.760042,103.6,1568217293
0,4,0,0,0,100,0,0,0,0,7.9,11.0242,0.0669177,1.93818e-06,2.02302,0.0105802,0.598377,170.331,1568217336
0,4,0,0,0,100,0,0,0,0,7.82,11.1431,0.0943109,1.97946e-06,1.96647,0.0108203,0.86393,244.246,1568217378
0,4,0,0,0,100,0,0,0,0,7.8,11.1362,0.0813136,1.94687e-06,1.91693,0.0103571,0.771858,244.357,1568217422
0,4,0,0,0,100,0,0,0,0,7.77,11.1731,0.0864477,1.9626e-06,1.45412,0.00920798,0.867026,121.992,1568217464
0,4,0,0,0,100,0,0,0,1,6.66,9.89313,0.0706368,1.95215e-06,2.96087,0.00935862,0.876013,244.076,1568217506
0,4,0,0,0,100,0,0,0,0,7.9,11.0665,0.0764275,1.92983e-06,2.07014,0.0122824,0.692114,243.108,1568217547
0,4,0,0,0,100,0,0,0,0,7.8,11.145,0.0969422,1.95658e-06,1.86438,0.0116224,0.626779,88.2357,1568217590
0,4,0,0,0,100,0,0,0,0,7.8,11.0524,0.0582376,1.93421e-06,1.40402,0.0104487,0.903259,128.51,1568217632
0,4,0,0,0,100,0,0,0,0,7.82,11.0983,0.0856128,1.90687e-06,1.95617,0.00962155,0.832523,241.87,1568217674
0,4,0,0,0,100,0,0,0,0,7.8,11.1651,0.0722791,1.95536e-06,1.87158,0.0110012,0.640083,114.146,1568217718
0,4,0,0,0,100,0,0,0,0,7.9,11.0693,0.0725907,1.98216e-06,2.09629,0.0100003,0.879848,243.723,1568217761
0,4,0,0,0,100,0,0,0,0,7.88,11.048,0.0726537,2.01064e-06,1.9616,0.0106027,0.954751,127.092,1568217804
0,4,0,0,0,100,0,0,0,0,7.83,11.0976,0.074033,1.92157e-06,1.79992,0.00923999,0.73886,243.683,1568217846
0,5,0,0,0,100,0,0,0,0,8,10.9113,0.0704858,1.97536e-06,2.4656,0.0108229,0.577335,87.6368,1568217889
0,5,0,0,0,100,0,0,0,0,7.74,11.1764,0.100778,1.95651e-06,1.65607,0.0093101,0.791974,89.0191,1568217932
0,5,0,0,0,100,0,0,0,0,7.88,11.0525,0.0865522,1.92784e-06,2.0498,0.0106909,0.607594,243.746,1568217975
0,5,0,0,0,100,0,0,0,0,7.98,10.8471,0.0911194,1.94261e-06,1.35717,0.0105121,0.818598,136.295,1568218017
0,5,0,0,0,100,0,0,0,0,7.81,11.1181,0.0951722,1.96413e-06,1.77825,0.0101811,0.912162,139.597,1568218061
0,5,0,0,0,100,0,0,0,0,7.85,11.0963,0.0947649,1.91869e-06,1.88149,0.0116439,0.835745,244.649,1568218103
0,5,0,0,0,100,0,0,0,0,7.8,11.1242,0.105848,1.89329e-06,1.58285,0.010175,0.811853,94.4737,1568218145
0,5,0,0,0,100,0,0,0,0,7.78,11.1659,0.0940802,1.97461e-06,1.77256,0.0106669,0.964324,133.814,1568218188
0,5,0,0,0,100,0,0,0,0,7.89,11.0599,0.0892219,1.94249e-06,2.05301,0.0107731,0.805349,125.377,1568218231
0,5,0,0,0,100,0,0,0,0,9.04,9.66558,0.067367,1.85534e-06,4.69476,0.00952027,0.62608,114.494,1568218274
0,5,0,0,0,100,0,0,0,0,7.78,11.164,0.0911087,1.9539e-06,1.77653,0.0101312,0.665071,243.962,1568218319
0,5,0,0,0,100,0,0,0,0,7.83,11.074,0.0899218,1.93581e-06,1.74514,0.00965573,0.861223,159.908,1568218363
0,5,0,0,0,100,0,0,0,0,7.85,11.0881,0.10137,1.9125e-06,1.93998,0.0103473,0.825009,129.103,1568218406
0,5,0,0,0,100,0,0,0,0,7.84,11.1087,0.10745,1.97498e-06,1.97003,0.0104497,0.62404,125.036,1568218448
0,5,0,0,0,100,0,0,0,0,7.9,10.9977,0.093591,1.95144e-06,2.05025,0.0123184,0.92847,243.187,1568218491
0,5,0,0,0,100,0,0,0,0,7.78,11.0796,0.120806,1.91726e-06,1.2661,0.0107818,0.882874,194.118,1568218534
0,5,0,0,0,100,0,0,0,0,7.89,11.0341,0.0893674,1.91007e-06,1.85582,0.0109297,0.730574,125.69,1568218577
0,5,0,0,0,100,0,0,0,0,7.88,11.0591,0.0966365,1.98344e-06,1.87208,0.00951627,0.56694,243.496,1568218620
0,5,0,0,0,100,0,0,0,0,7.91,11.0397,0.0736017,1.92428e-06,1.96398,0.0105962,0.94266,244.057,1568218662
0,5,0,0,0,100,0,0,0,0,7.8,11.1461,0.118302,1.9093e-06,1.90463,0.00957252,0.782757,243.686,1568218705
0,5,0,0,0,100,0,0,0,0,7.8,11.1652,0.0881645,1.91644e-06,1.67161,0.0099911,0.580997,88.1636,1568218747
0,5,0,0,0,100,0,0,0,0,7.8,11.1151,0.103371,1.95594e-06,1.77762,0.0102031,0.805556,196.494,1568218790
0,5,0,0,0,100,0,0,0,0,7.85,11.11,0.109722,1.90349e-06,1.73275,0.0106836,0.905538,244.328,1568218831
0,5,0,0,0,100,0,0,0,0,7.89,11.017,0.0889333,1.91753e-06,1.85282,0.00935994,0.881367,125.331,1568218874
0,5,0,0,0,100,0,0,0,0,7.95,10.9055,0.107422,1.90406e-06,1.94241,0.00996604,0.658983,87.1585,1568218917
0,5,0,0,0,100,0,0,0,0,7.8,11.1369,0.10622,1.90746e-06,1.73231,0.00997943,0.774022,244.631,1568218960
0,5,0,0,0,100,0,0,0,0,11.27,7.81877,0.0918828,1.75438e-06,3.50224,0.00930447,0.690018,90.4935,1568219002
0,5,0,0,0,100,0,0,0,0,9.72,8.87948,0.0593,1.85443e-06,2.58954,0.0106788,0.632636,125.539,1568219052
0,5,0,0,0,100,0,0,0,0,7.76,11.1616,0.107311,1.96116e-06,1.75298,0.0089675,0.916438,244.391,1568219099
0,5,0,0,0,100,0,0,0,0,8.01,10.8553,0.0797829,1.93072e-06,2.19326,0.0114061,0.649812,176.887,1568219141
0,5,0,0,0,100,0,0,0,0,7.9,10.9216,0.0797082,1.93141e-06,2.21497,0.0104383,0.871604,149.876,1568219183
0,5,0,0,0,100,0,0,0,0,7.82,11.1236,0.106317,1.92555e-06,1.79122,0.0104985,0.827177,243.269,1568219225
0,5,0,0,0,100,0,0,0,0,7.82,11.0988,0.0919789,1.92544e-06,1.92305,0.0119516,0.686586,245.37,1568219268
0,5,0,0,0,100,0,0,0,0,7.96,10.9493,0.0911165,1.93847e-06,2.49533,0.0108737,0.798371,244.521,1568219310
0,5,0,0,0,100,0,0,0,0,7.8,11.0418,0.125061,1.91014e-06,0.994055,0.0104694,0.651817,113.392,1568219353
0,5,0,0,0,100,0,0,0,0,7.78,11.1831,0.0924152,1.89034e-06,1.70637,0.0109256,0.744846,122.572,1568219394
0,5,0,0,0,100,0,0,0,0,7.78,11.1513,0.0911519,1.95532e-06,1.75479,0.0105831,0.752252,93.24,1568219437
0,5,0,0,0,100,0,0,0,0,7.82,11.1214,0.0824734,1.94058e-06,1.74703,0.0099502,0.804841,244.908,1568219480
0,5,0,0,0,100,0,0,0,0,7.86,11.0922,0.0882928,1.91264e-06,1.92878,0.0117031,0.786226,124.552,1568219523
0,5,0,0,0,100,0,0,0,0,9.08,9.62146,0.0573449,1.90038e-06,4.52677,0.00891998,0.644936,88.5459,1568219566
0,5,0,0,0,100,0,0,0,0,7.81,11.0596,0.112799,1.98961e-06,1.81332,0.0111768,0.677908,124.73,1568219612
0,5,0,0,0,100,0,0,0,0,7.8,11.1561,0.109349,1.96132e-06,1.75368,0.0106358,0.878651,244.157,1568219655
0,5,0,0,0,100,0,0,0,0,7.81,11.1225,0.0819493,1.94434e-06,1.86994,0.00989801,1.00688,124.675,1568219698
0,5,0,0,0,100,0,0,0,0,7.86,11.1179,0.115186,1.91496e-06,1.89369,0.0107342,0.779959,244.113,1568219741
0,5,0,0,0,100,0,0,0,0,7.8,11.1518,0.101794,1.98732e-06,1.53142,0.0109286,0.77529,125.304,1568219784
0,5,0,0,0,100,0,0,0,0,8.09,10.681,0.0984723,1.89867e-06,1.63704,0.00909888,0.595524,128.326,1568219826
0,5,0,0,0,100,0,0,0,0,7.89,11.0353,0.0944568,1.96197e-06,2.06425,0.0102916,0.707554,132.394,1568219869
0,5,0,0,0,100,0,0,0,0,7.78,11.0978,0.115009,1.92688e-06,1.37759,0.0100018,0.781215,125.095,1568219912
0,5,0,0,0,100,0,0,0,0,8.03,10.8401,0.0685561,1.96619e-06,2.6155,0.0109191,0.732581,244.486,1568219954
0,5,0,0,0,100,0,0,0,0,7.85,11.0702,0.0920597,1.91407e-06,1.93955,0.0112601,0.744595,129.807,1568219997
0,5,0,0,0,100,0,0,0,0,7.8,11.1455,0.100291,1.9011e-06,1.85629,0.00999699,0.728495,243.395,1568220040
0,5,0,0,0,100,0,0,0,0,7.89,11.0432,0.102811,1.9368e-06,2.00439,0.011097,0.66443,240.616,1568220083
0,5,0,0,0,100,0,0,0,0,8.19,10.6749,0.0753593,1.91386e-06,3.26366,0.0117323,0.421341,152.735,1568220126
0,5,0,0,0,100,0,0,0,0,7.9,11.0378,0.102385,1.92603e-06,2.11335,0.0111847,0.668816,122.173,1568220169
0,5,0,0,0,100,0,0,0,0,8.6,10.0875,0.0646851,1.87764e-06,3.06408,0.00995843,0.771748,124.313,1568220213
0,5,0,0,0,100,0,0,0,0,7.77,11.1378,0.105617,1.96936e-06,1.73435,0.00968503,0.834616,87.011,1568220257
0,5,0,0,0,100,0,0,0,0,8.2,10.6187,0.0676681,1.9073e-06,2.9972,0.0121922,0.673026,245.763,1568220298
0,5,0,0,0,100,0,0,0,0,7.89,11.0554,0.0775177,1.97501e-06,2.10445,0.010591,0.63826,243.396,1568220342
0,5,0,0,0,100,0,0,0,0,7.92,10.9319,0.0879604,1.92175e-06,1.95067,0.00981456,0.835328,121.001,1568220384
0,5,0,0,0,100,0,0,0,1,7.4,7.05065,0.114473,1.92257e-06,3.20372,0.011871,0.661508,121.777,1568220428
0,5,0,0,0,100,0,0,0,0,7.77,11.1627,0.0967682,1.92666e-06,1.7563,0.00841988,1.01925,244.272,1568220470
0,5,0,0,0,100,0,0,0,0,8.14,10.7472,0.0840062,1.92849e-06,2.65966,0.0095668,0.815511,124.961,1568220512
0,5,0,0,0,100,0,0,0,0,7.9,10.9866,0.0698673,1.97394e-06,1.89363,0.01045,0.667001,124.672,1568220555
0,5,0,0,0,100,0,0,0,0,7.86,11.0864,0.0951611,1.92199e-06,1.95738,0.0102934,0.638704,87.2848,1568220599
0,5,0,0,0,100,0,0,0,0,7.8,11.1262,0.104689,1.96518e-06,1.81553,0.0104424,0.712238,170.698,1568220642
0,5,0,0,0,100,0,0,0,0,7.85,11.1003,0.0829783,1.91925e-06,1.87555,0.00983457,0.636745,124.867,1568220685
0,5,0,0,0,100,0,0,0,0,7.84,11.1244,0.112992,1.94308e-06,1.98617,0.0103389,0.787113,125.3,1568220727
0,5,0,0,0,100,0,0,0,0,7.8,11.1364,0.092891,1.96571e-06,1.74849,0.00972215,1.11798,128.763,1568220771
0,5,0,0,0,100,0,0,0,0,7.82,11.1217,0.106842,1.87448e-06,1.93619,0.0108467,0.468543,202.078,1568220814
0,5,0,0,0,100,0,0,0,0,7.8,11.1203,0.0757726,1.95072e-06,1.81311,0.00943051,0.647307,128.628,1568220857
0,5,0,0,0,100,0,0,0,0,7.85,11.0846,0.0847884,1.92008e-06,1.86697,0.00995413,0.872029,85.204,1568220900
0,5,0,0,0,100,0,0,0,0,7.72,11.2223,0.103405,1.98424e-06,1.51686,0.0114032,1.06439,125.026,1568220943
0,5,0,0,0,100,0,0,0,0,7.88,11.0591,0.103521,1.96782e-06,2.02119,0.0110026,0.81052,244.315,1568220985
0,5,0,0,0,100,0,0,0,0,7.84,11.1083,0.104527,1.93646e-06,1.947,0.0119473,0.845322,243.93,1568221028
0,5,0,0,0,100,0,0,0,0,7.82,11.1661,0.0994798,1.92835e-06,1.96318,0.0109761,0.501755,244.27,1568221071
0,5,0,0,0,100,0,0,0,0,7.83,11.0779,0.10281,1.92672e-06,1.81215,0.010481,0.547964,246.5,1568221115
0,5,0,0,0,100,0,0,0,0,7.87,11.0798,0.105288,1.94429e-06,1.97313,0.0109813,0.881657,122.037,1568221157
0,5,0,0,0,100,0,0,0,0,7.89,11.0524,0.103682,1.9489e-06,1.99453,0.00878092,0.725519,243.162,1568221200
0,5,0,0,0,100,0,0,0,0,7.89,11.0168,0.105369,1.90499e-06,1.92463,0.0110245,0.808588,243.618,1568221244
0,5,0,0,0,100,0,0,0,0,7.78,11.1619,0.101379,1.95173e-06,1.89876,0.0104334,0.643546,88.633,1568221287
0,5,0,0,0,100,0,0,0,0,7.84,10.9956,0.0977941,1.98285e-06,1.01688,0.0116556,0.940485,244.759,1568221330
0,5,0,0,0,100,0,0,0,0,8.16,10.6489,0.0812312,1.91384e-06,1.92286,0.00978486,0.616938,246.05,1568221373
0,5,0,0,0,100,0,0,0,0,7.8,11.0735,0.120119,1.98001e-06,1.26174,0.0111635,0.731841,128.58,1568221418
0,5,0,0,0,100,0,0,0,0,7.8,11.1373,0.117157,1.94128e-06,1.93818,0.0108717,0.588825,104.212,1568221462
0,5,0,0,0,100,0,0,0,0,7.86,11.0857,0.107403,1.89409e-06,2.03899,0.0105669,0.701774,128.386,1568221506
0,5,0,0,0,100,0,0,0,0,7.8,11.1864,0.0941286,1.8987e-06,2.22717,0.0102208,0.793822,92.1493,1568221549
0,5,0,0,0,100,0,0,1,0,4.16,10.7304,0.114027,2.24645e-06,1.03848,0.00976538,1.4095,243.258,1568221592
0,5,0,0,0,100,0,0,0,0,7.77,11.1639,0.117287,1.9312e-06,1.76825,0.0100996,0.730123,243.338,1568221630
0,5,0,0,0,100,0,0,0,0,8.08,10.7566,0.0752915,1.93362e-06,2.4823,0.0109032,0.755254,177.765,1568221674
0,5,0,0,0,100,0,0,1,0,4.21,10.5188,0.119313,2.20106e-06,0.580168,0.010081,1.5592,243.313,1568221719
0,5,0,0,0,100,0,0,0,0,7.82,11.127,0.107805,1.91471e-06,1.85348,0.0101314,0.763963,243.267,1568221756
0,5,0,0,0,100,0,0,0,0,7.8,11.1531,0.104481,1.91302e-06,1.8531,0.0105004,0.917133,121.401,1568221798
0,5,0,0,0,100,0,0,0,0,7.78,11.1451,0.113268,1.93505e-06,1.68621,0.0107957,0.507657,87.2018,1568221842
0,5,0,0,0,100,0,0,0,0,7.8,11.1597,0.0773598,1.87653e-06,1.80006,0.012153,0.778893,205.999,1568221885
0,5,0,0,0,100,0,0,0,0,7.8,11.1312,0.0925128,1.93827e-06,1.86918,0.0112108,0.66627,108.455,1568221929
0,5,0,0,0,100,0,0,0,0,7.77,11.1662,0.0878514,1.91031e-06,1.7919,0.0103673,0.925182,243.677,1568221973
0,5,0,0,0,100,0,0,0,0,7.88,11.0723,0.0957389,1.93491e-06,1.96722,0.0110103,0.591984,124.729,1568222016
0,5,0,0,0,100,0,0,0,0,7.9,11.0327,0.0859256,1.92305e-06,2.12132,0.0104151,0.641988,125.116,1568222059
0,5,0,0,0,100,0,0,0,0,8.9,9.79604,0.0698126,1.89643e-06,3.73948,0.00867132,0.765942,244.216,1568222103
0,5,0,0,0,100,0,0,0,0,7.83,11.0925,0.0806167,1.97112e-06,1.83298,0.0095796,0.841614,68.0747,1568222150
0,6,0,0,0,100,0,0,0,0,7.87,11.0625,0.114362,1.88665e-06,1.91981,0.0107649,0.582896,123.122,1568222195
0,6,0,0,0,100,0,0,0,0,7.81,11.1291,0.112427,1.93459e-06,1.86431,0.00972666,0.837078,89.3001,1568222240
0,6,0,0,0,100,0,0,0,0,7.9,11.0658,0.111887,1.92886e-06,2.00941,0.00943326,0.725519,199.582,1568222285
0,6,0,0,0,100,0,0,0,0,7.84,11.0483,0.108258,1.93111e-06,1.59278,0.00988628,0.996387,244.063,1568222329
0,6,0,0,0,100,0,0,0,0,7.8,11.1099,0.103732,1.96252e-06,1.39071,0.0102031,0.609913,245.113,1568222375
0,6,0,0,0,100,0,0,0,0,7.86,11.0887,0.12337,1.97361e-06,1.85003,0.0104218,0.768295,244.875,1568222419
0,6,0,0,0,100,0,0,0,0,7.77,11.1294,0.100925,1.95092e-06,1.48862,0.0101793,0.722058,121.513,1568222464
0,6,0,0,0,100,0,0,0,0,7.77,11.1874,0.114634,1.86223e-06,1.85624,0.0103905,0.67044,242.974,1568222510
0,6,0,0,0,100,0,0,0,0,7.79,11.1611,0.0966012,1.9268e-06,1.77293,0.0107105,0.758615,90.5484,1568222555
0,6,0,0,0,100,0,0,0,0,8.07,10.8042,0.112382,1.87731e-06,2.60999,0.0104824,0.816003,245.2,1568222600
0,6,0,0,0,100,0,0,0,0,7.89,11.0471,0.122068,1.90931e-06,1.89181,0.0118635,0.895697,244.723,1568222645
0,6,0,0,0,100,0,0,0,0,8.73,9.99643,0.079666,1.88711e-06,3.82072,0.0106738,0.70873,243.178,1568222690
0,6,0,0,0,100,0,0,0,0,7.88,11.0571,0.110217,1.98002e-06,1.98681,0.0105607,0.75822,243.427,1568222738
0,6,0,0,0,100,0,0,0,0,7.79,11.1855,0.108918,1.93305e-06,1.92838,0.010798,0.745736,87.3384,1568222783
0,6,0,0,0,100,0,0,0,0,7.92,10.9688,0.105072,1.90926e-06,2.1396,0.0103344,0.618218,243.412,1568222827
0,6,0,0,0,100,0,0,0,0,7.76,11.1547,0.0937339,1.9146e-06,1.71443,0.0104155,0.765363,244.113,1568222873
0,6,0,0,0,100,0,0,0,0,7.9,11.0437,0.107819,1.90565e-06,2.56098,0.0100842,0.726713,121.915,1568222918
0,6,0,0,0,100,0,0,0,0,7.8,11.1263,0.114872,1.94378e-06,1.79667,0.00927912,0.796297,233.197,1568222963
0,6,0,0,0,100,0,0,0,0,7.82,11.1346,0.111228,1.93416e-06,1.9368,0.00966476,0.528919,60.1737,1568223008
0,6,0,0,0,100,0,0,0,0,7.8,11.1355,0.13204,1.95506e-06,1.65484,0.0104101,0.746148,243.139,1568223052
0,6,0,0,0,100,0,0,0,0,7.88,11.0683,0.100303,1.95278e-06,1.85817,0.0103729,0.715371,107.955,1568223096
0,6,0,0,0,100,0,0,0,0,7.83,11.1358,0.106394,1.91578e-06,1.96012,0.0106425,0.605743,110.379,1568223140
0,6,0,0,0,100,0,0,0,0,7.83,11.1205,0.113583,1.99464e-06,1.95932,0.0107855,0.80334,67.9367,1568223187
0,6,0,0,0,100,0,0,0,0,8.13,10.7147,0.13526,1.92124e-06,1.92538,0.009841,0.726581,125.307,1568223230
0,6,0,0,0,100,0,0,0,0,7.88,11.076,0.12163,1.94191e-06,1.93002,0.0101511,0.795279,156.559,1568223276
0,6,0,0,0,100,0,0,0,0,7.8,11.135,0.124327,1.95288e-06,1.82841,0.0100885,0.770051,111.43,1568223320
0,6,0,0,0,100,0,0,0,0,7.97,10.9212,0.103805,1.93692e-06,2.15634,0.0105911,0.776454,167.2,1568223365
0,6,0,0,0,100,0,0,0,0,7.88,11.0671,0.127676,1.97144e-06,1.99601,0.0101664,0.795459,213.781,1568223410
0,6,0,0,0,100,0,0,0,0,7.92,11.0198,0.11617,1.92114e-06,1.85889,0.0102883,0.512296,127.811,1568223454
0,6,0,0,0,100,0,0,0,0,7.84,10.9894,0.105067,1.93415e-06,1.23693,0.00945851,0.763043,125.317,1568223500
0,6,0,0,0,100,0,0,0,0,7.83,11.0922,0.129141,1.93729e-06,1.97559,0.0104896,0.892767,244.573,1568223544
0,6,0,0,0,100,0,0,0,0,7.78,11.1618,0.10533,1.95819e-06,1.50153,0.010353,0.838525,243.744,1568223589
0,6,0,0,0,100,0,0,0,0,8.07,10.8041,0.0976094,1.91962e-06,2.687,0.0113379,0.656994,119.981,1568223634
0,6,0,0,0,100,0,0,0,0,7.83,11.092,0.115747,1.91253e-06,1.88081,0.00942174,0.927819,87.9614,1568223680
0,6,0,0,0,100,0,0,0,0,7.84,11.1057,0.111941,1.93773e-06,1.89887,0.00961496,0.647487,243.13,1568223725
0,6,0,0,0,100,0,0,0,0,7.77,11.1249,0.122218,1.92377e-06,1.54901,0.0103741,0.84204,85.1213,1568223770
0,6,0,0,0,100,0,0,0,0,7.88,11.0776,0.119711,1.95666e-06,2.06437,0.00911374,0.64643,243.589,1568223815
0,6,0,0,0,100,0,0,0,0,7.76,11.1845,0.119218,1.93695e-06,1.75351,0.00877166,1.0013,244.529,1568223860
0,6,0,0,0,100,0,0,0,0,10.54,8.17474,0.157821,1.77437e-06,1.41213,0.00973273,0.825156,127.758,1568223905
0,6,0,0,0,100,0,0,0,0,7.8,11.158,0.107476,1.9008e-06,1.91799,0.0091637,0.585383,121.44,1568223955
0,6,0,0,0,100,0,0,0,0,8.37,10.4271,0.0643864,1.88945e-06,3.54367,0.0104085,0.846999,135.273,1568223999
0,6,0,0,0,100,0,0,0,0,7.74,11.15,0.122078,1.92253e-06,1.27391,0.0104771,0.822539,125.004,1568224044
0,6,0,0,0,100,0,0,0,0,7.8,11.1637,0.103412,1.88429e-06,1.76978,0.0102699,0.907851,125.63,1568224089
0,6,0,0,0,100,0,0,0,0,7.84,11.0747,0.128561,1.93554e-06,1.75281,0.0101249,0.772654,243.398,1568224134
0,6,0,0,0,100,0,0,0,0,8.6,10.1614,0.0906488,1.85466e-06,2.49015,0.010265,0.699285,227.573,1568224179
0,6,0,0,0,100,0,0,0,0,7.83,11.0853,0.137751,1.9051e-06,1.83261,0.00969192,0.606765,244.609,1568224223
0,6,0,0,0,100,0,0,0,0,7.84,11.1085,0.130667,1.91718e-06,1.76258,0.0103903,0.627676,126.404,1568224266
0,6,0,0,0,100,0,0,0,0,7.88,11.0593,0.110742,1.95156e-06,1.89991,0.00835717,0.847892,124.078,1568224310
0,6,0,0,0,100,0,0,0,0,8.2,10.6228,0.0903127,1.92385e-06,2.57876,0.0106044,0.632396,243.143,1568224352
0,6,0,0,0,100,0,0,0,0,7.8,11.0675,0.106004,1.91009e-06,1.79422,0.0103349,0.80642,124.926,1568224395
0,6,0,0,0,100,0,0,0,0,7.88,11.0925,0.107912,1.91165e-06,2.03693,0.0110652,0.711073,88.4432,1568224439
0,6,0,0,0,100,0,0,0,0,7.83,11.1433,0.129593,1.93725e-06,2.02424,0.0104406,0.650469,243.693,1568224483
0,6,0,0,0,100,0,0,0,0,7.8,11.1378,0.10635,1.97797e-06,1.81534,0.00967327,0.819536,245.08,1568224526
0,6,0,0,0,100,0,0,0,0,7.86,11.0774,0.108597,1.93971e-06,2.06746,0.00925876,0.833303,125.169,1568224569
0,6,0,0,0,100,0,0,0,0,7.84,11.0782,0.139703,1.99015e-06,1.58742,0.00939599,0.638836,87.2251,1568224612
0,6,0,0,0,100,0,0,0,0,7.84,11.0773,0.101554,1.97152e-06,1.94929,0.0103125,0.800639,240.815,1568224655
0,6,0,0,0,100,0,0,0,0,7.88,11.0112,0.102427,1.95133e-06,1.90847,0.0109363,0.779245,89.0267,1568224698
0,6,0,0,0,100,0,0,0,0,7.8,11.1267,0.134675,1.97275e-06,1.64955,0.0103826,0.615566,244.644,1568224741
0,6,0,0,0,100,0,0,0,0,7.8,11.138,0.106468,1.90755e-06,1.69283,0.0107334,0.674285,243.466,1568224786
0,6,0,0,0,100,0,0,0,0,8,10.9113,0.114119,1.95849e-06,2.24942,0.010371,0.670827,121.37,1568224827
0,6,0,0,0,100,0,0,0,0,7.84,11.1175,0.135933,1.89778e-06,1.90615,0.00949796,0.853077,152.761,1568224870
0,6,0,0,0,100,0,0,0,0,7.78,11.159,0.109801,1.96173e-06,1.42211,0.0101699,0.906272,124.254,1568224912
0,6,0,0,0,100,0,0,0,0,7.98,10.9353,0.103968,1.94493e-06,2.37863,0.00956451,0.732286,246.199,1568224955
0,6,0,0,0,100,0,0,1,0,4.19,10.5036,0.229083,2.14501e-06,0.404483,0.0115959,1.18925,245.827,1568224998
0,6,0,0,0,100,0,0,0,0,7.82,11.1437,0.112998,1.9403e-06,1.87796,0.00915662,0.869761,242.958,1568225035
0,6,0,0,0,100,0,0,0,0,7.86,11.0872,0.0943758,1.92217e-06,2.08114,0.0100336,0.560724,244.001,1568225078
0,6,0,0,0,100,0,0,0,0,8.2,10.498,0.149936,1.89174e-06,0.99935,0.0110465,0.833569,113.352,1568225122
0,6,0,0,0,100,0,0,0,0,7.93,10.9928,0.117179,1.92581e-06,2.12199,0.0105391,0.739234,245.264,1568225166
0,6,0,0,0,100,0,0,0,0,7.8,11.1451,0.127947,1.91923e-06,1.73994,0.0100526,0.760345,125.443,1568225210
0,6,0,0,0,100,0,0,0,0,7.8,11.1553,0.111328,1.94201e-06,1.76286,0.0102357,0.808741,143.604,1568225252
0,6,0,0,0,100,0,0,0,0,7.88,11.0855,0.105286,1.95434e-06,1.95879,0.0102474,0.736182,91.6889,1568225296
0,6,0,0,0,100,0,0,0,0,7.75,11.1906,0.105905,1.98665e-06,1.76482,0.00920822,0.89007,87.512,1568225339
0,6,0,0,0,100,0,0,0,0,9.1,9.60834,0.0957163,1.89795e-06,3.64362,0.00975119,0.680024,155.56,1568225382
0,6,0,0,0,100,0,0,0,0,7.87,11.0213,0.116431,1.97906e-06,1.85499,0.0114813,0.772579,127.576,1568225427
0,6,0,0,0,100,0,0,0,0,7.86,11.092,0.11834,1.9596e-06,1.85769,0.0119143,0.852634,244.226,1568225471
0,6,0,0,0,100,0,0,0,0,7.78,11.0869,0.114618,1.92099e-06,1.64898,0.010067,0.870981,93.0436,1568225514
0,6,0,0,0,100,0,0,0,0,7.78,11.0983,0.109613,1.93478e-06,1.63507,0.0108164,0.6476,127.985,1568225557
0,6,0,0,0,100,0,0,0,0,7.9,11.0323,0.131799,1.90549e-06,2.1606,0.00941986,0.760058,212.746,1568225600
0,6,0,0,0,100,0,0,0,0,7.77,11.1013,0.136028,1.95537e-06,1.33227,0.00908201,0.831575,171.927,1568225644
0,6,0,0,0,100,0,0,0,0,7.82,11.1309,0.117644,1.93859e-06,2.08887,0.0110114,0.86072,129.742,1568225686
0,6,0,0,0,100,0,0,0,0,7.88,11.0562,0.128285,1.89442e-06,1.8687,0.0105706,0.839933,122.462,1568225729
0,6,0,0,0,100,0,0,0,0,7.85,11.0612,0.115499,1.94457e-06,1.92952,0.0102247,0.757555,244.099,1568225772
0,6,0,0,0,100,0,0,0,0,7.78,11.1624,0.12261,1.93325e-06,1.84852,0.010743,0.718006,244.312,1568225814
0,6,0,0,0,100,0,0,0,0,7.89,11.0688,0.116955,1.9137e-06,2.06325,0.0114445,0.774297,128.442,1568225857
0,6,0,0,0,100,0,0,0,0,7.83,11.1166,0.0946357,1.9406e-06,1.91361,0.0111525,0.777888,87.9687,1568225900
0,6,0,0,0,100,0,0,0,0,7.82,11.135,0.10088,1.97074e-06,1.84897,0.0099819,0.730293,122.303,1568225943
0,6,0,0,0,100,0,0,0,0,7.9,11.0558,0.106993,1.92953e-06,2.01639,0.0119925,0.869716,108.159,1568225986
0,6,0,0,0,100,0,0,0,0,7.8,11.1459,0.114012,1.89232e-06,1.78113,0.0103094,0.823595,243.519,1568226029
0,6,0,0,0,100,0,0,0,0,7.9,10.9866,0.112687,1.87508e-06,2.00115,0.00939166,0.89,125.674,1568226073
0,6,0,0,0,100,0,0,0,1,7.01,8.57573,0.0787683,1.97636e-06,2.67309,0.0110469,1.17256,245.386,1568226116
0,6,0,0,0,100,0,0,0,0,7.82,11.0009,0.132458,1.89016e-06,0.983877,0.0104361,0.939863,243.467,1568226158
0,6,0,0,0,100,0,0,0,0,7.81,11.146,0.111855,1.96999e-06,1.86142,0.0104211,0.675545,126.083,1568226201
0,6,0,0,0,100,0,0,0,0,7.8,11.1419,0.127885,1.95196e-06,1.74061,0.0120865,0.614102,121.841,1568226244
0,6,0,0,0,100,0,0,1,0,4.2,10.4485,0.13293,2.20465e-06,0.58621,0.0103964,1.43889,87.1305,1568226287
0,6,0,0,0,100,0,0,0,0,7.89,11.0679,0.0931393,1.92645e-06,1.94054,0.0095033,0.773212,156.727,1568226323
0,6,0,0,0,100,0,0,0,0,7.78,11.1674,0.108403,1.96107e-06,1.74359,0.00976403,0.524098,162.952,1568226366
0,6,0,0,0,100,0,0,0,0,7.8,11.0916,0.112137,1.91094e-06,1.83544,0.0112386,0.699349,124.936,1568226408
0,6,0,0,0,100,0,0,0,0,7.8,11.1293,0.136767,1.99266e-06,1.49768,0.0102819,0.950065,125.487,1568226450
0,6,0,0,0,100,0,0,0,0,7.89,11.0385,0.131015,1.92772e-06,1.91091,0.00986513,0.731921,244.703,1568226493
0,6,0,0,0,100,0,0,0,0,10.48,8.24522,0.121276,1.79315e-06,1.70721,0.0101792,0.880412,244.684,1568226536
0,7,0,0,0,100,0,0,0,0,8.12,10.7617,0.112509,1.92794e-06,2.78033,0.0101737,0.657631,120.919,1568226583
0,7,0,0,0,100,0,0,0,0,8.08,10.7831,0.128287,1.95299e-06,1.98094,0.0103706,0.72719,128.298,1568226627
0,7,0,0,0,100,0,0,0,0,7.86,11.0796,0.127986,1.98551e-06,1.90141,0.0108975,0.835063,243.957,1568226671
0,7,0,0,0,100,0,0,0,0,7.75,11.2041,0.134307,1.95379e-06,1.87053,0.0105683,0.771869,244.284,1568226714
0,7,0,0,0,100,0,0,0,0,7.93,10.9125,0.143941,1.89922e-06,1.3904,0.00908444,0.709041,243.089,1568226756
0,7,0,0,0,100,0,0,0,0,7.77,11.1358,0.136183,1.92023e-06,1.33519,0.010957,0.681525,190.67,1568226798
0,7,0,0,0,100,0,0,0,0,7.82,11.1392,0.126102,1.91396e-06,1.91401,0.00993157,0.755673,89.0274,1568226840
0,7,0,0,0,100,0,0,0,0,7.8,11.1287,0.130119,1.90611e-06,1.58656,0.009578,0.863907,243.853,1568226883
0,7,0,0,0,100,0,0,0,0,7.86,11.1093,0.126377,1.91486e-06,2.01185,0.00950907,0.734518,245.132,1568226925
0,7,0,0,0,100,0,0,0,0,8,10.9275,0.102256,1.96683e-06,2.244,0.0103001,0.973894,242.99,1568226968
0,7,0,0,0,100,0,0,0,0,8.17,10.546,0.169229,1.86462e-06,1.13232,0.0108267,0.786645,127.883,1568227012
0,7,0,0,0,100,0,0,0,0,7.82,11.1128,0.130549,1.90324e-06,1.85146,0.00993848,0.60649,160.573,1568227055
0,7,0,0,0,100,0,0,0,0,7.76,11.1753,0.13016,1.90055e-06,1.78937,0.00920605,0.717262,244.469,1568227098
0,7,0,0,0,100,0,0,0,0,7.81,11.1486,0.127004,1.90224e-06,1.83742,0.0101686,0.746923,86.4243,1568227140
0,7,0,0,0,100,0,0,0,0,7.77,11.1695,0.137434,1.93885e-06,1.79583,0.0103141,0.726707,67.9248,1568227182
0,7,0,0,0,100,0,0,0,0,8.01,10.8757,0.127403,1.95191e-06,1.9285,0.0103075,0.695619,245.115,1568227224
0,7,0,0,0,100,0,0,0,0,7.8,11.1603,0.144631,1.9328e-06,1.77421,0.00955139,0.974238,244.035,1568227267
0,7,0,0,0,100,0,0,0,0,7.77,11.1246,0.140767,1.93238e-06,1.62599,0.0105912,0.680082,127.336,1568227309
0,7,0,0,0,100,0,0,0,0,7.88,11.0873,0.122972,1.93204e-06,2.00798,0.0109794,0.752188,124.923,1568227351
0,7,0,0,0,100,0,0,0,0,7.8,11.132,0.124254,1.95664e-06,1.69273,0.0100109,0.740516,243.022,1568227394
0,7,0,0,0,100,0,0,0,0,7.94,11.1103,0.150444,1.95075e-06,2.03563,0.0107281,0.702389,244.311,1568227436
0,7,0,0,0,100,0,0,0,0,7.82,11.1378,0.127167,1.95262e-06,2.05653,0.0106576,0.629685,125.158,1568227480
0,7,0,0,0,100,0,0,0,0,7.89,11.0654,0.12227,1.91726e-06,2.01063,0.0100048,0.508115,124.648,1568227522
0,7,0,0,0,100,0,0,0,1,3.53,10.071,0.0605021,2.2268e-06,0.39768,0.0115235,1.37406,122.803,1568227564
0,7,0,0,0,100,0,0,0,0,7.8,11.1519,0.134895,1.95208e-06,1.83281,0.0101055,0.602374,244.186,1568227599
0,7,0,0,0,100,0,0,0,0,7.83,11.0507,0.118829,1.94327e-06,1.64671,0.0104665,0.703862,121.807,1568227642
0,7,0,0,0,100,0,0,0,1,10.06,9.29927,0.121386,1.8467e-06,4.62454,0.00978983,0.501733,245.214,1568227685
0,7,0,0,0,100,0,0,0,0,7.73,11.1469,0.122558,1.88564e-06,1.41039,0.00951411,0.70752,121.999,1568227731
0,7,0,0,0,100,0,0,0,0,7.91,11.0213,0.112775,1.92345e-06,2.21482,0.0106649,0.752475,122.488,1568227774
0,7,0,0,0,100,0,0,0,0,8.24,10.4678,0.159696,1.98625e-06,1.99749,0.0102522,0.984828,244.128,1568227817
0,7,0,0,0,100,0,0,1,0,4.12,10.5768,0.172426,2.22548e-06,0.539949,0.0101569,1.36915,244.225,1568227861
0,7,0,0,0,100,0,0,0,0,7.82,11.1333,0.133196,1.95229e-06,1.90415,0.0109664,0.704586,86.5823,1568227897
0,7,0,0,0,100,0,0,0,0,8.08,10.698,0.119186,1.95228e-06,1.43148,0.00981562,0.766028,244.039,1568227940
0,7,0,0,0,100,0,0,0,0,8,10.888,0.103446,1.99277e-06,2.58897,0.00984342,0.745499,192.673,1568227983
0,7,0,0,0,100,0,0,0,0,7.9,11.0635,0.122048,1.89083e-06,2.05274,0.011259,0.588533,243.648,1568228026
0,7,0,0,0,100,0,0,0,0,7.89,11.0472,0.141671,1.94047e-06,1.99793,0.0125673,0.675863,244.816,1568228070
0,7,0,0,0,100,0,0,0,0,8.2,10.5605,0.1407,1.87888e-06,1.42282,0.00946681,0.775574,122.157,1568228113
0,7,0,0,0,100,0,0,0,0,8.65,10.06,0.144896,1.8312e-06,2.05604,0.0107468,0.677344,124.821,1568228156
0,7,0,0,0,100,0,0,0,0,7.8,11.1344,0.119942,1.87002e-06,1.78555,0.00829451,0.841095,88.307,1568228200
0,7,0,0,0,100,0,0,0,0,7.84,11.0514,0.124192,1.92718e-06,1.82511,0.0116585,0.734983,88.5354,1568228242
0,7,0,0,0,100,0,0,0,0,7.79,11.1477,0.118608,1.94116e-06,1.76792,0.00997268,0.711085,243.315,1568228285
0,7,0,0,0,100,0,0,0,0,7.88,11.0331,0.142724,1.93369e-06,1.71801,0.0103517,0.831837,121.298,1568228329
0,7,0,0,0,100,0,0,0,0,7.83,11.071,0.133439,1.94735e-06,1.6076,0.0114236,0.53462,243.625,1568228371
0,7,0,0,0,100,0,0,0,0,7.8,11.1512,0.122405,1.97681e-06,1.7042,0.00943488,0.774231,88.4637,1568228414
0,7,0,0,0,100,0,0,0,0,7.82,11.1405,0.118348,1.97741e-06,1.92394,0.009343,0.737878,122.363,1568228457
0,7,0,0,0,100,0,0,0,0,7.96,10.9023,0.118675,1.96916e-06,1.94531,0.0103967,0.679587,202.879,1568228499
0,7,0,0,0,100,0,0,0,0,7.82,11.1498,0.12615,1.91511e-06,1.94657,0.0101769,0.74046,67.6212,1568228543
0,7,0,0,0,100,0,0,0,0,7.82,11.1283,0.142126,1.94205e-06,1.83881,0.00926994,0.90982,244.259,1568228586
0,7,0,0,0,100,0,0,0,0,7.8,11.1237,0.121221,1.94072e-06,1.76133,0.00974753,0.50507,243.88,1568228629
0,7,0,0,0,100,0,0,0,0,7.8,11.1344,0.136626,1.90471e-06,1.73818,0.0100807,0.818098,134.59,1568228672
0,7,0,0,0,100,0,0,0,0,7.83,11.1611,0.132835,2.00203e-06,1.97823,0.0113422,0.60262,124.892,1568228714
0,7,0,0,0,100,0,0,0,0,8.51,10.2501,0.0816211,1.93081e-06,3.73403,0.0106538,0.745394,125.099,1568228757
0,7,0,0,0,100,0,0,0,1,7.1,7.00163,0.168752,1.93581e-06,2.20221,0.00839105,0.869151,87.1087,1568228801
0,7,0,0,0,100,0,0,0,0,8.49,10.1585,0.13553,1.82957e-06,0.730011,0.010406,0.751127,126.089,1568228842
0,7,0,0,0,100,0,0,0,0,7.76,11.1067,0.133682,1.89052e-06,1.28055,0.011496,0.698116,147.594,1568228886
0,7,0,0,0,100,0,0,0,1,23.11,2.30394,0.165927,1.31087e-06,11.4993,0.010946,0.43604,242.932,1568228929
0,7,0,0,0,100,0,0,0,0,7.9,11.0512,0.109016,1.90461e-06,1.99877,0.0109019,0.696738,243.888,1568229003
0,7,0,0,0,100,0,0,0,0,7.8,11.1122,0.128089,2.01289e-06,1.71248,0.0098774,0.6426,127.64,1568229045
0,7,0,0,0,100,0,0,0,0,7.76,11.0853,0.122467,1.96407e-06,0.970227,0.0108643,0.742576,244.797,1568229088
0,7,0,0,0,100,0,0,0,0,8.08,10.8422,0.106179,1.90329e-06,2.84045,0.0108552,0.673565,120.928,1568229130
0,7,0,0,0,100,0,0,0,0,7.82,11.0977,0.127674,1.93713e-06,1.93723,0.0109337,0.971155,243.701,1568229174
0,7,0,0,0,100,0,0,0,0,8.5,10.1818,0.0884817,1.94714e-06,3.85037,0.00924352,0.729446,243.691,1568229217
0,7,0,0,0,100,0,0,0,0,7.86,11.0794,0.136508,1.92206e-06,1.94965,0.0102964,0.756122,88.7786,1568229261
0,7,0,0,0,100,0,0,0,0,7.88,11.0761,0.128593,1.96906e-06,1.98642,0.0127107,0.752669,245.426,1568229303
0,7,0,0,0,100,0,0,0,0,7.8,11.1098,0.123111,1.94412e-06,1.66567,0.0085695,0.831891,243.987,1568229346
0,7,0,0,0,100,0,0,0,0,7.8,11.0859,0.131405,1.93804e-06,1.77667,0.010495,0.643021,86.9127,1568229389
0,7,0,0,0,100,0,0,0,0,7.88,11.063,0.136117,1.9197e-06,1.99566,0.0105568,0.405035,86.9545,1568229431
0,7,0,0,0,100,0,0,0,0,7.8,11.1195,0.116667,1.98942e-06,1.78539,0.0109554,0.608657,243.462,1568229474
0,7,0,0,0,100,0,0,0,0,7.77,11.1454,0.144586,1.83633e-06,1.54487,0.00960171,0.581509,132.053,1568229516
0,7,0,0,0,100,0,0,0,0,7.9,11.0614,0.120039,1.92524e-06,2.08237,0.0110044,0.668773,122.656,1568229558
0,7,0,0,0,100,0,0,0,0,7.98,10.9725,0.115698,2.01795e-06,2.23447,0.00958942,0.626387,185.52,1568229601
0,7,0,0,0,100,0,0,0,0,7.82,11.1253,0.12384,1.9285e-06,1.89117,0.0111308,0.584944,87.6222,1568229644
0,7,0,0,0,100,0,0,0,0,7.9,11.034,0.123286,1.95113e-06,1.93583,0.0103679,0.586179,91.3294,1568229686
0,7,0,0,0,100,0,0,0,0,7.8,11.1447,0.148627,1.94036e-06,1.89439,0.00921341,0.753062,124.16,1568229730
0,7,0,0,0,100,0,0,0,0,7.86,11.0923,0.122896,1.99881e-06,1.93103,0.00924666,0.626632,127.854,1568229772
0,7,0,0,0,100,0,0,0,0,8.9,9.81407,0.0851678,1.93502e-06,4.62201,0.0108635,0.397719,121.87,1568229815
0,7,0,0,0,100,0,0,0,0,7.9,11.064,0.134369,1.9371e-06,2.03596,0.0121266,0.655807,244.007,1568229861
0,7,0,0,0,100,0,0,0,0,7.8,11.108,0.13158,1.907e-06,1.51836,0.00922581,0.713534,68.2988,1568229904
0,7,0,0,0,100,0,0,0,0,7.84,11.1071,0.134452,1.90936e-06,1.97145,0.0107672,0.75587,124.536,1568229947
0,7,0,0,0,100,0,0,0,0,7.96,10.9536,0.134119,1.98604e-06,2.29315,0.010442,0.515121,151.218,1568229989
0,7,0,0,0,100,0,0,0,0,8.04,10.8608,0.125853,1.92743e-06,2.54467,0.0104467,0.620174,124.24,1568230033
0,7,0,0,0,100,0,0,0,0,7.9,10.9877,0.126808,1.94925e-06,1.7566,0.0100422,0.72602,243.566,1568230076
0,7,0,0,0,100,0,0,0,1,3.7,10.6027,0.0662577,2.20879e-06,0.602177,0.0105488,1.17391,244.255,1568230119
0,7,0,0,0,100,0,0,0,0,7.81,11.1342,0.135006,1.92273e-06,1.8758,0.0104116,0.797975,128.922,1568230154
0,7,0,0,0,100,0,0,0,0,7.99,10.9172,0.097556,1.87693e-06,2.4518,0.00986589,0.776632,243.241,1568230197
0,7,0,0,0,100,0,0,0,0,7.8,11.1292,0.126224,1.92574e-06,1.92993,0.00999016,0.60591,75.3391,1568230240
0,7,0,0,0,100,0,0,0,0,7.84,11.1111,0.132691,1.93499e-06,1.97692,0.0103246,0.652569,67.8684,1568230282
0,7,0,0,0,100,0,0,0,0,7.76,11.1823,0.138638,1.95472e-06,1.78109,0.0106052,0.707517,244.136,1568230325
0,7,0,0,0,100,0,0,0,0,7.82,11.0915,0.122313,1.92912e-06,1.76652,0.0110309,0.736161,88.214,1568230368
0,7,0,0,0,100,0,0,0,0,7.92,10.9655,0.104631,1.95935e-06,2.32878,0.0102773,0.716832,122.751,1568230410
0,7,0,0,0,100,0,0,0,0,7.8,11.153,0.120399,1.90997e-06,1.7732,0.0109097,0.614537,125.837,1568230453
0,7,0,0,0,100,0,0,0,0,8,10.9028,0.1061,1.92461e-06,2.39865,0.00995575,0.516017,121.426,1568230495
0,7,0,0,0,100,0,0,0,0,7.8,11.1206,0.134779,1.88677e-06,1.92476,0.0108443,0.686836,243.793,1568230538
0,7,0,0,0,100,0,0,0,0,7.88,11.0526,0.140473,1.92754e-06,1.90849,0.0100144,0.751597,96.0775,1568230581
0,7,0,0,0,100,0,0,0,0,7.86,11.1199,0.119641,1.92915e-06,1.98889,0.0108285,0.619267,124.852,1568230624
0,7,0,0,0,100,0,0,0,0,8.15,10.7015,0.10194,1.92755e-06,3.2003,0.0101779,0.616318,122.322,1568230667
0,7,0,0,0,100,0,0,0,0,7.83,11.0927,0.133816,1.90419e-06,1.85143,0.0108854,0.989668,244.679,1568230712
0,7,0,0,0,100,0,0,0,0,7.78,11.1341,0.133179,1.95577e-06,1.27172,0.0111329,0.772366,124.604,1568230754
0,7,0,0,0,100,0,0,0,0,7.88,10.9238,0.109914,1.91667e-06,1.15229,0.0097972,0.695624,88.1869,1568230797
0,7,0,0,0,100,0,0,0,0,7.91,11.0357,0.134243,1.95116e-06,2.04652,0.0105365,0.799058,140.228,1568230840
0,8,0,0,0,100,0,0,0,0,8.36,10.4321,0.108249,1.93732e-06,3.30307,0.00987717,0.691303,121.904,1568230883
0,8,0,0,0,100,0,0,0,0,7.9,11.0571,0.125755,1.92185e-06,2.10607,0.0103469,0.808099,244.11,1568230926
0,8,0,0,0,100,0,0,0,0,7.84,11.0837,0.143291,1.94443e-06,1.5403,0.0106962,0.705478,159.019,1568230969
0,8,0,0,0,100,0,0,0,0,8.05,10.8181,0.109255,1.93591e-06,2.63,0.0105239,0.687333,90.6712,1568231012
0,8,0,0,0,100,0,0,0,0,8,10.8919,0.116095,1.9366e-06,2.44949,0.00954362,0.614267,125.047,1568231055
0,8,0,0,0,100,0,0,0,0,8.13,10.744,0.121078,1.98377e-06,2.71146,0.0105651,0.86015,243.571,1568231097
0,8,0,0,0,100,0,0,0,0,7.77,11.1745,0.133698,1.95588e-06,1.72457,0.0108705,0.715178,246.502,1568231141
0,8,0,0,0,100,0,0,0,0,7.84,11.0029,0.138193,1.95859e-06,1.33714,0.0105312,0.748416,243.654,1568231184
0,8,0,0,0,100,0,0,0,0,7.82,11.1192,0.150419,1.93832e-06,1.91559,0.0103748,0.827602,243.278,1568231227
0,8,0,0,0,100,0,0,0,0,7.8,11.145,0.119303,1.95507e-06,1.889,0.0104246,0.71804,243.619,1568231270
0,8,0,0,0,100,0,0,0,0,7.86,11.0685,0.132056,1.92027e-06,1.87546,0.0097307,0.628077,82.5118,1568231313
0,8,0,0,0,100,0,0,0,0,8.06,10.794,0.113478,1.94249e-06,2.62958,0.0109751,0.421664,244.179,1568231355
0,8,0,0,0,100,0,0,0,0,7.84,11.0687,0.130944,1.93893e-06,1.69299,0.00941225,0.685073,244.731,1568231397
0,8,0,0,0,100,0,0,0,0,7.8,11.1057,0.140263,1.96076e-06,1.70471,0.0115909,0.803672,243.184,1568231439
0,8,0,0,0,100,0,0,0,0,7.86,11.0818,0.142304,1.93909e-06,2.0313,0.0107314,0.713262,244.217,1568231482
0,8,0,0,0,100,0,0,0,0,7.84,11.0696,0.124594,1.92793e-06,1.97718,0.0122347,0.624906,87.4498,1568231524
0,8,0,0,0,100,0,0,0,0,9.07,9.61205,0.106594,1.89441e-06,4.97566,0.0110069,0.536514,245.008,1568231566
0,8,0,0,0,100,0,0,0,0,7.8,11.132,0.143366,1.95244e-06,1.78701,0.0105028,0.651783,74.1194,1568231611
0,8,0,0,0,100,0,0,0,0,7.8,11.1329,0.140002,1.93015e-06,1.91187,0.0100531,0.537062,88.5222,1568231653
0,8,0,0,0,100,0,0,0,0,7.8,11.0994,0.147345,1.92783e-06,1.66423,0.0102721,0.716319,244.015,1568231696
0,8,0,0,0,100,0,0,0,0,10.6,8.21156,0.170748,1.76171e-06,2.14137,0.0100736,0.77397,116.632,1568231739
0,8,0,0,0,100,0,0,0,0,7.88,11.061,0.142293,1.93918e-06,1.91862,0.0117966,0.882656,121.379,1568231786
0,8,0,0,0,100,0,0,0,0,7.9,11.0602,0.115067,1.92713e-06,2.06928,0.0102179,0.665616,243.036,1568231829
0,8,0,0,0,100,0,0,0,1,4.32,10.3842,0.229078,2.18379e-06,0.408174,0.0114573,1.28498,243.129,1568231870
0,8,0,0,0,100,0,0,0,0,7.82,11.0461,0.134822,1.96837e-06,1.35553,0.0100033,0.829789,243.793,1568231907
0,8,0,0,0,100,0,0,0,0,7.88,11.0886,0.127847,1.96339e-06,2.04413,0.0110007,0.839113,122.624,1568231951
0,8,0,0,0,100,0,0,0,0,7.88,11.0677,0.146021,1.97091e-06,1.99099,0.0102121,0.725574,171.268,1568231994
0,8,0,0,0,100,0,0,0,0,7.92,10.9739,0.116506,1.90067e-06,2.08444,0.0109194,0.746126,93.0238,1568232036
0,8,0,0,0,100,0,0,0,0,7.88,11.0586,0.131886,1.93828e-06,1.9206,0.0101607,0.745101,98.7729,1568232079
0,8,0,0,0,100,0,0,0,0,8.86,9.86564,0.0974752,1.88053e-06,4.23312,0.00951124,0.657458,245.472,1568232122
0,8,0,0,0,100,0,0,0,0,7.83,11.1562,0.128061,1.94805e-06,1.98659,0.0108756,0.621157,244.874,1568232166
0,8,0,0,0,100,0,0,0,1,3.48,9.48819,0.0620266,2.26419e-06,0.746584,0.0116447,1.91851,157.025,1568232209
0,8,0,0,0,100,0,0,0,0,7.88,11.0789,0.136207,1.93868e-06,2.00122,0.0106436,0.568805,86.5086,1568232244
0,8,0,0,0,100,0,0,0,0,7.83,11.0857,0.140426,1.89045e-06,1.76604,0.0101416,0.737068,244.54,1568232287
0,8,0,0,0,100,0,0,0,0,7.87,11.0813,0.140324,1.93936e-06,1.90388,0.00881085,0.662815,87.9555,1568232330
0,8,0,0,0,100,0,0,0,0,8.4,10.3942,0.105294,1.92651e-06,3.36483,0.0103045,0.569451,68.116,1568232373
0,8,0,0,0,100,0,0,0,0,7.76,11.1608,0.147995,1.91555e-06,1.60783,0.011,0.82434,76.7183,1568232416
0,8,0,0,0,100,0,0,0,0,7.89,11.0492,0.137973,1.94427e-06,2.01382,0.00979804,0.705361,82.5238,1568232458
0,8,0,0,0,100,0,0,0,0,7.8,11.0898,0.14376,1.94272e-06,1.65488,0.0103004,0.717859,243.987,1568232501
0,8,0,0,0,100,0,0,0,0,7.85,11.1031,0.141708,1.91998e-06,1.89462,0.010403,0.744433,128.73,1568232544
0,8,0,0,0,100,0,0,0,0,7.88,11.0615,0.148266,1.91528e-06,1.8553,0.00996845,0.927221,87.6402,1568232587
0,8,0,0,0,100,0,0,0,0,7.85,11.0877,0.134895,1.93349e-06,1.91514,0.0108527,0.685288,81.8744,1568232629
0,8,0,0,0,100,0,0,0,0,7.87,11.064,0.135758,1.99098e-06,1.99223,0.0110463,0.64766,121.296,1568232672
0,8,0,0,0,100,0,0,0,0,7.8,11.1125,0.154054,1.91395e-06,1.66471,0.0120669,0.576431,243.19,1568232716
0,8,0,0,0,100,0,0,0,0,7.87,11.0776,0.136378,1.87103e-06,2.04482,0.0102268,0.674903,245.157,1568232758
0,8,0,0,0,100,0,0,0,0,7.86,11.0854,0.115718,1.88443e-06,2.0353,0.00928314,0.587001,87.6464,1568232800
0,8,0,0,0,100,0,0,0,0,10.51,8.25583,0.170629,1.77657e-06,2.09057,0.0106785,0.827895,124.53,1568232843
0,8,0,0,0,100,0,0,0,0,7.81,11.1214,0.139842,1.99908e-06,1.96015,0.0108022,0.817217,245.005,1568232889
0,8,0,0,0,100,0,0,0,1,4.1,10.1471,0.140421,2.2452e-06,0.531826,0.0116625,1.72286,245.345,1568232932
0,8,0,0,0,100,0,0,0,0,7.79,11.1295,0.140081,1.95715e-06,1.93629,0.0104125,0.853668,67.8682,1568232968
0,8,0,0,0,100,0,0,0,0,7.88,11.0565,0.136605,1.91681e-06,2.06538,0.00940513,0.73019,124.952,1568233011
0,8,0,0,0,100,0,0,0,0,7.85,11.1168,0.124314,1.93785e-06,2.08767,0.00963643,0.796627,242.222,1568233054
0,8,0,0,0,100,0,0,0,0,7.9,11.0667,0.146346,1.93945e-06,1.89266,0.0109814,0.76513,87.4169,1568233097
0,8,0,0,0,100,0,0,0,0,7.84,11.005,0.151094,1.91996e-06,1.31985,0.00994263,0.762393,87.5631,1568233140
0,8,0,0,0,100,0,0,0,0,7.88,11.0247,0.143946,1.91538e-06,1.98925,0.0108093,0.671677,124.634,1568233182
0,8,0,0,0,100,0,0,0,0,7.72,11.1668,0.155476,1.95207e-06,1.37582,0.0101769,0.744348,122.122,1568233225
0,8,0,0,0,100,0,0,0,0,7.8,11.0765,0.156158,1.92222e-06,1.62601,0.0108689,0.716488,243.752,1568233267
0,8,0,0,0,100,0,0,0,0,7.88,11.0689,0.140853,1.97004e-06,1.99389,0.0106057,0.788431,244.08,1568233310
0,8,0,0,0,100,0,0,0,0,7.83,11.0938,0.144088,1.92731e-06,1.87977,0.0109957,0.559612,245.485,1568233353
0,8,0,0,0,100,0,0,0,0,7.78,11.1837,0.139116,1.92306e-06,1.76181,0.00937613,0.767654,244.299,1568233398
0,8,0,0,0,100,0,0,0,0,7.86,11.0753,0.13767,1.92684e-06,1.89388,0.0110486,0.794688,121.625,1568233445
0,8,0,0,0,100,0,0,0,0,13.43,6.51009,0.155995,1.69604e-06,4.90556,0.00977041,0.630611,124.981,1568233495
0,8,0,0,0,100,0,0,0,0,7.93,11.0437,0.134175,1.96429e-06,2.09492,0.0108381,0.433895,245.232,1568233558
0,8,0,0,0,100,0,0,0,0,7.85,11.0344,0.144923,2.06686e-06,1.53563,0.0116024,0.585262,87.5148,1568233606
0,8,0,0,0,100,0,0,0,0,8.18,10.6926,0.114329,1.88457e-06,3.24873,0.0110668,0.649613,243.806,1568233673
0,8,0,0,0,100,0,0,0,0,7.84,11.0267,0.14211,1.96917e-06,1.82557,0.00961718,0.678519,174.711,1568233729
0,8,0,0,0,100,0,0,0,0,7.86,11.0395,0.150263,1.94627e-06,1.75264,0.0107263,0.739042,120.979,1568233776
0,8,0,0,0,100,0,0,0,0,7.8,11.1637,0.144211,1.90039e-06,1.8694,0.0101512,0.798539,243.614,1568233821
0,8,0,0,0,100,0,0,0,0,9.1,9.59705,0.129116,1.89172e-06,3.02551,0.00980559,0.603858,87.6124,1568233865
0,8,0,0,0,100,0,0,0,0,7.88,11.0577,0.138267,1.93658e-06,1.91919,0.0102633,0.691528,244.423,1568233911
0,8,0,0,0,100,0,0,0,0,7.8,11.1129,0.134638,1.92496e-06,1.5691,0.0104653,0.696565,87.5728,1568233960
0,8,0,0,0,100,0,0,0,0,7.8,11.1495,0.147921,1.93318e-06,1.78694,0.0101312,0.758113,122.056,1568234004
0,8,0,0,0,100,0,0,0,0,7.9,11.0675,0.13776,1.90383e-06,2.05182,0.0100862,0.744194,244.929,1568234056
0,8,0,0,0,100,0,0,0,0,8.8,9.92963,0.0950203,1.88245e-06,4.26023,0.0106993,0.61216,128.41,1568234114
0,8,0,0,0,100,0,0,0,0,7.87,10.9397,0.136188,1.99023e-06,1.00937,0.0107177,0.741251,244.048,1568234161
0,8,0,0,0,100,0,0,0,0,7.91,11.0163,0.124243,1.97084e-06,2.19367,0.0112013,0.75774,68.4248,1568234205
0,8,0,0,0,100,0,0,0,0,7.84,11.0916,0.138363,1.92479e-06,1.90754,0.00897887,0.686799,222.466,1568234247
0,8,0,0,0,100,0,0,0,0,7.82,11.1237,0.148449,1.95123e-06,1.88424,0.011581,0.699903,242.781,1568234291
0,8,0,0,0,100,0,0,0,0,8.06,10.7664,0.146988,1.96786e-06,1.84616,0.0107579,0.736408,121.639,1568234333
0,8,0,0,0,100,0,0,0,0,7.73,11.2201,0.165465,1.9414e-06,1.87404,0.0108381,0.542622,124.88,1568234376
0,8,0,0,0,100,0,0,0,0,10.66,8.11637,0.190619,1.76734e-06,1.92197,0.0110971,0.804139,56.3332,1568234419
0,8,0,0,0,100,0,0,0,1,34.68,1.76423,0.154894,1.23689e-06,14.7043,0.00872942,0.71854,124.686,1568234468
0,8,0,0,0,100,0,0,0,0,8.34,10.5057,0.101065,1.9436e-06,3.47282,0.0102533,0.722256,245.122,1568234558
0,8,0,0,0,100,0,0,0,0,7.8,11.1363,0.150531,1.94144e-06,1.93494,0.0099986,0.875069,76.59,1568234602
0,8,0,0,0,100,0,0,0,0,7.78,11.1358,0.141645,1.93154e-06,1.70901,0.0100382,0.519803,244.031,1568234644
0,8,0,0,0,100,0,0,0,0,7.88,11.0606,0.149281,1.96041e-06,1.94654,0.0117932,0.701194,105.787,1568234687
0,8,0,0,0,100,0,0,0,0,7.79,11.0653,0.136612,1.97198e-06,1.66108,0.00962091,0.740786,243.631,1568234730
0,8,0,0,0,100,0,0,0,0,7.76,11.1864,0.13705,1.99423e-06,1.81182,0.012176,0.832142,112.64,1568234772
0,8,0,0,0,100,0,0,0,0,7.85,11.0526,0.139003,1.93784e-06,1.75758,0.00967323,0.746265,151.949,1568234815
0,8,0,0,0,100,0,0,0,0,7.79,11.1649,0.159154,1.97706e-06,1.76014,0.0114225,0.959777,127.963,1568234857
0,8,0,0,0,100,0,0,0,0,7.92,11.0491,0.128628,1.92889e-06,2.28421,0.0100373,0.686123,242.961,1568234900
0,8,0,0,0,100,0,0,0,0,7.81,11.1336,0.155002,1.99493e-06,1.62857,0.00960086,0.945797,244.364,1568234943
0,8,0,0,0,100,0,0,0,0,7.8,11.0928,0.120722,1.91972e-06,1.71756,0.0102268,0.736855,243.06,1568234987
0,8,0,0,0,100,0,0,0,0,7.73,11.2009,0.131812,2.00804e-06,1.50845,0.00975765,0.693523,71.9953,1568235030
0,8,0,0,0,100,0,0,0,0,7.8,11.0821,0.159091,1.96058e-06,1.25547,0.0112474,0.741205,244.082,1568235073
0,8,0,0,0,100,0,0,0,0,7.81,11.0434,0.144779,1.87075e-06,0.945022,0.00978407,0.611304,245.478,1568235116
0,8,0,0,0,100,0,0,0,0,7.72,11.2075,0.145068,1.93211e-06,1.47634,0.0109395,0.863448,125.309,1568235159
0,8,0,0,0,100,0,0,0,0,8.19,10.5312,0.106759,1.93966e-06,2.59074,0.0103923,0.839818,237.431,1568235202
0,8,0,0,0,100,0,0,0,0,7.9,11.0435,0.133776,1.92634e-06,2.02011,0.00948721,0.737291,244.003,1568235245
0,8,0,0,0,100,0,0,0,0,7.8,11.1313,0.14377,1.97158e-06,1.7624,0.0108192,0.810984,244.229,1568235287
