Rain Rate,Dust Rate,Droput Rate,RTK Error,Lidar Error,Stereo QF,Timed Out,Anvel Dropped,Collision,RolledOver,Simulation Time,Effective Speed,Point Cloud Error,Odometry Error,Path Error,Grid Error,Obstacle Error,Detection Range,Random Seed
0,0,0,0,0,100,0,0,1,0,3.97,11.099,0.000625,2.26822e-06,0.321156,0.0148713,0.701975,58.9666,1567942641
0,0,0,0,0,100,0,0,1,0,3.91,11.1726,0.000625,2.21056e-06,0.251871,0.0141841,1.52069,61.547,1567942716
0,0,0,0,0,100,0,0,0,0,7.62,11.3243,0.000625,1.95991e-06,0.737872,0.0146275,1.068,55.2389,1567942790
0,0,0,0,0,100,0,0,0,0,7.64,11.2972,0.000625,1.96625e-06,0.634425,0.0151205,0.395285,54.0022,1567942875
0,0,0,0,0,100,0,0,1,0,3.92,11.122,0.000625,2.26691e-06,0.253715,0.0141893,1.78341,41.1908,1567942960
0,0,0,0,0,100,0,0,1,0,3.96,11.1258,0.000625,2.23001e-06,0.288051,0.0153029,1.37073,47.249,1567943027
0,0,0,0,0,100,0,0,1,0,3.92,11.1459,0.000625,2.24583e-06,0.255498,0.0152323,1.78341,48.3226,1567943099
0,0,0,0,0,100,0,0,0,0,7.64,11.287,0.000625,1.95584e-06,0.658167,0.0161743,1.12145,41.8525,1567943169
0,0,0,0,0,100,0,0,0,0,7.66,11.2611,0.000625,1.88081e-06,0.736159,0.0132747,0.600925,48.8618,1567943254
0,0,0,0,0,100,0,0,0,0,7.69,11.2336,0.000625,1.95926e-06,0.913036,0.0146626,0.0707107,54.0484,1567943335
0,0,0,0,0,100,0,0,0,0,7.61,11.3294,0.000625,1.88003e-06,0.648538,0.0140539,1.27475,61.5748,1567943414
0,0,0,0,0,100,0,0,1,0,3.97,11.1755,0.000625,2.20721e-06,0.262084,0.0149171,1.00347,56.9887,1567943502
0,0,0,0,0,100,0,0,1,0,3.92,11.151,0.000625,2.24165e-06,0.254503,0.0162595,1.37941,40.2687,1567943575
0,0,0,0,0,100,0,0,1,0,3.94,11.1492,0.000625,2.29043e-06,0.279611,0.0158757,1.34629,51.4928,1567943647
0,0,0,0,0,100,0,0,1,0,3.96,11.1426,0.000625,2.2319e-06,0.293164,0.0169911,1.05775,51.9003,1567943723
0,0,0,0,0,100,0,0,0,0,7.67,11.2589,0.000625,1.92971e-06,0.713184,0.0139381,0.559017,49.5199,1567943792
0,0,0,0,0,100,0,0,1,0,3.99,11.1137,0.000625,2.1692e-06,0.308855,0.0146957,1.20185,60.2549,1567943876
0,0,0,0,0,100,0,0,0,0,7.64,11.281,0.000625,1.94366e-06,0.592623,0.0141901,1.06066,48.3005,1567943953
0,0,0,0,0,100,0,0,0,0,7.63,11.31,0.000625,1.90083e-06,0.600734,0.0151793,0.992472,43.672,1567944037
0,0,0,0,0,100,0,0,0,0,7.65,11.2762,0.000625,1.92574e-06,0.758134,0.0148023,0.768295,56.5494,1567944122
0,0,0,0,0,100,0,0,0,0,7.65,11.2829,0.000625,1.9826e-06,0.715588,0.0147123,0.864551,49.2681,1567944203
0,0,0,0,0,100,0,0,1,0,4,11.0857,0.000625,2.18406e-06,0.303351,0.0151922,0.942809,57.0702,1567944282
0,0,0,0,0,100,0,0,1,0,3.93,11.1724,0.000625,2.20478e-06,0.280289,0.0154231,1.07005,47.5725,1567944354
0,0,0,0,0,100,0,0,1,0,3.99,11.1191,0.000625,2.24001e-06,0.303321,0.0159265,1.04124,57.1617,1567944425
0,0,0,0,0,100,0,0,0,0,7.64,11.2933,0.000625,1.95059e-06,0.733004,0.0142237,0.7526,54.6108,1567944499
0,0,0,0,0,100,0,0,1,0,3.94,11.1282,0.000625,2.24853e-06,0.252804,0.0144033,0.25,46.9731,1567944581
0,0,0,0,0,100,0,0,1,0,3.91,11.1442,0.000625,2.25979e-06,0.251899,0.0155228,1.45774,43.2764,1567944658
0,0,0,0,0,100,0,0,0,0,7.64,11.2908,0.000625,1.99348e-06,0.719617,0.0135137,0.728869,45.0655,1567944728
0,0,0,0,0,100,0,0,1,0,3.95,11.1688,0.000625,2.27447e-06,0.292195,0.0160898,1.37295,55.7746,1567944810
0,0,0,0,0,100,0,0,1,0,3.93,11.1359,0.000625,2.2758e-06,0.269326,0.0144006,1.25,53.4251,1567944881
0,0,0,0,0,100,0,0,1,0,3.93,11.0927,0.000625,2.26162e-06,0.253626,0.0129745,1.58114,55.4554,1567944952
0,0,0,0,0,100,0,0,1,0,3.93,11.0963,0.000625,2.18733e-06,0.250008,0.0172155,1.52069,37.4158,1567945030
0,0,0,0,0,100,0,0,0,0,7.61,11.3259,0.000625,1.91937e-06,0.624134,0.0148119,0.992472,43.4693,1567945098
0,0,0,0,0,100,0,0,1,0,3.97,11.1716,0.000625,2.20733e-06,0.295838,0.0163159,1.00669,51.41,1567945179
0,0,0,0,0,100,0,0,0,0,7.64,11.3011,0.000625,1.94493e-06,0.727475,0.0167856,0.112938,50.72,1567945254
0,0,0,0,0,100,0,0,0,0,7.69,11.2354,0.000625,1.96187e-06,0.821672,0.0150643,0.1,55.7006,1567945333
0,0,0,0,0,100,0,0,1,0,3.99,11.1152,0.000625,2.10763e-06,0.252289,0.0160384,0.65192,51.995,1567945415
0,0,0,0,0,100,0,0,1,0,3.95,11.1064,0.000625,2.1751e-06,0.276881,0.0164365,1.2083,50.8276,1567945490
0,0,0,0,0,100,0,0,0,0,7.66,11.2721,0.000625,1.97403e-06,0.737301,0.0148295,1.1068,43.3628,1567945559
0,0,0,0,0,100,0,0,1,0,3.89,11.192,0.000625,2.20263e-06,0.260732,0.0161693,3.40282e+38,56.1358,1567945645
0,0,0,0,0,100,0,0,1,0,3.93,11.1022,0.000625,2.19436e-06,0.235668,0.0148551,3.40282e+38,45.794,1567945713
0,0,0,0,0,100,0,0,0,0,7.66,11.2727,0.000625,1.90718e-06,0.694162,0.0164105,0.885845,54.3422,1567945781
0,0,0,0,0,100,0,0,1,0,3.94,11.1402,0.000625,2.22301e-06,0.254922,0.0140983,1.80278,53.1716,1567945874
0,0,0,0,0,100,0,0,1,0,3.92,11.1311,0.000625,2.20133e-06,0.254435,0.0172642,1.78341,61.6852,1567945943
0,0,0,0,0,100,0,0,1,0,3.95,11.1828,0.000625,2.26485e-06,0.292052,0.0135363,1.0625,46.6926,1567946020
0,0,0,0,0,100,0,0,1,0,3.93,11.14,0.000625,2.1919e-06,0.27276,0.015816,1.67705,60.1848,1567946088
0,0,0,0,0,100,0,0,0,0,7.62,11.3114,0.000625,1.92743e-06,0.609374,0.0155695,1.02508,48.3259,1567946158
0,0,0,0,0,100,0,0,0,0,7.62,11.3276,0.000625,1.94967e-06,0.622915,0.017739,1.17478,52.7435,1567946239
0,0,0,0,0,100,0,0,0,0,7.64,11.2883,0.000625,1.97596e-06,0.635087,0.0153713,1.21323,54.6246,1567946323
0,0,0,0,0,100,0,0,1,0,3.93,11.1518,0.000625,2.23535e-06,0.272023,0.0146385,1.60078,45.2265,1567946405
0,0,0,0,0,100,0,0,0,0,7.63,11.3145,0.000625,1.95155e-06,0.663357,0.0145926,0.921678,50.6118,1567946477
0,0,0,0,0,100,0,0,0,0,7.65,11.285,0.000625,1.93662e-06,0.695078,0.0162601,0.634648,57.254,1567946566
0,0,0,0,0,100,0,0,0,0,7.65,11.2759,0.000625,1.95899e-06,0.735089,0.0156084,0.492223,53.1771,1567946651
0,0,0,0,0,100,0,0,1,0,3.93,11.1107,0.000625,2.25165e-06,0.248808,0.0143425,1.78341,47.4288,1567946728
0,0,0,0,0,100,0,0,1,0,3.96,11.1306,0.000625,2.21214e-06,0.312398,0.0157714,0.25,54.2403,1567946799
0,0,0,0,0,100,0,0,1,0,3.99,11.1226,0.000625,2.19289e-06,0.294865,0.0149678,0.625,55.8791,1567946867
0,0,0,0,0,100,0,0,0,0,7.62,11.3305,0.000625,1.92914e-06,0.726463,0.0170532,0.707107,50.8233,1567946938
0,0,0,0,0,100,0,0,0,0,7.63,11.2962,0.000625,1.93927e-06,0.596583,0.0165154,1.00778,52.543,1567947020
0,0,0,0,0,100,0,0,0,0,7.64,11.2968,0.000625,1.9305e-06,0.841382,0.0136893,2.24496,63.1426,1567947107
0,0,0,0,0,100,0,0,1,0,3.94,11.0936,0.000625,2.25613e-06,0.251729,0.0128054,1.95256,47.9779,1567947194
0,0,0,0,0,100,0,0,1,0,3.98,11.0897,0.000625,2.25447e-06,0.28818,0.0147,0.71686,49.4549,1567947266
0,0,0,0,0,100,0,0,1,0,3.96,11.1878,0.000625,2.26132e-06,0.292879,0.0170319,0.263523,53.2009,1567947333
0,0,0,0,0,100,0,0,0,0,7.63,11.2985,0.000625,1.96566e-06,0.606794,0.0145935,1.27475,48.6552,1567947400
0,0,0,0,0,100,0,0,1,0,3.9,11.2127,0.000625,2.26935e-06,0.261087,0.0158328,1.60078,54.7447,1567947481
0,0,0,0,0,100,0,0,0,0,7.65,11.2779,0.000625,1.96383e-06,0.695256,0.0141784,0.824958,62.2953,1567947554
0,0,0,0,0,100,0,0,0,0,7.63,11.3038,0.000625,1.94492e-06,0.610234,0.0138867,0.883883,47.9653,1567947635
0,0,0,0,0,100,0,0,1,0,3.91,11.1495,0.000625,2.20362e-06,0.265117,0.0125855,3.40282e+38,60.6544,1567947719
0,0,0,0,0,100,0,0,1,0,3.98,11.0767,0.000625,2.22228e-06,0.270334,0.0155849,0.637377,55.1417,1567947789
0,0,0,0,0,100,0,0,1,0,3.97,11.164,0.000625,2.25132e-06,0.295768,0.0166471,0.506897,50.1735,1567947863
0,0,0,0,0,100,0,0,1,0,3.98,11.1287,0.000625,2.19652e-06,0.297286,0.0161734,0.822205,54.0228,1567947932
0,0,0,0,0,100,0,0,1,0,3.91,11.14,0.000625,2.24618e-06,0.240055,0.0151447,3.40282e+38,50.131,1567948000
0,0,0,0,0,100,0,0,1,0,3.95,11.093,0.000625,2.26395e-06,0.275953,0.0144569,1.23884,57.3436,1567948069
0,0,0,0,0,100,0,0,0,0,7.64,11.2942,0.000625,1.89839e-06,0.723637,0.0139502,0.777392,60.3754,1567948140
0,0,0,0,0,100,0,0,0,0,7.67,11.2711,0.000625,1.9084e-06,0.781948,0.0153367,0.75085,53.2113,1567948224
0,0,0,0,0,100,0,0,0,0,7.61,11.324,0.000625,1.89679e-06,0.622343,0.0148739,0.851469,63.2172,1567948309
0,0,0,0,0,100,0,0,0,0,7.65,11.2794,0.000625,1.9517e-06,0.723342,0.0143516,0.473038,54.0401,1567948391
0,0,0,0,0,100,0,0,0,0,7.65,11.2883,0.000625,1.93695e-06,0.723345,0.0162414,0.708908,50.188,1567948472
0,0,0,0,0,100,0,0,1,0,3.94,11.1362,0.000625,2.21455e-06,0.230327,0.0152032,1.41421,52.2509,1567948561
0,0,0,0,0,100,0,0,1,0,3.92,11.118,0.000625,2.20703e-06,0.253381,0.0161066,1.52069,58.4034,1567948634
0,0,0,0,0,100,0,0,1,0,3.99,11.1127,0.000625,2.22405e-06,0.296743,0.0153557,0.964947,54.3968,1567948703
0,0,0,0,0,100,0,0,1,0,3.96,11.0823,0.000625,2.1965e-06,0.28341,0.0164023,1.29636,49.5419,1567948772
0,0,0,0,0,100,0,0,0,0,7.63,11.3069,0.000625,1.96278e-06,0.716327,0.014158,0.25,50.3545,1567948841
0,0,0,0,0,100,0,0,1,0,3.93,11.1672,0.000625,2.20333e-06,0.282713,0.0146989,0.707107,44.648,1567948923
0,0,0,0,0,100,0,0,0,0,7.63,11.3186,0.000625,1.99715e-06,0.74501,0.0137094,0.643477,57.5468,1567948992
0,0,0,0,0,100,0,0,0,0,7.63,11.3013,0.000625,1.94661e-06,0.68055,0.0149024,0.353553,57.3223,1567949082
0,0,0,0,0,100,0,0,0,0,7.66,11.2776,0.000625,1.9269e-06,0.690011,0.0147242,0.533594,44.1676,1567949168
0,0,0,0,0,100,0,0,1,0,3.99,11.0998,0.000625,2.21313e-06,0.300125,0.0137353,0.71261,55.9296,1567949262
0,0,0,0,0,100,0,0,0,0,7.66,11.2744,0.000625,1.96843e-06,0.718576,0.0122762,0.353553,54.0808,1567949344
0,0,0,0,0,100,0,0,1,0,3.94,11.0784,0.000625,2.30349e-06,0.421241,0.0150185,1.17686,53.9933,1567949427
0,0,0,0,0,100,0,0,0,0,7.65,11.2872,0.000625,1.92247e-06,0.719644,0.0146672,1.20055,55.9954,1567949499
0,0,0,0,0,100,0,0,0,0,7.64,11.2999,0.000625,1.90437e-06,0.743378,0.0156889,0.640312,55.8543,1567949578
0,0,0,0,0,100,0,0,1,0,3.94,11.1356,0.000625,2.23311e-06,0.272531,0.0157787,1.43003,51.8896,1567949663
0,0,0,0,0,100,0,0,1,0,3.96,11.1495,0.000625,2.20289e-06,0.282724,0.0135969,0.559017,60.0556,1567949732
0,0,0,0,0,100,0,0,0,0,7.64,11.3019,0.000625,1.95074e-06,0.736278,0.0131108,0.252538,53.0446,1567949806
0,0,0,0,0,100,0,0,1,0,3.92,11.144,0.000625,2.24982e-06,0.249987,0.0139868,1.60078,51.7206,1567949891
0,0,0,0,0,100,0,0,1,0,3.98,11.1441,0.000625,2.21827e-06,0.302089,0.0141779,0.970824,52.1915,1567949960
0,0,0,0,0,100,0,0,1,0,3.93,11.1407,0.000625,2.1944e-06,0.269815,0.0161946,1.40451,56.0811,1567950028
0,0,0,0,0,100,0,0,0,0,7.63,11.3108,0.000625,1.93634e-06,0.589608,0.0147896,1.11803,53.0929,1567950098
0,0,0,0,0,100,0,0,1,0,3.96,11.1341,0.000625,2.23297e-06,0.296555,0.0154428,1.32191,50.1916,1567950182
0,0,0,0,0,100,0,0,1,0,3.98,11.1362,0.000625,2.21834e-06,0.297872,0.0131632,0.263523,60.2041,1567950251
0,1,0,0,0,100,0,0,0,0,7.7,11.2263,0.000625,1.92173e-06,1.0318,0.0150557,0.40381,63.0365,1567950325
0,1,0,0,0,100,0,0,0,0,7.73,11.1864,0.000625,2.01278e-06,1.09309,0.0138341,0.774399,63.1645,1567950422
0,1,0,0,0,100,0,0,0,0,7.7,11.2406,0.000625,2.01318e-06,1.15461,0.0153622,1.05841,63.4482,1567950511
0,1,0,0,0,100,0,0,0,0,7.75,11.1948,0.000625,1.95931e-06,1.18575,0.0153284,0.46736,62.697,1567950594
0,1,0,0,0,100,0,0,0,0,7.62,11.3096,0.000625,1.96301e-06,0.655098,0.015887,1.10028,63.248,1567950677
0,1,0,0,0,100,0,0,1,0,3.97,11.0551,0.000625,2.24387e-06,0.290026,0.0160238,1.08444,62.2509,1567950767
0,1,0,0,0,100,0,0,0,0,7.73,11.2084,0.000625,1.89759e-06,1.23338,0.0156274,1.27455,62.5536,1567950843
0,1,0,0,0,100,0,0,1,0,3.99,11.1092,0.000625,2.25042e-06,0.419167,0.0155511,1.42522,56.3241,1567950927
0,1,0,0,0,100,0,0,0,0,7.64,11.3052,0.000625,1.94303e-06,0.753043,0.0144733,1.43178,62.9528,1567951015
0,1,0,0,0,100,0,0,0,0,7.74,11.1899,0.000625,1.95845e-06,1.13367,0.0145507,1.03207,62.5514,1567951108
0,1,0,0,0,100,0,0,0,0,7.69,11.1925,0.000625,1.96533e-06,0.843868,0.0147068,0.367569,63.6195,1567951196
0,1,0,0,0,100,0,0,0,0,7.66,11.2682,0.000625,1.93289e-06,1.02315,0.0159602,1.02011,62.4242,1567951285
0,1,0,0,0,100,0,0,0,0,7.63,11.2975,0.000625,1.95085e-06,0.637549,0.0151798,0.333333,53.249,1567951378
0,1,0,0,0,100,0,0,0,0,7.74,11.1998,0.000625,1.93793e-06,1.32952,0.0157051,1.3958,62.7841,1567951469
0,1,0,0,0,100,0,0,0,0,7.66,11.2605,0.000625,1.92704e-06,0.727333,0.0152344,0.186339,62.9145,1567951561
0,1,0,0,0,100,0,0,0,0,7.76,11.177,0.000625,1.90804e-06,1.38996,0.0152297,0.825379,62.5413,1567951649
0,1,0,0,0,100,0,0,0,0,7.72,11.2142,0.000625,1.95762e-06,1.30105,0.014203,0.809699,62.9092,1567951738
0,1,0,0,0,100,0,0,0,0,7.66,11.2817,0.000625,1.88685e-06,0.843672,0.0152875,0.901388,58.6134,1567951828
0,1,0,0,0,100,0,0,0,0,7.67,11.2739,0.000625,1.95726e-06,1.0687,0.0155495,0.950146,62.888,1567951922
0,1,0,0,0,100,0,0,0,0,7.63,11.3062,0.000625,1.90772e-06,0.995336,0.0150616,1.17851,62.1203,1567952011
0,1,0,0,0,100,0,0,0,0,7.86,11.0574,0.000625,1.96035e-06,1.78592,0.0138931,0.645274,62.6326,1567952102
0,1,0,0,0,100,0,0,0,0,7.66,11.2712,0.000625,1.90381e-06,0.71577,0.01434,0.625,53.744,1567952185
0,1,0,0,0,100,0,0,0,0,7.77,11.1559,0.000625,1.91194e-06,1.29302,0.0141969,1.73354,62.7649,1567952275
0,1,0,0,0,100,0,0,0,0,7.63,11.3044,0.000625,1.96573e-06,0.634377,0.0147798,1.3613,61.4678,1567952363
0,1,0,0,0,100,0,0,0,0,7.66,11.2808,0.000625,1.92816e-06,1.04597,0.0167188,0.114342,62.7516,1567952449
0,1,0,0,0,100,0,0,0,0,7.67,11.2667,0.000625,1.90782e-06,0.973272,0.0150136,2.0723,62.3772,1567952540
0,1,0,0,0,100,0,0,0,0,7.67,11.2818,0.000625,1.94579e-06,0.951818,0.0127666,0.883181,62.5024,1567952633
0,1,0,0,0,100,0,0,0,0,7.65,11.2525,0.000625,1.95316e-06,0.704776,0.0150535,1.02219,63.1588,1567952726
0,1,0,0,0,100,0,0,0,0,7.68,11.2533,0.000625,1.97083e-06,0.941884,0.0167225,0.117851,52.7543,1567952817
0,1,0,0,0,100,0,0,1,0,3.99,11.1063,0.000625,2.18076e-06,0.294976,0.0167281,0.263523,61.8493,1567952911
0,1,0,0,0,100,0,0,0,0,7.62,11.311,0.000625,1.90692e-06,0.613186,0.0153123,0.992472,52.9061,1567952986
0,1,0,0,0,100,0,0,0,0,7.64,11.3055,0.000625,2.02563e-06,0.919812,0.0140799,0.392837,62.2887,1567953073
0,1,0,0,0,100,0,0,1,0,4,11.1031,0.000625,2.20121e-06,0.303907,0.0158882,0.952956,62.7854,1567953164
0,1,0,0,0,100,0,0,0,0,7.64,11.2957,0.000625,1.86611e-06,0.720856,0.0137107,1.23744,51.9316,1567953239
0,1,0,0,0,100,0,0,0,0,7.75,11.1933,0.000625,1.99097e-06,1.25856,0.0156687,0.855599,62.4666,1567953323
0,1,0,0,0,100,0,0,0,0,7.66,11.2724,0.000625,1.91384e-06,0.824713,0.0148614,1.07224,62.7595,1567953415
0,1,0,0,0,100,0,0,1,0,3.92,11.115,0.000625,2.27814e-06,0.249209,0.01351,2.01556,45.9641,1567953502
0,1,0,0,0,100,0,0,0,0,7.67,11.278,0.000625,1.88631e-06,1.15751,0.0169712,1.35831,62.2704,1567953576
0,1,0,0,0,100,0,0,0,0,7.69,11.2387,0.000625,1.97387e-06,0.848565,0.0160317,1.59422,62.7545,1567953666
0,1,0,0,0,100,0,0,0,0,7.69,11.2408,0.000625,1.9622e-06,0.956176,0.0138792,1.43542,63.0903,1567953757
0,1,0,0,0,100,0,0,0,0,7.67,11.2486,0.000625,1.948e-06,1.04088,0.0145831,1.01645,62.5675,1567953843
0,1,0,0,0,100,0,0,0,0,7.64,11.3093,0.000625,1.9203e-06,0.778015,0.0149503,0.701783,63.2699,1567953936
0,1,0,0,0,100,0,0,1,0,3.99,11.114,0.000625,2.24111e-06,0.301338,0.0150462,0.380789,46.5883,1567954023
0,1,0,0,0,100,0,0,0,0,7.74,11.1837,0.000625,1.96677e-06,1.26107,0.0149931,1.17268,62.8971,1567954097
0,1,0,0,0,100,0,0,1,0,4,11.0982,0.000625,2.25708e-06,0.300052,0.0179521,1.2703,63.342,1567954184
0,1,0,0,0,100,0,0,0,0,8.07,10.8184,0.000625,1.93449e-06,2.34814,0.0162859,0.798371,63.1144,1567954261
0,1,0,0,0,100,0,0,0,0,7.77,11.1485,0.000625,1.88745e-06,1.26387,0.0147888,0.962651,62.6273,1567954351
0,1,0,0,0,100,0,0,0,0,7.74,11.1913,0.000625,1.93028e-06,1.28039,0.0159413,0.579114,63.4557,1567954440
0,1,0,0,0,100,0,0,1,0,3.91,11.148,0.000625,2.24347e-06,0.220205,0.0152925,1.67498,63.0032,1567954534
0,1,0,0,0,100,0,0,0,0,7.68,11.2645,0.000625,1.95852e-06,1.14452,0.0145852,1.01144,63.4639,1567954606
0,1,0,0,0,100,0,0,0,0,7.68,11.2244,0.000625,1.93881e-06,0.921586,0.0128476,1.40448,63.2786,1567954695
0,1,0,0,0,100,0,0,0,0,7.7,11.235,0.000625,1.96643e-06,1.21481,0.0131802,0.809108,62.6368,1567954782
0,1,0,0,0,100,0,0,0,0,7.72,11.2204,0.000625,1.88057e-06,1.27002,0.0161785,0.875248,63.2691,1567954868
0,1,0,0,0,100,0,0,0,0,7.74,11.1909,0.000625,1.94224e-06,1.39396,0.0158114,1.22054,63.6655,1567954954
0,1,0,0,0,100,0,0,0,0,7.67,11.2449,0.000625,1.91332e-06,0.784288,0.0154801,0.950146,63.4892,1567955040
0,1,0,0,0,100,0,0,0,0,7.8,11.1172,0.000625,1.92104e-06,1.4642,0.0150903,1.2541,62.5109,1567955127
0,1,0,0,0,100,0,0,0,0,7.84,11.0788,0.000625,1.89119e-06,1.60482,0.0142354,1.49329,62.3075,1567955215
0,1,0,0,0,100,0,0,0,0,7.71,11.1713,0.000625,1.94047e-06,0.799252,0.0160545,1.17213,62.5156,1567955297
0,1,0,0,0,100,0,0,0,0,7.6,11.3206,0.000625,1.95162e-06,0.505232,0.0168819,1.53232,63.7937,1567955386
0,1,0,0,0,100,0,0,0,0,7.63,11.3127,0.000625,1.9402e-06,0.703198,0.0177677,0.714164,62.6394,1567955482
0,1,0,0,0,100,0,0,0,0,7.62,11.3133,0.000625,1.92154e-06,0.573141,0.0152634,0.395285,63.4196,1567955573
0,1,0,0,0,100,0,0,1,0,3.99,11.1278,0.000625,2.249e-06,0.299486,0.0149605,0.559017,63.121,1567955665
0,1,0,0,0,100,0,0,0,0,7.7,11.2062,0.000625,1.87076e-06,0.675923,0.016154,1.21221,63.6549,1567955741
0,1,0,0,0,100,0,0,0,0,7.69,11.2504,0.000625,1.96604e-06,1.09141,0.0143016,0.874722,57.1935,1567955829
0,1,0,0,0,100,0,0,0,0,7.65,11.2861,0.000625,1.9244e-06,0.745982,0.0161718,0.514781,50.7817,1567955913
0,1,0,0,0,100,0,0,0,0,7.69,11.2415,0.000625,1.99877e-06,0.86756,0.0160175,1.07224,63.6361,1567956000
0,1,0,0,0,100,0,0,0,0,7.63,11.3158,0.000625,1.95042e-06,0.781406,0.013558,0.753935,63.1511,1567956099
0,1,0,0,0,100,0,0,0,0,7.7,11.2354,0.000625,1.90149e-06,0.997963,0.0164382,1.2919,63.2537,1567956186
0,1,0,0,0,100,0,0,0,0,7.77,11.1686,0.000625,1.96301e-06,1.41578,0.0141435,0.292377,63.0096,1567956272
0,1,0,0,0,100,0,0,0,0,7.72,11.1782,0.000625,1.95053e-06,1.00009,0.0157208,1.54064,63.1108,1567956360
0,1,0,0,0,100,0,0,1,0,3.96,11.0943,0.000625,2.25914e-06,0.286378,0.0151029,0.950146,48.9697,1567956450
0,1,0,0,0,100,0,0,0,0,7.78,11.1475,0.000625,1.95136e-06,1.41667,0.0157045,1.37819,62.7254,1567956527
0,1,0,0,0,100,0,0,0,0,7.67,11.2668,0.000625,1.93154e-06,0.727805,0.0145314,1.07394,62.9141,1567956613
0,1,0,0,0,100,0,0,1,0,3.96,11.114,0.000625,2.20781e-06,0.278752,0.0155549,1.75883,63.065,1567956703
0,1,0,0,0,100,0,0,0,0,7.65,11.2908,0.000625,1.90566e-06,0.850234,0.016007,0.863134,62.8207,1567956781
0,1,0,0,0,100,0,0,1,0,3.95,11.1039,0.000625,2.27469e-06,0.314025,0.013691,0.592927,62.8624,1567956866
0,1,0,0,0,100,0,0,1,0,3.93,11.112,0.000625,2.16388e-06,0.264669,0.0154593,1.06066,38.9623,1567956938
0,1,0,0,0,100,0,0,0,0,7.82,11.1042,0.000625,1.92779e-06,1.73153,0.0135056,1.73368,63.211,1567957011
0,1,0,0,0,100,0,0,0,0,7.74,11.1411,0.000625,1.93963e-06,0.986274,0.0172561,1.41531,63.2676,1567957098
0,1,0,0,0,100,0,0,0,0,7.67,11.2868,0.000625,1.90448e-06,1.0621,0.0165069,1.74161,63.0026,1567957188
0,1,0,0,0,100,0,0,0,0,7.62,11.3029,0.000625,1.93853e-06,0.678311,0.0139129,0.738241,52.7534,1567957276
0,1,0,0,0,100,0,0,0,0,7.7,11.2263,0.000625,1.95076e-06,1.09069,0.013441,1.67456,62.1295,1567957366
0,1,0,0,0,100,0,0,1,0,3.92,11.1422,0.000625,2.24081e-06,0.265925,0.0142529,1.25,50.7873,1567957457
0,1,0,0,0,100,0,0,0,0,7.71,11.2332,0.000625,1.93091e-06,1.03973,0.0152693,1.61811,62.3684,1567957534
0,1,0,0,0,100,0,0,0,0,7.69,11.2442,0.000625,1.92736e-06,0.89049,0.0146543,1.29214,62.9335,1567957618
0,1,0,0,0,100,0,0,0,0,7.81,11.1163,0.000625,1.92884e-06,1.62129,0.0147401,1.21758,57.2991,1567957708
0,1,0,0,0,100,0,0,0,0,7.7,11.237,0.000625,1.93515e-06,1.28394,0.0166308,0.165677,63.417,1567957795
0,1,0,0,0,100,0,0,0,0,7.61,11.3254,0.000625,1.98628e-06,0.629342,0.0159842,1.4933,62.6608,1567957884
0,1,0,0,0,100,0,0,1,0,3.91,11.1509,0.000625,2.19501e-06,0.26673,0.0157065,3.40282e+38,47.4218,1567957971
0,1,0,0,0,100,0,0,0,0,7.66,11.2641,0.000625,1.92686e-06,1.01146,0.015196,1.69701,62.2312,1567958041
0,1,0,0,0,100,0,0,1,0,3.96,11.1029,0.000625,2.26161e-06,0.28647,0.0140092,1.25,56.8114,1567958132
0,1,0,0,0,100,0,0,0,0,7.64,11.2897,0.000625,1.94097e-06,0.729442,0.0154486,0.964947,54.5036,1567958205
0,1,0,0,0,100,0,0,0,0,7.67,11.2713,0.000625,1.94636e-06,0.922485,0.0166332,1.74142,62.2306,1567958289
0,1,0,0,0,100,0,0,0,0,7.74,11.1972,0.000625,1.93782e-06,1.33375,0.0156403,1.07384,62.4788,1567958378
0,1,0,0,0,100,0,0,0,0,7.8,11.1187,0.000625,1.94361e-06,1.47346,0.0135181,1.62908,63.2504,1567958463
0,1,0,0,0,100,0,0,0,0,7.64,11.2724,0.000625,1.97497e-06,0.398996,0.0147672,1.22897,62.1057,1567958549
0,1,0,0,0,100,0,0,1,0,3.91,11.1541,0.000625,2.24986e-06,0.252874,0.0153477,1.76777,52.6529,1567958639
0,1,0,0,0,100,0,0,0,0,7.68,11.2277,0.000625,1.93067e-06,0.943495,0.015921,0.349386,62.8248,1567958717
0,1,0,0,0,100,0,0,0,0,8.07,10.8151,0.000625,1.9491e-06,2.06968,0.0160584,0.561026,62.741,1567958805
0,1,0,0,0,100,0,0,0,0,7.65,11.2851,0.000625,1.92635e-06,0.777029,0.0159846,1.82764,63.4178,1567958898
0,2,0,0,0,100,0,0,0,0,7.78,11.1209,0.000625,1.91886e-06,1.49001,0.0148575,0.696429,62.2098,1567958987
0,2,0,0,0,100,0,0,0,0,7.69,11.2442,0.000625,1.9377e-06,0.848598,0.01454,0.576712,61.9104,1567959075
0,2,0,0,0,100,0,0,1,0,3.98,11.1386,0.000625,2.27347e-06,0.30502,0.014878,0.300463,52.6022,1567959164
0,2,0,0,0,100,0,0,0,0,7.68,11.2546,0.000625,1.93576e-06,1.07599,0.0159321,0.461939,62.138,1567959238
0,2,0,0,0,100,0,0,0,0,8.99,9.69655,0.000625,1.87723e-06,3.80915,0.0151514,1.46805,63.0828,1567959327
0,2,0,0,0,100,0,0,0,0,7.68,11.2565,0.000625,1.90448e-06,1.18778,0.0150567,0.780635,63.3717,1567959420
0,2,0,0,0,100,0,0,0,0,8.3,10.491,0.000625,1.93251e-06,2.8715,0.0160473,0.372678,62.7783,1567959506
0,2,0,0,0,100,0,0,0,0,7.8,11.1272,0.000625,1.98933e-06,1.5024,0.0133068,0.468086,63.5563,1567959595
0,2,0,0,0,100,0,0,0,0,7.66,11.2837,0.000625,1.90799e-06,0.777485,0.0160257,1.41577,62.7006,1567959682
0,2,0,0,0,100,0,0,0,0,7.65,11.2878,0.000625,1.94706e-06,0.774433,0.0141939,1.25021,62.9745,1567959779
0,2,0,0,0,100,0,0,0,0,7.7,11.2364,0.000625,1.90739e-06,0.87989,0.0152758,1.51607,63.5077,1567959872
0,2,0,0,0,100,0,0,0,0,7.65,11.2886,0.000625,1.9509e-06,0.75269,0.015803,1.52163,63.5531,1567959958
0,2,0,0,0,100,0,0,0,0,7.67,11.2287,0.000625,1.93981e-06,0.807598,0.0149247,0.903389,62.6509,1567960050
0,2,0,0,0,100,0,0,0,0,7.7,11.236,0.000625,1.93553e-06,1.03219,0.0148036,1.23235,62.8741,1567960133
0,2,0,0,0,100,0,0,0,0,7.67,11.221,0.000625,1.91968e-06,0.617515,0.0137124,0.510882,63.1531,1567960220
0,2,0,0,0,100,0,0,0,0,7.65,11.2852,0.000625,1.98499e-06,0.983157,0.013605,0.561827,62.9912,1567960306
0,2,0,0,0,100,0,0,0,0,7.93,10.974,0.000625,1.94377e-06,2.2025,0.0159023,0.846062,63.5985,1567960393
0,2,0,0,0,100,0,0,0,0,7.68,11.2343,0.000625,1.91027e-06,1.10071,0.0138178,1.36224,62.4888,1567960482
0,2,0,0,0,100,0,0,0,0,7.76,11.1816,0.000625,1.948e-06,1.64874,0.014769,1.37295,63.0086,1567960577
0,2,0,0,0,100,0,0,0,0,7.68,11.2527,0.000625,1.95294e-06,1.036,0.0161253,0.487322,63.4155,1567960663
0,2,0,0,0,100,0,0,0,0,7.76,11.1661,0.000625,1.8972e-06,1.36568,0.0143679,0.991772,63.237,1567960754
0,2,0,0,0,100,0,0,0,0,7.74,11.2128,0.000625,1.91357e-06,1.35924,0.0158447,1.28682,62.6259,1567960842
0,2,0,0,0,100,0,0,0,0,7.72,11.2242,0.000625,1.8983e-06,1.28052,0.0166879,1.20282,62.9794,1567960927
0,2,0,0,0,100,0,0,0,0,7.7,11.191,0.000625,1.92029e-06,1.04353,0.0167323,1.93583,63.2063,1567961012
0,2,0,0,0,100,0,0,0,0,7.75,11.1815,0.000625,1.97077e-06,1.29092,0.0141177,0.167673,62.8846,1567961108
0,2,0,0,0,100,0,0,0,0,7.7,11.2461,0.000625,1.94634e-06,1.36331,0.0147123,1.32349,63.6576,1567961195
0,2,0,0,0,100,0,0,0,0,7.71,11.1584,0.000625,1.98648e-06,0.89753,0.0150988,1.02329,63.3813,1567961276
0,2,0,0,0,100,0,0,0,0,7.67,11.2447,0.000625,1.91167e-06,0.58849,0.0148157,1.79985,63.1463,1567961369
0,2,0,0,0,100,0,0,0,0,7.86,11.0457,0.000625,1.96506e-06,1.73293,0.0143695,0.515367,63.053,1567961460
0,2,0,0,0,100,0,0,1,0,3.93,11.0909,0.000625,2.25044e-06,0.211171,0.0152591,1.78341,41.3182,1567961547
0,2,0,0,0,100,0,0,0,0,7.74,11.202,0.000625,1.91115e-06,1.30486,0.0164899,1.37639,62.988,1567961621
0,2,0,0,0,100,0,0,0,0,7.67,11.24,0.000625,1.94283e-06,0.99664,0.0164203,0.27993,62.6874,1567961710
0,2,0,0,0,100,0,0,0,0,7.73,11.2025,0.000625,1.98851e-06,1.27504,0.0159204,1.15279,63.3252,1567961797
0,2,0,0,0,100,0,0,0,0,7.78,11.1478,0.000625,1.94997e-06,1.44717,0.014269,0.32286,62.8914,1567961883
0,2,0,0,0,100,0,0,0,0,7.68,11.237,0.000625,1.95435e-06,0.723552,0.0142401,0.51728,62.8952,1567961972
0,2,0,0,0,100,0,0,0,0,7.66,11.268,0.000625,1.88159e-06,0.848689,0.0154852,1.35281,63.2719,1567962056
0,2,0,0,0,100,0,0,0,0,7.8,11.1279,0.000625,1.91625e-06,1.59685,0.0162534,1.84074,63.4141,1567962141
0,2,0,0,0,100,0,0,0,0,7.71,11.2507,0.000625,1.90041e-06,1.2261,0.014243,0.237884,61.7113,1567962235
0,2,0,0,0,100,0,0,0,0,8.19,10.6342,0.000625,1.93728e-06,2.85426,0.0160893,0.459804,63.5624,1567962318
0,2,0,0,0,100,0,0,0,0,7.75,11.2025,0.000625,2.00322e-06,1.26051,0.0159266,0.735999,63.4729,1567962410
0,2,0,0,0,100,0,0,0,0,7.89,11.011,0.000625,1.96188e-06,1.88407,0.01524,1.325,62.7745,1567962503
0,2,0,0,0,100,0,0,0,0,7.81,11.1009,0.000625,1.92737e-06,1.33101,0.0133802,1.13845,63.0894,1567962588
0,2,0,0,0,100,0,0,0,0,7.75,11.1834,0.000625,1.97842e-06,1.43499,0.0155162,1.15804,63.4416,1567962681
0,2,0,0,0,100,0,0,0,0,7.7,11.1893,0.000625,1.97161e-06,0.67642,0.0156988,1.70316,62.7541,1567962771
0,2,0,0,0,100,0,0,0,0,7.66,11.2903,0.000625,1.92798e-06,1.60008,0.0148435,1.23794,63.5545,1567962856
0,2,0,0,0,100,0,0,0,0,7.75,11.1719,0.000625,1.90535e-06,1.19901,0.0156455,1.74267,62.693,1567962948
0,2,0,0,0,100,0,0,0,0,7.66,11.2709,0.000625,1.95243e-06,0.913116,0.0156783,1.52192,62.7578,1567963039
0,2,0,0,0,100,0,0,0,0,7.76,11.1689,0.000625,1.92734e-06,1.30969,0.0149663,1.07412,62.6263,1567963126
0,2,0,0,0,100,0,0,0,0,7.63,11.325,0.000625,1.95616e-06,0.745767,0.0152187,1.47552,62.7294,1567963214
0,2,0,0,0,100,0,0,0,0,7.75,11.1939,0.000625,1.96244e-06,1.52028,0.0126462,1.03852,62.7144,1567963304
0,2,0,0,0,100,0,0,0,0,7.7,11.2422,0.000625,1.99096e-06,1.13072,0.0160191,1.64518,62.7618,1567963390
0,2,0,0,0,100,0,0,0,0,7.67,11.2272,0.000625,1.95013e-06,0.765874,0.014557,0.908238,63.1724,1567963480
0,2,0,0,0,100,0,0,0,0,7.69,11.2515,0.000625,1.93908e-06,1.08238,0.0158207,0.992332,63.3073,1567963574
0,2,0,0,0,100,0,0,0,0,7.7,11.2316,0.000625,1.96963e-06,1.13721,0.0166313,1.04765,61.8859,1567963661
0,2,0,0,0,100,0,0,0,0,7.79,11.1402,0.000625,1.99569e-06,1.40248,0.0163574,1.07628,63.1456,1567963749
0,2,0,0,0,100,0,0,0,0,7.79,11.1265,0.000625,1.95008e-06,1.45137,0.015062,1.04732,62.6194,1567963841
0,2,0,0,0,100,0,0,0,0,7.67,11.2531,0.000625,1.99079e-06,0.8927,0.0155549,1.36015,62.731,1567963930
0,2,0,0,0,100,0,0,0,0,7.69,11.2396,0.000625,1.92182e-06,0.887005,0.015932,0.833796,52.7363,1567964014
0,2,0,0,0,100,0,0,0,0,7.71,11.2272,0.000625,1.96976e-06,1.25347,0.015331,1.55603,62.9363,1567964105
0,2,0,0,0,100,0,0,0,0,7.66,11.2717,0.000625,1.91233e-06,1.04416,0.0143762,1.65076,52.9721,1567964201
0,2,0,0,0,100,0,0,0,0,7.7,11.2395,0.000625,1.97304e-06,1.05206,0.01517,0.843089,63.5081,1567964295
0,2,0,0,0,100,0,0,0,0,7.74,11.1592,0.000625,1.97272e-06,1.10599,0.0153862,1.5485,62.6594,1567964384
0,2,0,0,0,100,0,0,0,0,7.81,11.1123,0.000625,1.9191e-06,1.53526,0.0156362,1.05688,62.8576,1567964472
0,2,0,0,0,100,0,0,0,0,7.65,11.2728,0.000625,1.89426e-06,0.640535,0.0157354,0.827147,62.306,1567964560
0,2,0,0,0,100,0,0,0,0,7.66,11.2777,0.000625,1.87528e-06,0.974865,0.015873,0.583095,52.8271,1567964650
0,2,0,0,0,100,0,0,0,0,7.7,11.2467,0.000625,1.92826e-06,1.09047,0.0144774,1.67319,63.3053,1567964733
0,2,0,0,0,100,0,0,0,0,7.7,11.229,0.000625,1.96526e-06,1.20878,0.0143948,0.732642,63.1528,1567964820
0,2,0,0,0,100,0,0,0,0,7.65,11.2969,0.000625,1.89973e-06,0.807257,0.0151568,0.792086,62.3797,1567964904
0,2,0,0,0,100,0,0,0,0,7.9,11.0121,0.000625,1.89246e-06,1.77731,0.0151398,0.495158,63.291,1567965001
0,2,0,0,0,100,0,0,0,0,7.63,11.2847,0.000625,1.95918e-06,0.461046,0.0154189,0.500771,62.952,1567965089
0,2,0,0,0,100,0,0,0,0,7.69,11.2534,0.000625,1.8933e-06,1.14023,0.0178531,0.927038,63.4675,1567965185
0,2,0,0,0,100,0,0,0,0,7.7,11.1721,0.000625,1.97968e-06,0.491056,0.0131634,0.617567,62.2781,1567965281
0,2,0,0,0,100,0,0,1,0,4.01,11.0282,0.000625,2.22737e-06,0.270149,0.0157723,0.943627,61.2157,1567965366
0,2,0,0,0,100,0,0,0,0,7.81,11.0336,0.000625,1.93089e-06,1.06285,0.0158529,0.781628,62.6495,1567965438
0,2,0,0,0,100,0,0,0,0,7.82,11.1003,0.000625,1.92206e-06,1.57846,0.0146041,1.36877,62.5723,1567965528
0,2,0,0,0,100,0,0,0,0,7.82,11.0995,0.000625,1.88662e-06,1.50971,0.0149684,0.738519,62.6851,1567965618
0,2,0,0,0,100,0,0,0,0,7.73,11.1849,0.000625,1.89993e-06,1.28191,0.0131223,0.889623,62.4124,1567965704
0,2,0,0,0,100,0,0,0,0,7.76,11.139,0.000625,1.97155e-06,1.09059,0.0147255,1.28351,63.4177,1567965800
0,2,0,0,0,100,0,0,0,0,7.67,11.2338,0.000625,1.92296e-06,0.681459,0.0168946,1.11418,63.5376,1567965886
0,2,0,0,0,100,0,0,1,0,3.96,11.0829,0.000625,2.21891e-06,0.262915,0.0144271,1.73428,62.8224,1567965975
0,2,0,0,0,100,0,0,0,0,7.81,11.1137,0.000625,1.93414e-06,1.69324,0.0150938,1.80629,62.8096,1567966048
0,2,0,0,0,100,0,0,0,0,7.65,11.2888,0.000625,1.96912e-06,0.869159,0.0145044,1.49485,63.2414,1567966138
0,2,0,0,0,100,0,0,0,0,7.74,11.199,0.000625,1.92541e-06,1.34017,0.0150597,1.06534,63.6438,1567966228
0,2,0,0,0,100,0,0,0,0,7.72,11.2088,0.000625,1.93135e-06,1.19015,0.0147327,0.871872,63.7292,1567966318
0,2,0,0,0,100,0,0,0,0,7.76,11.169,0.000625,1.89208e-06,1.33256,0.0135464,1.05119,62.9796,1567966411
0,2,0,0,0,100,0,0,0,0,7.73,11.1902,0.000625,1.98671e-06,1.15301,0.0156136,1.31436,62.8933,1567966495
0,2,0,0,0,100,0,0,0,0,7.67,11.2371,0.000625,1.93254e-06,0.831277,0.0159914,1.58073,61.6562,1567966591
0,2,0,0,0,100,0,0,0,0,7.78,11.156,0.000625,1.93665e-06,1.26879,0.0143284,1.13753,63.558,1567966676
0,2,0,0,0,100,0,0,0,0,7.76,11.1963,0.000625,1.91348e-06,1.36479,0.0143708,0.872778,63.1541,1567966764
0,2,0,0,0,100,0,0,0,0,7.7,11.243,0.000625,1.94073e-06,1.16194,0.0157919,0.762296,62.5381,1567966848
0,2,0,0,0,100,0,0,0,0,7.68,11.2625,0.000625,1.93418e-06,1.06257,0.0172808,0.440328,63.0694,1567966938
0,2,0,0,0,100,0,0,0,0,7.71,11.1964,0.000625,1.88671e-06,1.23317,0.0178564,1.32521,62.7664,1567967028
0,2,0,0,0,100,0,0,0,0,7.7,11.2375,0.000625,1.90833e-06,1.2046,0.0148534,1.08048,63.4698,1567967122
0,2,0,0,0,100,0,0,0,0,7.7,11.23,0.000625,1.92335e-06,1.1449,0.0141669,0.947944,63.2804,1567967214
0,2,0,0,0,100,0,0,0,0,7.66,11.2876,0.000625,1.97327e-06,0.915349,0.0150459,0.666667,63.2693,1567967300
0,2,0,0,0,100,0,0,0,0,7.65,11.2796,0.000625,1.92166e-06,0.784626,0.0151105,1.81169,63.1136,1567967391
0,2,0,0,0,100,0,0,0,0,7.79,11.1578,0.000625,1.93937e-06,1.3528,0.0155809,0.946597,62.666,1567967486
0,2,0,0,0,100,0,0,0,0,7.64,11.2885,0.000625,1.9149e-06,0.604053,0.0140575,0.687184,59.3752,1567967572
0,2,0,0,0,100,0,0,0,0,7.73,11.2036,0.000625,1.93945e-06,1.32579,0.0139397,0.960973,61.6027,1567967663
0,2,0,0,0,100,0,0,0,0,7.7,11.239,0.000625,2.0155e-06,1.21317,0.0155498,0.943716,62.8162,1567967752
0,3,0,0,0,100,0,0,0,0,7.77,11.1453,0.000625,1.93486e-06,1.35433,0.0157844,0.519087,62.759,1567967840
0,3,0,0,0,100,0,0,0,0,7.71,11.1986,0.000625,1.95436e-06,1.10159,0.0147564,1.37671,62.8863,1567967933
0,3,0,0,0,100,0,0,0,0,7.67,11.276,0.000625,1.96892e-06,0.892441,0.0161519,0.750067,63.3909,1567968026
0,3,0,0,0,100,0,0,0,0,7.67,11.2646,0.000625,1.95256e-06,0.930653,0.0136638,1.03435,62.6116,1567968114
0,3,0,0,0,100,0,0,0,0,7.77,11.1507,0.000625,1.93719e-06,1.35781,0.0152063,0.932687,63.4773,1567968208
0,3,0,0,0,100,0,0,0,0,7.83,11.0999,0.000625,1.91926e-06,1.68228,0.0155938,1.5298,62.8277,1567968294
0,3,0,0,0,100,0,0,0,0,7.76,11.177,0.000625,1.91814e-06,1.21782,0.0147415,1.55369,62.9594,1567968387
0,3,0,0,0,100,0,0,0,0,7.94,10.9574,0.000625,1.86272e-06,1.81673,0.0157106,0.937586,63.1099,1567968484
0,3,0,0,0,100,0,0,0,0,7.7,11.2277,0.000625,1.9117e-06,1.02181,0.0150098,0.523079,63.0582,1567968571
0,3,0,0,0,100,0,0,0,0,7.79,11.1384,0.000625,1.97282e-06,1.51548,0.015504,1.09772,62.9953,1567968656
0,3,0,0,0,100,0,0,0,0,7.73,11.2094,0.000625,1.97683e-06,1.28989,0.0160229,1.49164,62.3612,1567968743
0,3,0,0,0,100,0,0,0,0,7.66,11.24,0.000625,1.97114e-06,0.689115,0.0144765,0.874322,63.1726,1567968827
0,3,0,0,0,100,0,0,1,0,4,11.0704,0.000625,2.26562e-06,0.346688,0.0150992,1.70877,62.5731,1567968922
0,3,0,0,0,100,0,0,0,0,7.67,11.2906,0.000625,1.93234e-06,1.09907,0.013841,0.831038,54.4095,1567969003
0,3,0,0,0,100,0,0,0,0,7.72,11.2099,0.000625,1.93638e-06,1.27613,0.0138556,1.68729,63.192,1567969089
0,3,0,0,0,100,0,0,0,0,7.73,11.2104,0.000625,1.9831e-06,1.33985,0.014,0.725969,62.7834,1567969173
0,3,0,0,0,100,0,0,0,0,7.65,11.2454,0.000625,1.92035e-06,0.928315,0.0152206,0.91985,61.0746,1567969258
0,3,0,0,0,100,0,0,0,0,7.67,11.2681,0.000625,1.9476e-06,0.756073,0.0151769,1.25477,63.0689,1567969353
0,3,0,0,0,100,0,0,0,0,7.75,11.1418,0.000625,1.90858e-06,1.03841,0.0109815,1.63206,62.4739,1567969444
0,3,0,0,0,100,0,0,0,0,7.67,11.2599,0.000625,1.93652e-06,0.813128,0.0164525,0.528389,62.9408,1567969539
0,3,0,0,0,100,0,0,0,0,7.8,11.1257,0.000625,1.92958e-06,1.58134,0.0169085,0.816969,63.1304,1567969634
0,3,0,0,0,100,0,0,0,0,7.82,11.0966,0.000625,1.95596e-06,1.60353,0.0150918,0.923465,62.9693,1567969725
0,3,0,0,0,100,0,0,0,0,7.72,11.226,0.000625,1.96826e-06,1.37103,0.0156609,0.737899,62.8248,1567969809
0,3,0,0,0,100,0,0,0,0,7.7,11.2447,0.000625,1.93862e-06,1.367,0.0156444,1.29545,62.7188,1567969893
0,3,0,0,0,100,0,0,0,0,7.66,11.2833,0.000625,1.93859e-06,0.813528,0.0163982,1.77992,63.0646,1567969989
0,3,0,0,0,100,0,0,0,0,7.66,11.2314,0.000625,1.92518e-06,0.731119,0.0155697,1.59217,62.8611,1567970079
0,3,0,0,0,100,0,0,0,0,7.74,11.1999,0.000625,1.96361e-06,1.35883,0.0167659,0.823735,63.0226,1567970177
0,3,0,0,0,100,0,0,0,0,7.69,11.2409,0.000625,1.93104e-06,1.11809,0.014843,0.622652,63.1427,1567970269
0,3,0,0,0,100,0,0,0,0,7.78,11.1516,0.000625,1.91782e-06,1.56612,0.0146805,0.796369,63.7427,1567970353
0,3,0,0,0,100,0,0,0,0,7.66,11.2797,0.000625,1.96226e-06,0.891805,0.0165031,1.01991,63.5438,1567970442
0,3,0,0,0,100,0,0,0,0,7.67,11.2638,0.000625,1.93413e-06,0.7582,0.0145062,1.30053,62.6531,1567970528
0,3,0,0,0,100,0,0,0,0,7.7,11.2474,0.000625,1.95234e-06,1.26311,0.0146677,0.167964,62.7545,1567970615
0,3,0,0,0,100,0,0,0,0,7.73,11.221,0.000625,1.96642e-06,1.37145,0.0155152,1.07766,63.0835,1567970707
0,3,0,0,0,100,0,0,0,0,7.72,11.2036,0.000625,1.96169e-06,1.19904,0.0136138,1.39892,62.8381,1567970795
0,3,0,0,0,100,0,0,0,0,7.74,11.193,0.000625,1.87687e-06,1.16449,0.0159853,1.27175,62.7062,1567970883
0,3,0,0,0,100,0,0,0,0,7.79,11.1296,0.000625,1.91584e-06,1.5636,0.0150392,1.20158,62.5846,1567970970
0,3,0,0,0,100,0,0,0,0,7.75,11.1842,0.000625,1.92324e-06,1.32825,0.0168118,1.5026,63.2946,1567971058
0,3,0,0,0,100,0,0,0,0,7.7,11.1937,0.000625,1.93566e-06,0.76462,0.0158614,1.04765,63.6352,1567971145
0,3,0,0,0,100,0,0,0,0,7.74,11.1447,0.000625,1.94529e-06,1.26397,0.0150646,1.26711,63.1815,1567971238
0,3,0,0,0,100,0,0,0,0,7.79,11.1187,0.000625,1.96014e-06,1.31525,0.0165019,1.56083,62.9072,1567971326
0,3,0,0,0,100,0,0,0,0,7.72,11.2205,0.000625,1.94202e-06,1.17052,0.015807,0.959645,62.998,1567971412
0,3,0,0,0,100,0,0,0,0,7.69,11.2391,0.000625,1.92098e-06,0.976319,0.0133177,1.13638,63.3659,1567971502
0,3,0,0,0,100,0,0,0,0,7.79,11.1496,0.000625,1.93607e-06,1.59336,0.0141107,0.278811,63.029,1567971591
0,3,0,0,0,100,0,0,0,0,7.81,11.1195,0.000625,1.97091e-06,1.52588,0.0140609,0.945028,63.3335,1567971681
0,3,0,0,0,100,0,0,0,0,7.71,11.2239,0.000625,1.94897e-06,1.36532,0.012621,1.43778,62.9788,1567971767
0,3,0,0,0,100,0,0,0,0,7.73,11.2278,0.000625,1.90487e-06,1.22879,0.0159023,0.991099,62.4889,1567971856
0,3,0,0,0,100,0,0,0,0,7.79,11.1437,0.000625,1.908e-06,1.61969,0.013734,1.33622,62.8235,1567971943
0,3,0,0,0,100,0,0,0,0,7.73,11.2081,0.000625,1.94482e-06,1.2771,0.0146473,0.785296,62.8843,1567972027
0,3,0,0,0,100,0,0,0,0,7.84,11.0738,0.000625,1.95209e-06,1.71182,0.0155909,0.358924,63.2692,1567972119
0,3,0,0,0,100,0,0,0,0,7.68,11.2595,0.000625,1.98272e-06,1.0525,0.0148362,1.03078,63.1822,1567972201
0,3,0,0,0,100,0,0,0,0,7.7,11.1816,0.000625,1.90118e-06,0.584129,0.015484,1.27687,63.3752,1567972291
0,3,0,0,0,100,0,0,0,0,7.7,11.2347,0.000625,1.97455e-06,1.04229,0.0172781,1.23884,62.986,1567972378
0,3,0,0,0,100,0,0,0,0,7.69,11.2097,0.000625,1.93365e-06,0.717982,0.0147065,1.41435,62.9954,1567972467
0,3,0,0,0,100,0,0,0,0,7.72,11.2045,0.000625,1.98895e-06,1.3342,0.0145959,0.50309,62.9632,1567972551
0,3,0,0,0,100,0,0,0,0,7.69,11.2502,0.000625,1.95696e-06,1.03176,0.0156251,0.827147,62.7681,1567972644
0,3,0,0,0,100,0,0,0,0,7.68,11.2648,0.000625,1.99571e-06,0.895616,0.0159786,0.895366,63.2668,1567972730
0,3,0,0,0,100,0,0,0,0,7.75,11.1488,0.000625,1.87224e-06,1.11549,0.0156482,0.639807,63.4116,1567972819
0,3,0,0,0,100,0,0,0,0,7.68,11.202,0.000625,1.92498e-06,0.568188,0.016613,1.20806,62.265,1567972910
0,3,0,0,0,100,0,0,0,0,7.71,11.2261,0.000625,1.97707e-06,1.24473,0.0167513,1.00682,62.5674,1567973004
0,3,0,0,0,100,0,0,0,0,7.75,11.1851,0.000625,1.93021e-06,1.30332,0.0141998,1.24479,62.3366,1567973088
0,3,0,0,0,100,0,0,0,0,7.64,11.2891,0.000625,1.91323e-06,0.724131,0.0142339,1.63828,63.2931,1567973174
0,3,0,0,0,100,0,0,0,0,8.19,10.6396,0.000625,1.93161e-06,2.56418,0.0146556,0.282873,63.28,1567973269
0,3,0,0,0,100,0,0,0,0,7.84,11.0758,0.000625,1.89184e-06,1.48327,0.0164116,0.991102,63.4525,1567973361
0,3,0,0,0,100,0,0,0,0,7.7,11.2487,0.000625,1.98461e-06,1.27478,0.0162645,0.944072,63.085,1567973452
0,3,0,0,0,100,0,0,0,0,7.64,11.3011,0.000625,1.97996e-06,0.757341,0.016834,0.976672,62.689,1567973542
0,3,0,0,0,100,0,0,0,0,7.78,11.1469,0.000625,1.94123e-06,1.49536,0.0139101,1.35761,62.9583,1567973631
0,3,0,0,0,100,0,0,0,0,7.67,11.2737,0.000625,1.91522e-06,1.021,0.0147609,1.56864,63.5033,1567973717
0,3,0,0,0,100,0,0,0,0,7.71,11.2404,0.000625,1.93342e-06,1.07926,0.0161393,1.41306,63.7621,1567973803
0,3,0,0,0,100,0,0,0,0,7.73,11.165,0.000625,1.93194e-06,1.0504,0.016955,0.716567,62.6252,1567973896
0,3,0,0,0,100,0,0,0,0,7.79,11.1401,0.000625,1.91614e-06,1.46595,0.015387,1.09557,63.6114,1567973982
0,3,0,0,0,100,0,0,0,0,7.67,11.2243,0.000625,1.97759e-06,0.817882,0.0148129,0.52381,63.1499,1567974071
0,3,0,0,0,100,0,0,0,0,7.66,11.2373,0.000625,1.95701e-06,0.490635,0.014926,0.950077,63.1039,1567974162
0,3,0,0,0,100,0,0,0,0,7.78,11.1485,0.000625,1.95861e-06,1.45789,0.0149386,0.784927,62.9917,1567974255
0,3,0,0,0,100,0,0,0,0,7.74,11.1686,0.000625,1.95822e-06,1.27391,0.0147213,1.55993,62.3898,1567974340
0,3,0,0,0,100,0,0,0,0,7.7,11.2287,0.000625,1.92518e-06,1.19172,0.0132337,0.478539,63.1732,1567974424
0,3,0,0,0,100,0,0,0,0,7.73,11.2203,0.000625,1.86261e-06,1.40824,0.0139542,0.742038,63.1812,1567974512
0,3,0,0,0,100,0,0,0,0,8,10.8198,0.000625,1.91934e-06,0.916847,0.0158691,0.41469,63.0488,1567974598
0,3,0,0,0,100,0,0,0,0,7.66,11.274,0.000625,1.95242e-06,0.745501,0.0154864,1.52097,62.6158,1567974684
0,3,0,0,0,100,0,0,0,0,7.72,11.2085,0.000625,1.94619e-06,1.22999,0.0159783,1.19375,63.1756,1567974778
0,3,0,0,0,100,0,0,0,0,7.72,11.2105,0.000625,1.93437e-06,1.0723,0.0171946,0.88092,63.156,1567974861
0,3,0,0,0,100,0,0,0,0,7.74,11.1774,0.000625,1.94447e-06,1.2452,0.0149926,1.19189,62.865,1567974957
0,3,0,0,0,100,0,0,0,0,7.74,11.1957,0.000625,1.92898e-06,1.36038,0.0137109,0.972829,63.4639,1567975043
0,3,0,0,0,100,0,0,0,0,7.75,11.1436,0.000625,1.94849e-06,1.17164,0.0142516,0.902448,63.8196,1567975129
0,3,0,0,0,100,0,0,0,0,7.65,11.2964,0.000625,1.88457e-06,0.897534,0.0149148,1.22798,63.1243,1567975217
0,3,0,0,0,100,0,0,0,0,7.8,11.1249,0.000625,1.91049e-06,1.68118,0.0153217,0.941077,62.9059,1567975319
0,3,0,0,0,100,0,0,0,0,7.67,11.2694,0.000625,1.95075e-06,0.909696,0.0158412,1.76936,63.0432,1567975405
0,3,0,0,0,100,0,0,0,0,7.75,11.1496,0.000625,1.93749e-06,1.01163,0.0144414,1.27883,62.546,1567975507
0,3,0,0,0,100,0,0,0,0,7.74,11.1895,0.000625,1.93699e-06,1.19203,0.0141717,1.20429,62.5699,1567975597
0,3,0,0,0,100,0,0,0,0,7.78,11.1457,0.000625,1.95435e-06,1.39248,0.0148205,1.12071,61.9698,1567975687
0,3,0,0,0,100,0,0,0,0,7.76,11.1696,0.000625,1.99486e-06,1.23787,0.0155743,1.31903,63.6649,1567975776
0,3,0,0,0,100,0,0,0,0,7.63,11.3203,0.000625,1.88401e-06,0.821494,0.0147848,0.894621,62.9765,1567975871
0,3,0,0,0,100,0,0,0,0,7.73,11.1933,0.000625,1.94369e-06,1.07947,0.0153401,0.83006,62.5372,1567975957
0,3,0,0,0,100,0,0,0,0,7.73,11.2058,0.000625,1.9838e-06,1.2447,0.0145314,1.065,62.5862,1567976048
0,3,0,0,0,100,0,0,0,0,7.68,11.2552,0.000625,1.94038e-06,0.989256,0.0165722,0.882547,62.7897,1567976133
0,3,0,0,0,100,0,0,0,0,7.75,11.187,0.000625,1.96096e-06,1.41398,0.0141065,1.58446,62.9731,1567976223
0,3,0,0,0,100,0,0,0,0,7.67,11.2377,0.000625,1.92685e-06,0.91807,0.0153641,1.35735,62.0672,1567976307
0,3,0,0,0,100,0,0,0,0,7.74,11.1931,0.000625,1.90639e-06,1.10312,0.0133239,0.87781,62.7114,1567976396
0,3,0,0,0,100,0,0,0,0,7.73,11.2049,0.000625,1.92978e-06,1.39667,0.0164977,0.582264,63.0845,1567976492
0,3,0,0,0,100,0,0,0,0,7.72,11.1961,0.000625,1.96671e-06,1.0205,0.0154822,1.0503,62.973,1567976576
0,3,0,0,0,100,0,0,0,0,7.64,11.2933,0.000625,1.91711e-06,0.720391,0.0157448,1.35093,48.5859,1567976666
0,4,0,0,0,100,0,0,0,0,7.73,11.2078,0.000625,1.90593e-06,1.25136,0.0165362,0.959571,62.5512,1567976761
0,4,0,0,0,100,0,0,0,0,7.74,11.1584,0.000625,1.96528e-06,1.12706,0.0161958,0.423205,63.104,1567976846
0,4,0,0,0,100,0,0,0,0,7.84,11.0679,0.000625,1.92957e-06,1.57683,0.0160762,1.57623,63.1177,1567976932
0,4,0,0,0,100,0,0,0,0,7.71,11.237,0.000625,1.95317e-06,1.13601,0.0141244,0.781113,63.0579,1567977018
0,4,0,0,0,100,0,0,0,0,7.77,11.1721,0.000625,1.92593e-06,1.38914,0.0149481,0.871341,62.9514,1567977106
0,4,0,0,0,100,0,0,0,0,7.82,11.0947,0.000625,1.90777e-06,1.56369,0.0143413,0.810072,62.8672,1567977200
0,4,0,0,0,100,0,0,0,0,7.9,11.0183,0.000625,1.98684e-06,1.77364,0.0157079,0.428679,62.3907,1567977286
0,4,0,0,0,100,0,0,0,0,7.72,11.2077,0.000625,1.90938e-06,1.3781,0.0159264,1.04684,63.2224,1567977369
0,4,0,0,0,100,0,0,0,0,7.76,11.1658,0.000625,1.89476e-06,1.29773,0.0131987,1.45686,63.2246,1567977457
0,4,0,0,0,100,0,0,1,0,3.97,11.1614,0.000625,2.27108e-06,0.293082,0.0156332,1.04712,63.3784,1567977545
0,4,0,0,0,100,0,0,0,0,7.66,11.2737,0.000625,1.91473e-06,1.00561,0.0154467,0.188231,62.7616,1567977620
0,4,0,0,0,100,0,0,0,0,7.71,11.2369,0.000625,1.95315e-06,1.18103,0.0146294,0.295455,62.9363,1567977712
0,4,0,0,0,100,0,0,0,0,7.66,11.2714,0.000625,1.93413e-06,0.834613,0.0147575,1.62779,63.5248,1567977808
0,4,0,0,0,100,0,0,0,0,7.71,11.2382,0.000625,1.98971e-06,1.19314,0.0161616,0.577831,63.2102,1567977897
0,4,0,0,0,100,0,0,0,0,7.9,10.9979,0.000625,1.93079e-06,1.70661,0.0145065,0.403897,63.5868,1567977989
0,4,0,0,0,100,0,0,0,0,7.75,11.1847,0.000625,1.89096e-06,1.3689,0.0145679,1.65206,63.1005,1567978081
0,4,0,0,0,100,0,0,0,0,7.81,11.1175,0.000625,1.91039e-06,1.55431,0.0149551,0.931467,63.2326,1567978171
0,4,0,0,0,100,0,0,0,0,7.63,11.3187,0.000625,1.94296e-06,0.898693,0.0155725,0.126505,62.8676,1567978258
0,4,0,0,0,100,0,0,0,0,7.77,11.1471,0.000625,1.94907e-06,1.35468,0.0161913,1.4072,63.2866,1567978344
0,4,0,0,0,100,0,0,0,0,7.66,11.2737,0.000625,1.94751e-06,0.766341,0.0153774,1.275,62.6014,1567978429
0,4,0,0,0,100,0,0,0,0,7.98,10.9137,0.000625,1.91856e-06,2.20571,0.0154922,1.53099,62.5324,1567978523
0,4,0,0,0,100,0,0,0,0,7.63,11.3155,0.000625,1.91998e-06,0.847435,0.0143369,1.63724,63.0022,1567978611
0,4,0,0,0,100,0,0,0,0,7.66,11.2754,0.000625,1.93563e-06,0.825826,0.0154628,1.3893,62.958,1567978706
0,4,0,0,0,100,0,0,0,0,7.7,11.2326,0.000625,1.92587e-06,1.14531,0.014288,0.921444,62.6636,1567978796
0,4,0,0,0,100,0,0,0,0,7.72,11.1533,0.000625,1.94736e-06,0.908657,0.0140342,1.6669,62.7605,1567978886
0,4,0,0,0,100,0,0,0,0,7.74,11.1903,0.000625,1.95621e-06,1.27534,0.0138746,0.879206,62.943,1567978976
0,4,0,0,0,100,0,0,0,0,7.64,11.2972,0.000625,1.91083e-06,0.940082,0.0140573,0.600276,62.8606,1567979060
0,4,0,0,0,100,0,0,0,0,7.77,11.1681,0.000625,1.99167e-06,1.47336,0.0152256,1.17911,63.463,1567979144
0,4,0,0,0,100,0,0,0,0,7.66,11.286,0.000625,1.93675e-06,1.10219,0.0151277,0.543267,62.9214,1567979228
0,4,0,0,0,100,0,0,0,0,7.67,11.2643,0.000625,1.9939e-06,1.06262,0.0148616,0.716567,63.1585,1567979318
0,4,0,0,0,100,0,0,0,0,7.87,11.0386,0.000625,1.91384e-06,1.62767,0.0148366,1.02488,62.8088,1567979414
0,4,0,0,0,100,0,0,0,0,7.77,11.1695,0.000625,1.91016e-06,1.54691,0.0169351,0.421983,62.78,1567979500
0,4,0,0,0,100,0,0,0,0,7.7,11.2409,0.000625,1.94662e-06,1.06912,0.0149769,0.521539,62.7576,1567979586
0,4,0,0,0,100,0,0,0,0,7.75,11.1894,0.000625,1.89511e-06,1.31275,0.0151525,0.422011,62.9374,1567979677
0,4,0,0,0,100,0,0,0,0,7.75,11.1805,0.000625,1.97633e-06,1.43864,0.0161668,1.51162,63.1896,1567979763
0,4,0,0,0,100,0,0,0,0,7.87,11.0411,0.000625,1.96955e-06,2.05183,0.0149411,1.4167,62.122,1567979849
0,4,0,0,0,100,0,0,0,0,7.7,11.2326,0.000625,2.00358e-06,1.05788,0.0161012,0.711602,62.4335,1567979936
0,4,0,0,0,100,0,0,0,0,7.7,11.2334,0.000625,1.99168e-06,1.15188,0.0157721,1.20221,62.3365,1567980028
0,4,0,0,0,100,0,0,0,0,7.68,11.2482,0.000625,1.93592e-06,0.967641,0.0156365,0.288533,63.3387,1567980122
0,4,0,0,0,100,0,0,0,0,7.65,11.2866,0.000625,1.90041e-06,0.781693,0.0148794,0.674966,62.7885,1567980216
0,4,0,0,0,100,0,0,0,0,7.69,11.2271,0.000625,1.93344e-06,0.904247,0.0132391,1.90394,63.5196,1567980302
0,4,0,0,0,100,0,0,0,0,7.68,11.2724,0.000625,1.93633e-06,1.08912,0.0156767,1.03578,63.0999,1567980387
0,4,0,0,0,100,0,0,0,0,7.62,11.3114,0.000625,1.94278e-06,0.904502,0.0157693,0.977273,62.8393,1567980474
0,4,0,0,0,100,0,0,0,0,7.72,11.2188,0.000625,1.90461e-06,1.11925,0.0148676,0.91443,62.7695,1567980569
0,4,0,0,0,100,0,0,0,0,7.68,11.2575,0.000625,1.99983e-06,0.862055,0.0147634,1.44462,62.8702,1567980660
0,4,0,0,0,100,0,0,0,0,7.66,11.2877,0.000625,1.89323e-06,1.34216,0.0146147,0.475073,62.0594,1567980748
0,4,0,0,0,100,0,0,0,0,7.65,11.2737,0.000625,1.91896e-06,0.780172,0.0133128,1.07042,63.1703,1567980847
0,4,0,0,0,100,0,0,1,0,3.98,11.0301,0.000625,2.2705e-06,0.336918,0.0159514,1.09553,63.1262,1567980932
0,4,0,0,0,100,0,0,0,0,7.69,11.252,0.000625,1.9057e-06,1.12231,0.0160316,1.35196,63.0108,1567981013
0,4,0,0,0,100,0,0,0,0,7.81,11.1154,0.000625,1.89192e-06,1.72571,0.0169927,0.697099,62.8864,1567981104
0,4,0,0,0,100,0,0,0,0,7.64,11.3113,0.000625,1.99424e-06,0.762281,0.0144574,0.325131,62.9205,1567981188
0,4,0,0,0,100,0,0,0,0,7.68,11.2438,0.000625,1.95164e-06,1.20561,0.0143611,1.1872,62.9188,1567981280
0,4,0,0,0,100,0,0,0,0,7.78,11.1359,0.000625,1.97602e-06,1.39004,0.0155688,1.2467,62.7425,1567981374
0,4,0,0,0,100,0,0,0,0,7.73,11.2152,0.000625,1.9498e-06,1.25663,0.01406,0.572074,63.0175,1567981466
0,4,0,0,0,100,0,0,0,0,7.79,11.1259,0.000625,1.93918e-06,1.47578,0.0154445,0.416407,63.2195,1567981554
0,4,0,0,0,100,0,0,0,0,7.65,11.285,0.000625,1.94341e-06,0.932981,0.0141455,1.07685,63.3105,1567981643
0,4,0,0,0,100,0,0,0,0,7.75,11.191,0.000625,1.87009e-06,1.41834,0.0148375,1.405,62.6823,1567981735
0,4,0,0,0,100,0,0,0,0,7.76,11.1357,0.000625,1.92554e-06,1.36931,0.0146634,1.27098,63.0357,1567981827
0,4,0,0,0,100,0,0,0,0,7.76,11.1622,0.000625,1.98208e-06,1.2372,0.0136752,1.38067,62.6037,1567981911
0,4,0,0,0,100,0,0,0,0,8.73,9.97554,0.000625,1.94915e-06,3.40467,0.0135651,1.57787,62.9283,1567982001
0,4,0,0,0,100,0,0,0,0,7.75,11.1791,0.000625,1.88799e-06,1.30695,0.0150751,1.56723,63.2807,1567982091
0,4,0,0,0,100,0,0,0,0,7.65,11.2444,0.000625,1.93553e-06,0.822897,0.0158932,0.803758,63.4109,1567982177
0,4,0,0,0,100,0,0,0,0,7.73,11.2051,0.000625,1.94846e-06,1.28027,0.0165815,1.6604,63.0338,1567982272
0,4,0,0,0,100,0,0,0,0,7.77,11.1585,0.000625,1.94759e-06,1.27773,0.0133524,1.24096,62.2078,1567982361
0,4,0,0,0,100,0,0,0,0,7.7,11.2482,0.000625,1.94644e-06,1.40108,0.0164597,0.821869,62.7295,1567982449
0,4,0,0,0,100,0,0,0,0,7.64,11.2999,0.000625,1.95942e-06,0.795825,0.0165489,1.335,62.2546,1567982535
0,4,0,0,0,100,0,0,0,0,7.75,11.1964,0.000625,1.94948e-06,1.31148,0.0160174,0.254251,62.3539,1567982630
0,4,0,0,0,100,0,0,0,0,7.64,11.3179,0.000625,1.90172e-06,1.03569,0.0165673,1.19105,63.2815,1567982719
0,4,0,0,0,100,0,0,0,0,7.73,11.1928,0.000625,1.98205e-06,1.27698,0.0140457,0.682367,62.7775,1567982810
0,4,0,0,0,100,0,0,0,0,7.63,11.3036,0.000625,1.94617e-06,0.718902,0.0140169,1.83016,61.5948,1567982899
0,4,0,0,0,100,0,0,0,0,7.81,11.1027,0.000625,1.94202e-06,1.50401,0.0142923,1.38694,63.1644,1567982992
0,4,0,0,0,100,0,0,0,0,7.69,11.2621,0.000625,1.91607e-06,1.03687,0.014872,0.573621,63.1096,1567983083
0,4,0,0,0,100,0,0,0,0,7.75,11.1626,0.000625,1.90759e-06,1.56321,0.014019,0.951972,63.285,1567983171
0,4,0,0,0,100,0,0,0,0,7.84,11.0746,0.000625,1.96069e-06,1.58767,0.0145617,0.879613,62.9793,1567983261
0,4,0,0,0,100,0,0,0,0,7.77,11.1578,0.000625,1.9569e-06,1.46277,0.0146264,1.13796,62.5924,1567983355
0,4,0,0,0,100,0,0,0,0,7.71,11.2203,0.000625,1.93048e-06,1.06236,0.0146945,0.616767,62.8915,1567983444
0,4,0,0,0,100,0,0,0,0,7.66,11.2556,0.000625,1.9071e-06,0.748115,0.0168317,1.64055,62.7854,1567983533
0,4,0,0,0,100,0,0,0,0,7.64,11.3086,0.000625,1.96314e-06,0.873941,0.0151127,1.27687,62.4817,1567983627
0,4,0,0,0,100,0,0,0,0,8.58,10.1489,0.000625,1.94018e-06,2.79136,0.0133706,1.11237,62.6968,1567983716
0,4,0,0,0,100,0,0,0,0,7.68,11.2396,0.000625,1.92625e-06,0.783719,0.0145741,1.28334,62.9616,1567983812
0,4,0,0,0,100,0,0,0,0,7.71,11.2263,0.000625,1.89825e-06,1.19841,0.0130258,0.974319,63.5932,1567983897
0,4,0,0,0,100,0,0,0,0,7.78,11.153,0.000625,1.95713e-06,1.44236,0.0178792,1.23378,63.3736,1567983986
0,4,0,0,0,100,0,0,0,0,7.76,11.1755,0.000625,1.94617e-06,1.50713,0.0133759,0.348979,63.0582,1567984076
0,4,0,0,0,100,0,0,0,0,7.72,11.1954,0.000625,1.97663e-06,0.991788,0.0149244,0.282767,63.1465,1567984162
0,4,0,0,0,100,0,0,0,0,7.78,11.1519,0.000625,1.92977e-06,1.48301,0.0148837,0.780903,63.4844,1567984249
0,4,0,0,0,100,0,0,0,0,7.71,11.2479,0.000625,1.91077e-06,1.28743,0.0136576,0.511662,63.6388,1567984334
0,4,0,0,0,100,0,0,0,0,7.75,11.1831,0.000625,2.02043e-06,1.35422,0.0139985,1.65306,62.4398,1567984421
0,4,0,0,0,100,0,0,0,0,7.7,11.1726,0.000625,1.92903e-06,0.593925,0.0162184,1.09481,63.5502,1567984510
0,4,0,0,0,100,0,0,0,0,7.77,11.163,0.000625,1.97512e-06,1.50203,0.013952,1.42307,62.8475,1567984597
0,4,0,0,0,100,0,0,0,0,7.76,11.1722,0.000625,1.93103e-06,1.3806,0.0168483,1.48061,63.4447,1567984682
0,4,0,0,0,100,0,0,0,0,7.79,11.1274,0.000625,1.9312e-06,1.32686,0.0153065,1.12627,62.8018,1567984768
0,4,0,0,0,100,0,0,0,0,7.71,11.2071,0.000625,1.93594e-06,0.984526,0.0144959,0.343926,62.8206,1567984855
0,4,0,0,0,100,0,0,0,0,7.89,11.0164,0.000625,1.9138e-06,1.61556,0.0176477,0.739803,62.9172,1567984945
0,4,0,0,0,100,0,0,0,0,7.87,11.0422,0.000625,1.9573e-06,1.75234,0.0159899,1.42974,62.3289,1567985035
0,4,0,0,0,100,0,0,0,0,7.78,11.1471,0.000625,1.9816e-06,1.40401,0.0160623,1.63957,63.4792,1567985122
0,4,0,0,0,100,0,0,0,0,8.03,10.8759,0.000625,1.9299e-06,2.26134,0.0151896,1.09396,62.7632,1567985218
0,4,0,0,0,100,0,0,0,0,7.66,11.2857,0.000625,1.97412e-06,1.05013,0.014863,1.33963,63.0704,1567985312
0,4,0,0,0,100,0,0,0,0,7.74,11.1994,0.000625,1.95782e-06,1.49455,0.0166268,0.803948,62.9881,1567985402
0,4,0,0,0,100,0,0,0,0,7.67,11.2693,0.000625,1.93308e-06,0.949661,0.0170784,1.53407,63.3021,1567985493
0,4,0,0,0,100,0,0,0,0,7.78,11.1427,0.000625,1.90245e-06,1.45396,0.0135606,1.54951,62.9394,1567985585
0,5,0,0,0,100,0,0,0,0,7.82,11.1056,0.000625,1.9566e-06,1.55643,0.01446,1.01481,63.1655,1567985677
0,5,0,0,0,100,0,0,0,0,7.65,11.2941,0.000625,1.91219e-06,0.906887,0.0145973,1.17875,62.7582,1567985766
0,5,0,0,0,100,0,0,0,0,7.64,11.2957,0.000625,1.95319e-06,0.92226,0.0140745,0.503115,63.2662,1567985852
0,5,0,0,0,100,0,0,0,0,7.79,11.1403,0.000625,1.90916e-06,1.5771,0.0142803,0.216168,63.2042,1567985939
0,5,0,0,0,100,0,0,0,0,7.86,11.0446,0.000625,1.93243e-06,1.63552,0.0141475,0.571708,63.1457,1567986036
0,5,0,0,0,100,0,0,0,0,7.63,11.3122,0.000625,1.97462e-06,0.701726,0.0141258,1.12191,63.0579,1567986125
0,5,0,0,0,100,0,0,0,0,7.73,11.1966,0.000625,1.94745e-06,1.18956,0.0162118,0.793468,63.297,1567986213
0,5,0,0,0,100,0,0,0,0,7.86,11.0568,0.000625,1.91711e-06,1.7823,0.0156908,0.733039,63.603,1567986306
0,5,0,0,0,100,0,0,0,0,7.74,11.1964,0.000625,1.8922e-06,1.38359,0.0154641,0.306816,63.2259,1567986393
0,5,0,0,0,100,0,0,0,0,7.84,11.0756,0.000625,1.91595e-06,1.64478,0.0157232,0.747634,62.6701,1567986480
0,5,0,0,0,100,0,0,0,0,7.79,11.1035,0.000625,1.9236e-06,1.24279,0.01588,1.20192,62.9301,1567986571
0,5,0,0,0,100,0,0,0,0,7.84,11.0794,0.000625,1.92036e-06,1.79277,0.0144424,0.671405,62.6801,1567986662
0,5,0,0,0,100,0,0,0,0,7.79,11.1548,0.000625,1.94855e-06,1.39566,0.0138699,0.537587,62.7595,1567986748
0,5,0,0,0,100,0,0,0,0,7.66,11.268,0.000625,1.87964e-06,0.961778,0.0128159,0.917197,62.5961,1567986835
0,5,0,0,0,100,0,0,0,0,7.68,11.2206,0.000625,1.92126e-06,0.740042,0.0148499,1.38014,62.9457,1567986926
0,5,0,0,0,100,0,0,0,0,7.66,11.282,0.000625,1.95414e-06,0.728342,0.0158049,0.73388,62.6472,1567987016
0,5,0,0,0,100,0,0,0,0,7.79,11.136,0.000625,1.97023e-06,1.5068,0.01446,0.655522,63.2882,1567987108
0,5,0,0,0,100,0,0,0,0,7.8,11.1355,0.000625,1.96163e-06,1.45353,0.0168827,0.447114,62.3951,1567987203
0,5,0,0,0,100,0,0,0,0,7.77,11.1564,0.000625,1.95369e-06,1.34488,0.0163661,0.671053,63.7191,1567987299
0,5,0,0,0,100,0,0,0,0,7.69,11.2337,0.000625,1.95673e-06,0.971447,0.0151519,0.751665,62.8998,1567987383
0,5,0,0,0,100,0,0,0,0,7.74,11.2077,0.000625,1.93875e-06,1.30945,0.0151399,0.709422,63.0168,1567987470
0,5,0,0,0,100,0,0,0,0,7.64,11.2951,0.000625,1.95833e-06,0.721812,0.0135785,2.01045,62.7924,1567987561
0,5,0,0,0,100,0,0,0,0,7.84,11.0791,0.000625,1.94947e-06,1.62527,0.0146724,1.66505,63.2934,1567987659
0,5,0,0,0,100,0,0,0,0,7.77,11.1536,0.000625,1.96661e-06,1.43084,0.0149391,1.09489,62.6568,1567987755
0,5,0,0,0,100,0,0,0,0,7.82,11.0958,0.000625,1.92931e-06,1.58368,0.0158949,0.489882,63.5395,1567987846
0,5,0,0,0,100,0,0,0,0,7.76,11.1349,0.000625,1.90673e-06,1.21906,0.0127248,0.967294,63.3722,1567987941
0,5,0,0,0,100,0,0,0,0,7.86,11.0496,0.000625,1.97783e-06,1.74697,0.0151878,1.30895,63.3652,1567988031
0,5,0,0,0,100,0,0,0,0,7.7,11.2027,0.000625,1.9085e-06,0.97574,0.0157776,0.551158,62.6606,1567988121
0,5,0,0,0,100,0,0,0,0,7.76,11.1128,0.000625,1.96355e-06,0.87339,0.0135916,0.972222,62.9073,1567988208
0,5,0,0,0,100,0,0,0,0,7.73,11.2059,0.000625,1.92116e-06,1.09219,0.0128786,1.21495,63.4447,1567988301
0,5,0,0,0,100,0,0,0,0,7.74,11.1897,0.000625,1.94169e-06,1.45198,0.0135233,1.44301,62.8413,1567988387
0,5,0,0,0,100,0,0,0,0,7.67,11.2657,0.000625,1.97657e-06,0.770937,0.0167596,0.94075,63.1712,1567988474
0,5,0,0,0,100,0,0,0,0,7.75,11.194,0.000625,1.96588e-06,1.17409,0.0158043,0.912965,63.2164,1567988562
0,5,0,0,0,100,0,0,0,0,7.84,11.0847,0.000625,1.94785e-06,1.77435,0.0151578,0.775296,62.8282,1567988655
0,5,0,0,0,100,0,0,0,0,7.72,11.2172,0.000625,1.95887e-06,1.2358,0.0148676,1.36341,62.9354,1567988745
0,5,0,0,0,100,0,0,0,0,7.77,11.1669,0.000625,1.89235e-06,1.47033,0.0138458,1.09516,63.0474,1567988831
0,5,0,0,0,100,0,0,0,0,7.77,11.1568,0.000625,1.91104e-06,1.49048,0.0161259,1.17963,63.1957,1567988916
0,5,0,0,0,100,0,0,0,0,7.69,11.244,0.000625,1.97486e-06,1.05679,0.0150855,1.06168,62.662,1567989002
0,5,0,0,0,100,0,0,0,0,7.7,11.2299,0.000625,1.9599e-06,1.18522,0.0147501,0.933898,62.9418,1567989095
0,5,0,0,0,100,0,0,0,0,7.84,11.0822,0.000625,1.94345e-06,1.75495,0.0137643,1.23823,63.3639,1567989185
0,5,0,0,0,100,0,0,0,0,7.76,11.1408,0.000625,1.92269e-06,1.18518,0.0154764,1.42063,62.2653,1567989271
0,5,0,0,0,100,0,0,0,0,7.64,11.268,0.000625,1.88772e-06,0.703805,0.014937,0.901388,63.4991,1567989358
0,5,0,0,0,100,0,0,0,0,7.66,11.2805,0.000625,1.91595e-06,0.93395,0.0169191,1.15054,63.0898,1567989453
0,5,0,0,0,100,0,0,0,0,7.72,11.2215,0.000625,1.92736e-06,1.29324,0.0135481,1.21098,62.9824,1567989544
0,5,0,0,0,100,0,0,0,0,8.29,10.5092,0.000625,1.95157e-06,3.01556,0.015469,1.25973,63.1491,1567989636
0,5,0,0,0,100,0,0,0,0,7.63,11.2782,0.000625,1.97745e-06,0.835895,0.0150241,0.755228,62.5928,1567989728
0,5,0,0,0,100,0,0,0,0,7.77,11.1681,0.000625,1.97413e-06,1.38988,0.0160438,1.7272,63.4827,1567989820
0,5,0,0,0,100,0,0,0,0,8.15,10.6335,0.000625,1.86687e-06,1.91748,0.0166648,0.384582,63.129,1567989911
0,5,0,0,0,100,0,0,0,0,7.72,11.2056,0.000625,1.91954e-06,1.14293,0.0163012,1.40328,63.1727,1567990006
0,5,0,0,0,100,0,0,0,0,7.84,11.1149,0.000625,2.0117e-06,1.63065,0.0156847,1.27852,63.2099,1567990094
0,5,0,0,0,100,0,0,0,0,7.63,11.3137,0.000625,1.97092e-06,0.645524,0.0136051,1.32747,62.8474,1567990180
0,5,0,0,0,100,0,0,0,0,7.7,11.196,0.000625,1.93049e-06,0.983782,0.0140592,0.776171,63.0564,1567990272
0,5,0,0,0,100,0,0,0,0,7.74,11.2061,0.000625,1.95162e-06,1.50102,0.016045,1.7404,63.0292,1567990371
0,5,0,0,0,100,0,0,0,0,7.74,11.1967,0.000625,1.91778e-06,1.40623,0.0128051,1.38702,63.0416,1567990458
0,5,0,0,0,100,0,0,0,0,7.74,11.1881,0.000625,1.90169e-06,1.31891,0.0171167,0.639492,63.413,1567990545
0,5,0,0,0,100,0,0,0,0,7.67,11.2718,0.000625,1.93509e-06,0.886623,0.014,1.40121,62.9988,1567990634
0,5,0,0,0,100,0,0,0,0,7.68,11.2208,0.000625,1.94891e-06,0.838964,0.0157822,0.911086,63.2696,1567990726
0,5,0,0,0,100,0,0,0,0,8.84,9.85261,0.000625,1.88462e-06,3.2867,0.0154671,1.06582,62.8885,1567990825
0,5,0,0,0,100,0,0,0,0,7.86,11.0517,0.000625,1.92535e-06,1.66921,0.0160552,0.946587,63.0199,1567990921
0,5,0,0,0,100,0,0,0,0,7.74,11.1431,0.000625,1.88473e-06,1.06534,0.0153053,0.5372,62.6774,1567991009
0,5,0,0,0,100,0,0,0,0,8.41,10.2742,0.000625,1.96958e-06,2.15968,0.0168409,0.945902,63.2142,1567991096
0,5,0,0,0,100,0,0,0,0,9.64,9.03803,0.000625,1.8461e-06,4.31244,0.015837,1.54687,63.3086,1567991189
0,5,0,0,0,100,0,0,0,0,7.65,11.2954,0.000625,1.92568e-06,0.947354,0.0160453,0.696419,63.1662,1567991291
0,5,0,0,0,100,0,0,0,0,7.72,11.2156,0.000625,1.94577e-06,1.05087,0.0148761,0.628834,62.5648,1567991380
0,5,0,0,0,100,0,0,0,0,7.77,11.1285,0.000625,1.88078e-06,1.27036,0.0153246,0.817732,62.9943,1567991467
0,5,0,0,0,100,0,0,0,0,7.71,11.2413,0.000625,1.96321e-06,1.24007,0.0176107,0.822273,63.2494,1567991559
0,5,0,0,0,100,0,0,0,0,7.84,11.0747,0.000625,1.94975e-06,1.47038,0.0160368,1.29647,62.8275,1567991655
0,5,0,0,0,100,0,0,0,0,7.75,11.1567,0.000625,1.93696e-06,1.16606,0.0136147,0.701727,63.0199,1567991745
0,5,0,0,0,100,0,0,0,0,7.7,11.2444,0.000625,1.94541e-06,1.363,0.015246,0.864523,62.0013,1567991836
0,5,0,0,0,100,0,0,0,0,7.72,11.2112,0.000625,1.92139e-06,1.23658,0.0128624,1.1161,62.6171,1567991924
0,5,0,0,0,100,0,0,0,0,7.77,11.1694,0.000625,2.01572e-06,1.23658,0.0147489,0.738241,63.6627,1567992010
0,5,0,0,0,100,0,0,0,0,7.78,11.1492,0.000625,1.96643e-06,1.49234,0.0142165,0.757147,63.4228,1567992099
0,5,0,0,0,100,0,0,0,0,7.82,11.1002,0.000625,1.92368e-06,1.42267,0.015299,1.45613,62.9135,1567992187
0,5,0,0,0,100,0,0,0,0,7.71,11.2311,0.000625,1.92507e-06,1.13205,0.0160395,0.0166667,62.7776,1567992277
0,5,0,0,0,100,0,0,0,0,7.79,11.1149,0.000625,1.90323e-06,1.54866,0.0152208,1.21976,63.0379,1567992377
0,5,0,0,0,100,0,0,0,0,7.7,11.2326,0.000625,1.88502e-06,1.02496,0.0173189,1.2919,63.2199,1567992465
0,5,0,0,0,100,0,0,0,0,7.8,11.1238,0.000625,1.96423e-06,1.48022,0.0132575,1.19253,62.6427,1567992555
0,5,0,0,0,100,0,0,0,0,7.74,11.1854,0.000625,1.90345e-06,1.38445,0.0141629,1.18033,62.7113,1567992640
0,5,0,0,0,100,0,0,0,0,7.87,11.0313,0.000625,1.98517e-06,1.63736,0.0134859,0.946429,62.6691,1567992724
0,5,0,0,0,100,0,0,0,0,7.7,11.2083,0.000625,1.95376e-06,0.991978,0.0134649,1.01606,62.919,1567992814
0,5,0,0,0,100,0,0,0,0,7.79,11.1029,0.000625,1.9625e-06,1.27081,0.016451,0.740826,62.9806,1567992905
0,5,0,0,0,100,0,0,0,0,7.73,11.1569,0.000625,1.95145e-06,0.961874,0.0137481,1.29711,62.7835,1567992995
0,5,0,0,0,100,0,0,0,0,7.81,11.1102,0.000625,1.98605e-06,1.51403,0.0164123,1.08141,63.7287,1567993081
0,5,0,0,0,100,0,0,0,0,7.7,11.2366,0.000625,1.92719e-06,1.05186,0.0137072,1.02481,62.7017,1567993175
0,5,0,0,0,100,0,0,0,0,7.72,11.2382,0.000625,1.90766e-06,1.17458,0.0151214,0.648431,63.2919,1567993267
0,5,0,0,0,100,0,0,0,0,7.86,11.0493,0.000625,1.95222e-06,1.59366,0.0150619,0.958188,63.6255,1567993366
0,5,0,0,0,100,0,0,0,0,7.75,11.1971,0.000625,1.9548e-06,1.33969,0.0167493,1.04993,63.6129,1567993451
0,5,0,0,0,100,0,0,0,0,7.74,11.2081,0.000625,1.97039e-06,1.18888,0.0148056,1.30806,62.931,1567993541
0,5,0,0,0,100,0,0,0,0,7.81,11.1099,0.000625,1.92463e-06,1.47392,0.0138516,0.730187,62.8743,1567993630
0,5,0,0,0,100,0,0,0,0,7.72,11.2179,0.000625,1.93902e-06,1.29486,0.0148578,1.26553,63.4002,1567993719
0,5,0,0,0,100,0,0,0,0,7.76,11.1502,0.000625,1.95112e-06,1.30157,0.0123821,0.597851,63.1901,1567993808
0,5,0,0,0,100,0,0,0,0,7.78,11.1459,0.000625,1.94672e-06,1.44016,0.0170312,1.03354,62.4602,1567993898
0,5,0,0,0,100,0,0,0,0,7.79,11.1103,0.000625,1.98527e-06,1.35773,0.0141626,0.457628,62.6887,1567993987
0,5,0,0,0,100,0,0,0,0,7.64,11.3002,0.000625,1.99199e-06,0.774315,0.0144027,1.21555,62.4675,1567994076
0,5,0,0,0,100,0,0,0,0,7.72,11.1722,0.000625,1.9429e-06,0.842908,0.0165417,0.9375,63.1405,1567994173
0,5,0,0,0,100,0,0,0,0,7.79,11.1399,0.000625,1.99745e-06,1.69788,0.0149312,0.967294,62.9917,1567994262
0,5,0,0,0,100,0,0,0,0,7.64,11.3025,0.000625,1.92019e-06,0.897873,0.0144991,1.16518,62.8624,1567994350
0,5,0,0,0,100,0,0,0,0,7.73,11.1767,0.000625,1.90949e-06,1.31349,0.0157866,1.29704,63.2942,1567994447
0,5,0,0,0,100,0,0,0,0,7.76,11.1709,0.000625,1.92996e-06,1.35197,0.0144764,1.46309,63.2478,1567994533
0,5,0,0,0,100,0,0,0,0,7.67,11.2685,0.000625,1.91773e-06,0.797287,0.0154953,0.843445,62.6393,1567994618
0,6,0,0,0,100,0,0,0,0,7.79,11.1409,0.000625,1.97271e-06,1.40289,0.0166786,0.36943,63.6548,1567994705
0,6,0,0,0,100,0,0,0,0,7.68,11.2619,0.000625,1.89823e-06,0.886097,0.0154499,1.22193,62.8554,1567994793
0,6,0,0,0,100,0,0,0,0,7.7,11.2474,0.000625,1.91391e-06,1.20204,0.0159365,0.688586,62.7219,1567994883
0,6,0,0,0,100,0,0,0,0,7.76,11.1646,0.000625,1.94402e-06,1.45937,0.0140092,0.978595,61.9057,1567994970
0,6,0,0,0,100,0,0,0,0,7.71,11.2395,0.000625,1.91587e-06,1.10222,0.0142553,1.2556,63.2114,1567995065
0,6,0,0,0,100,0,0,0,0,8.38,10.3949,0.000625,1.93725e-06,2.89384,0.0154934,0.666041,63.6011,1567995153
0,6,0,0,0,100,0,0,0,0,7.67,11.2549,0.000625,1.98474e-06,0.923041,0.0139014,0.788462,62.4125,1567995245
0,6,0,0,0,100,0,0,0,0,7.8,11.1163,0.000625,1.94632e-06,1.38152,0.0143213,0.870026,63.1913,1567995340
0,6,0,0,0,100,0,0,0,0,7.75,11.1598,0.000625,1.95271e-06,1.14662,0.0153073,0.920945,62.7546,1567995430
0,6,0,0,0,100,0,0,0,0,7.86,11.0522,0.000625,1.94637e-06,1.71673,0.0150589,1.06066,63.231,1567995519
0,6,0,0,0,100,0,0,0,0,7.73,11.1762,0.000625,1.95691e-06,1.06917,0.0147536,1.25069,63.3168,1567995613
0,6,0,0,0,100,0,0,0,0,7.66,11.2515,0.000625,1.93709e-06,0.868851,0.015039,1.17945,62.919,1567995701
0,6,0,0,0,100,0,0,0,0,7.66,11.2346,0.000625,1.94112e-06,0.467699,0.0162175,1.271,62.6461,1567995791
0,6,0,0,0,100,0,0,0,0,7.79,11.1443,0.000625,1.94168e-06,1.60725,0.015745,1.19483,62.9274,1567995892
0,6,0,0,0,100,0,0,0,0,7.73,11.2125,0.000625,1.97181e-06,1.36928,0.0159574,0.5247,63.0544,1567995982
0,6,0,0,0,100,0,0,0,0,7.79,11.1371,0.000625,2.00379e-06,1.38063,0.0165395,0.562242,63.2241,1567996073
0,6,0,0,0,100,0,0,0,0,7.67,11.2726,0.000625,1.94178e-06,0.98285,0.0128166,1.19991,63.1484,1567996162
0,6,0,0,0,100,0,0,0,0,7.77,11.1625,0.000625,1.97068e-06,1.4917,0.015047,1.46251,63.0877,1567996254
0,6,0,0,0,100,0,0,0,0,7.63,11.2826,0.000625,1.94061e-06,0.785921,0.0140167,0.733637,63.3229,1567996339
0,6,0,0,0,100,0,0,0,0,7.71,11.2139,0.000625,1.95946e-06,1.24962,0.0161046,0.953041,62.9788,1567996433
0,6,0,0,0,100,0,0,0,0,7.67,11.2453,0.000625,1.93853e-06,0.74998,0.0164188,0.4816,62.6212,1567996521
0,6,0,0,0,100,0,0,0,0,7.73,11.2012,0.000625,1.94978e-06,1.28564,0.0145696,0.827285,63.276,1567996611
0,6,0,0,0,100,0,0,0,0,7.77,11.1603,0.000625,1.96876e-06,1.40433,0.0135423,0.902239,62.8679,1567996701
0,6,0,0,0,100,0,0,0,0,7.82,11.1082,0.000625,1.91693e-06,1.5145,0.0133299,1.06131,62.9393,1567996792
0,6,0,0,0,100,0,0,0,0,7.68,11.2476,0.000625,1.98401e-06,1.1044,0.0154658,0.803758,62.6738,1567996884
0,6,0,0,0,100,0,0,0,0,7.7,11.1895,0.000625,1.97119e-06,0.575979,0.013365,0.696419,62.6448,1567996976
0,6,0,0,0,100,0,0,0,0,7.71,11.2303,0.000625,1.93443e-06,1.28416,0.0154959,1.78239,63.0017,1567997064
0,6,0,0,0,100,0,0,0,0,7.67,11.2315,0.000625,1.90082e-06,0.834346,0.0164981,0.879365,62.6272,1567997152
0,6,0,0,0,100,0,0,0,0,7.66,11.2925,0.000625,1.98782e-06,0.891638,0.0156789,0.989816,62.921,1567997242
0,6,0,0,0,100,0,0,0,0,7.76,11.1583,0.000625,1.94408e-06,1.2636,0.015364,0.33802,62.5082,1567997331
0,6,0,0,0,100,0,0,0,0,7.8,11.1013,0.000625,1.93123e-06,1.40854,0.015701,0.698486,63.1872,1567997417
0,6,0,0,0,100,0,0,0,0,7.65,11.2688,0.000625,1.95249e-06,0.956604,0.0162637,0.925078,63.2672,1567997505
0,6,0,0,0,100,0,0,0,0,7.69,11.2469,0.000625,1.97929e-06,1.03227,0.0138258,1.29696,63.5768,1567997597
0,6,0,0,0,100,0,0,0,0,7.71,11.2341,0.000625,1.99021e-06,1.06264,0.0156419,1.54237,62.7311,1567997684
0,6,0,0,0,100,0,0,0,0,7.74,11.1998,0.000625,1.93626e-06,1.34408,0.0171494,0.664297,63.0952,1567997777
0,6,0,0,0,100,0,0,0,0,7.7,11.2319,0.000625,1.92631e-06,1.1444,0.0159788,0.631853,62.8194,1567997865
0,6,0,0,0,100,0,0,0,0,7.64,11.3036,0.000625,1.96617e-06,0.692292,0.0161119,0.811282,63.2693,1567997957
0,6,0,0,0,100,0,0,0,0,7.72,11.1811,0.000625,1.98762e-06,1.21031,0.0136692,0.5372,63.0342,1567998056
0,6,0,0,0,100,0,0,0,0,7.65,11.2464,0.000625,1.94704e-06,0.465732,0.0166404,0.831986,61.8782,1567998147
0,6,0,0,0,100,0,0,0,0,7.67,11.2689,0.000625,1.90359e-06,0.976979,0.0151203,1.09253,62.8116,1567998249
0,6,0,0,0,100,0,0,0,0,7.65,11.2732,0.000625,1.9855e-06,1.03843,0.0154222,0.203603,63.4189,1567998342
0,6,0,0,0,100,0,0,0,0,7.89,11.0129,0.000625,1.9324e-06,1.81662,0.0149029,0.695347,62.853,1567998436
0,6,0,0,0,100,0,0,0,0,7.66,11.2647,0.000625,1.95259e-06,0.922916,0.0146274,0.523262,62.7095,1567998528
0,6,0,0,0,100,0,0,0,0,7.75,11.1744,0.000625,1.95587e-06,1.24149,0.0151013,1.16299,63.591,1567998630
0,6,0,0,0,100,0,0,0,0,7.76,11.1798,0.000625,1.93806e-06,1.51811,0.0155724,1.9853,62.8076,1567998727
0,6,0,0,0,100,0,0,0,0,7.65,11.2879,0.000625,1.88826e-06,0.774416,0.0152777,1.96022,62.9271,1567998813
0,6,0,0,0,100,0,0,0,0,7.8,11.1252,0.000625,1.87293e-06,1.40073,0.0143049,0.785006,62.52,1567998906
0,6,0,0,0,100,0,0,0,0,7.82,11.0951,0.000625,1.98848e-06,1.54685,0.0141183,1.32392,63.1074,1567998993
0,6,0,0,0,100,0,0,0,0,7.73,11.1978,0.000625,1.91521e-06,1.25364,0.0151768,0.928036,62.6066,1567999085
0,6,0,0,0,100,0,0,0,0,7.64,11.2716,0.000625,1.97521e-06,0.787952,0.0164397,1.20025,63.5414,1567999176
0,6,0,0,0,100,0,0,0,0,7.68,11.2116,0.000625,1.94194e-06,0.84136,0.0158021,1.25369,63.1733,1567999276
0,6,0,0,0,100,0,0,0,0,7.72,11.2293,0.000625,1.9334e-06,1.27485,0.0138244,0.719004,63.0095,1567999374
0,6,0,0,0,100,0,0,0,0,7.65,11.2499,0.000625,1.99252e-06,0.891364,0.0149493,0.863888,63.5167,1567999463
0,6,0,0,0,100,0,0,0,0,7.8,11.1173,0.000625,1.96684e-06,1.3682,0.0158445,1.06182,63.4085,1567999552
0,6,0,0,0,100,0,0,0,0,7.7,11.2312,0.000625,1.94551e-06,0.994173,0.0129899,0.977471,63.4053,1567999644
0,6,0,0,0,100,0,0,0,0,7.74,11.1625,0.000625,1.89556e-06,1.14178,0.0162454,0.512178,63.5442,1567999733
0,6,0,0,0,100,0,0,0,0,7.69,11.2395,0.000625,1.93429e-06,1.10558,0.0150611,0.996896,63.0537,1567999821
0,6,0,0,0,100,0,0,0,0,7.79,11.1342,0.000625,1.99357e-06,1.47156,0.0159221,0.527315,63.2521,1567999909
0,6,0,0,0,100,0,0,0,0,7.73,11.2061,0.000625,1.91791e-06,1.27343,0.014384,0.950724,63.224,1567999997
0,6,0,0,0,100,0,0,0,0,7.74,11.2033,0.000625,1.95003e-06,1.46959,0.0137123,0.843892,62.6604,1568000086
0,6,0,0,0,100,0,0,0,0,7.67,11.2772,0.000625,1.98145e-06,1.08517,0.0159359,1.45499,62.9318,1568000177
0,6,0,0,0,100,0,0,0,0,7.7,11.2471,0.000625,1.95754e-06,1.1386,0.0144979,1.17131,63.7136,1568000264
0,6,0,0,0,100,0,0,0,0,7.8,11.1339,0.000625,1.95953e-06,1.6374,0.0147103,1.02421,62.6429,1568000350
0,6,0,0,0,100,0,0,0,0,8.29,10.5057,0.000625,1.91652e-06,2.72402,0.0153006,0.616346,63.0914,1568000436
0,6,0,0,0,100,0,0,0,0,7.77,11.1515,0.000625,1.9838e-06,1.34768,0.0168625,0.933763,63.6182,1568000526
0,6,0,0,0,100,0,0,0,0,7.77,11.1731,0.000625,1.94048e-06,1.41823,0.0166465,1.10571,63.0275,1568000616
0,6,0,0,0,100,0,0,0,0,7.63,11.2784,0.000625,1.95437e-06,0.717403,0.0157203,1.07757,62.3483,1568000702
0,6,0,0,0,100,0,0,0,0,7.8,11.1204,0.000625,1.94659e-06,1.54744,0.0146558,1.37536,63.2641,1568000798
0,6,0,0,0,100,0,0,0,0,7.68,11.2421,0.000625,1.90683e-06,1.09128,0.014482,1.03503,62.6355,1568000887
0,6,0,0,0,100,0,0,0,0,7.77,11.1634,0.000625,1.9203e-06,1.56015,0.0174587,0.958152,62.6447,1568000979
0,6,0,0,0,100,0,0,0,0,7.81,11.1098,0.000625,1.99464e-06,1.59258,0.0158161,0.783511,63.4786,1568001066
0,6,0,0,0,100,0,0,0,0,7.7,11.2371,0.000625,1.90933e-06,0.959567,0.0153841,1.11842,63.3256,1568001155
0,6,0,0,0,100,0,0,0,0,7.75,11.1307,0.000625,1.92784e-06,0.949675,0.0139782,1.23329,63.0235,1568001244
0,6,0,0,0,100,0,0,0,0,7.67,11.2577,0.000625,1.94756e-06,0.816272,0.0153882,1.61004,63.5098,1568001332
0,6,0,0,0,100,0,0,0,0,7.77,11.1592,0.000625,1.98581e-06,1.56091,0.0155374,0.890056,63.1005,1568001431
0,6,0,0,0,100,0,0,0,0,7.66,11.2405,0.000625,1.98128e-06,0.729532,0.0147466,1.2281,62.7732,1568001515
0,6,0,0,0,100,0,0,0,0,7.87,11.023,0.000625,1.96294e-06,1.45745,0.0157148,1.49907,63.5695,1568001606
0,6,0,0,0,100,0,0,0,0,7.8,11.1231,0.000625,1.93862e-06,1.52147,0.0146103,0.910668,62.8299,1568001698
0,6,0,0,0,100,0,0,0,0,7.79,11.1404,0.000625,1.96361e-06,1.60604,0.0144662,1.56433,63.1196,1568001788
0,6,0,0,0,100,0,0,0,0,7.77,11.1591,0.000625,1.93151e-06,1.33857,0.0156319,1.31418,63.5925,1568001872
0,6,0,0,0,100,0,0,0,0,7.67,11.2593,0.000625,1.95857e-06,0.917787,0.0142062,0.88459,63.1442,1568001960
0,6,0,0,0,100,0,0,0,0,7.9,10.9988,0.000625,1.92152e-06,1.81523,0.0147205,0.889498,63.405,1568002055
0,6,0,0,0,100,0,0,0,0,7.82,11.0945,0.000625,1.9747e-06,1.59334,0.0154989,0.159344,63.0317,1568002142
0,6,0,0,0,100,0,0,0,0,7.78,11.1373,0.000625,1.98324e-06,1.4935,0.0152567,1.37859,62.8698,1568002228
0,6,0,0,0,100,0,0,0,0,7.71,11.2251,0.000625,1.93833e-06,1.23352,0.0161965,1.5625,59.6628,1568002317
0,6,0,0,0,100,0,0,0,0,7.73,11.1407,0.000625,1.94345e-06,0.840398,0.0142655,1.11074,63.2441,1568002416
0,6,0,0,0,100,0,0,0,0,7.67,11.2674,0.000625,1.94907e-06,0.896707,0.0155247,0.85689,63.253,1568002504
0,6,0,0,0,100,0,0,0,0,7.83,11.0954,0.000625,1.96267e-06,1.69291,0.0150658,0.547686,62.8305,1568002592
0,6,0,0,0,100,0,0,0,0,7.71,11.2356,0.000625,1.92475e-06,1.31268,0.0157881,1.00398,63.5084,1568002678
0,6,0,0,0,100,0,0,0,0,7.79,11.1044,0.000625,1.91078e-06,1.34919,0.0164151,1.44821,62.6838,1568002776
0,6,0,0,0,100,0,0,0,0,7.8,11.1335,0.000625,1.9182e-06,1.65712,0.0169587,0.906198,63.3653,1568002868
0,6,0,0,0,100,0,0,0,0,7.8,11.1165,0.000625,1.93748e-06,1.35732,0.0160565,0.795405,63.3671,1568002954
0,6,0,0,0,100,0,0,0,0,7.71,11.1855,0.000625,1.94656e-06,1.09868,0.0146738,0.719099,63.443,1568003045
0,6,0,0,0,100,0,0,0,0,7.81,11.1089,0.000625,1.85925e-06,1.43295,0.0147081,0.935,63.2196,1568003137
0,6,0,0,0,100,0,0,0,0,7.82,11.1087,0.000625,1.97344e-06,1.7193,0.0164017,0.968876,63.0477,1568003232
0,6,0,0,0,100,0,0,0,0,7.78,11.1318,0.000625,1.9893e-06,1.25358,0.0155387,0.89,62.6403,1568003323
0,6,0,0,0,100,0,0,0,0,7.65,11.291,0.000625,1.95753e-06,1.10957,0.0159965,1.12294,62.9425,1568003415
0,6,0,0,0,100,0,0,0,0,7.8,11.128,0.000625,1.92827e-06,1.65818,0.0160914,0.798688,63.4451,1568003512
0,6,0,0,0,100,0,0,0,0,7.72,11.2042,0.000625,1.96981e-06,1.28353,0.0138109,1.74123,63.1879,1568003598
0,6,0,0,0,100,0,0,0,0,7.67,11.267,0.000625,1.9836e-06,0.922648,0.013108,1.26964,62.5519,1568003687
0,7,0,0,0,100,0,0,0,0,7.86,11.0488,0.000625,1.90196e-06,1.68519,0.0144107,0.828536,63.4013,1568003775
0,7,0,0,0,100,0,0,0,0,7.79,11.133,0.000625,1.93182e-06,1.53917,0.015463,0.359375,63.2959,1568003863
0,7,0,0,0,100,0,0,0,0,7.72,11.2238,0.000625,1.98594e-06,1.11687,0.016337,1.32229,62.8189,1568003948
0,7,0,0,0,100,0,0,0,0,8.07,10.8232,0.000625,1.95699e-06,2.27035,0.0152689,0.829392,62.6941,1568004042
0,7,0,0,0,100,0,0,0,0,7.74,11.2057,0.000625,1.97723e-06,1.38619,0.0157123,0.735272,63.0512,1568004134
0,7,0,0,0,100,0,0,0,0,7.66,11.2832,0.000625,1.94087e-06,0.825055,0.0158295,1.0401,62.6188,1568004220
0,7,0,0,0,100,0,0,0,0,7.67,11.2765,0.000625,1.96284e-06,1.12897,0.0140818,0.491666,63.289,1568004316
0,7,0,0,0,100,0,0,0,0,7.66,11.267,0.000625,1.96839e-06,0.757934,0.0146392,1.24619,62.7601,1568004411
0,7,0,0,0,100,0,0,0,0,7.66,11.2715,0.000625,1.96133e-06,0.775452,0.0162656,0.75519,62.7117,1568004499
0,7,0,0,0,100,0,0,0,0,7.73,11.1984,0.000625,1.98704e-06,1.27188,0.0168378,0.750115,62.246,1568004596
0,7,0,0,0,100,0,0,0,0,7.86,11.0571,0.000625,1.99488e-06,1.8147,0.0130594,1.34403,62.9203,1568004691
0,7,0,0,0,100,0,0,0,0,7.68,11.2767,0.000625,1.9371e-06,1.0838,0.014521,0.608769,62.9917,1568004779
0,7,0,0,0,100,0,0,0,0,7.82,11.1065,0.000625,1.94571e-06,1.61469,0.0167459,0.673738,62.7118,1568004865
0,7,0,0,0,100,0,0,0,0,7.69,11.2144,0.000625,1.96071e-06,1.08235,0.0143261,1.05615,63.2085,1568004955
0,7,0,0,0,100,0,0,0,0,7.8,11.1178,0.000625,1.93398e-06,1.40436,0.0136406,1.5255,62.6647,1568005051
0,7,0,0,0,100,0,0,0,0,7.76,11.1696,0.000625,2.0042e-06,1.34334,0.016228,1.62003,63.3574,1568005140
0,7,0,0,0,100,0,0,0,0,7.66,11.2435,0.000625,1.96963e-06,0.740196,0.0173387,1.51195,63.331,1568005227
0,7,0,0,0,100,0,0,0,0,7.8,11.1231,0.000625,1.9088e-06,1.56487,0.0153317,1.31395,62.8336,1568005314
0,7,0,0,0,100,0,0,0,0,7.66,11.2709,0.000625,1.97452e-06,0.775646,0.0124907,0.985404,63.0349,1568005405
0,7,0,0,0,100,0,0,0,0,7.73,11.2056,0.000625,1.9031e-06,1.31826,0.014701,1.12114,62.8261,1568005497
0,7,0,0,0,100,0,0,0,0,7.73,11.2216,0.000625,1.8978e-06,1.32204,0.0146181,0.849309,63.0041,1568005593
0,7,0,0,0,100,0,0,0,0,8.11,10.7402,0.000625,1.94604e-06,2.60732,0.0164598,0.894513,62.5703,1568005684
0,7,0,0,0,100,0,0,0,0,7.71,11.1779,0.000625,1.85189e-06,0.936742,0.0154952,0.787103,63.3704,1568005778
0,7,0,0,0,100,0,0,0,0,7.72,11.2151,0.000625,1.99132e-06,1.10174,0.0158024,1.29362,63.2496,1568005869
0,7,0,0,0,100,0,0,0,0,7.8,11.131,0.000625,1.93163e-06,1.6708,0.0138781,0.676221,63.2065,1568005958
0,7,0,0,0,100,0,0,0,0,7.72,11.1909,0.000625,1.91983e-06,1.1374,0.017006,1.08343,62.8908,1568006043
0,7,0,0,0,100,0,0,0,0,7.81,11.114,0.000625,1.90376e-06,1.64844,0.0181459,0.680278,62.8264,1568006134
0,7,0,0,0,100,0,0,0,0,7.66,11.2737,0.000625,1.9555e-06,0.719314,0.0135127,0.59703,62.9018,1568006223
0,7,0,0,0,100,0,0,0,0,7.76,11.1753,0.000625,1.95339e-06,1.19075,0.0161795,0.983567,62.6816,1568006314
0,7,0,0,0,100,0,0,0,0,7.8,11.1325,0.000625,1.94032e-06,1.72505,0.0155464,1.20221,62.7714,1568006407
0,7,0,0,0,100,0,0,0,0,7.66,11.2711,0.000625,1.98426e-06,1.17036,0.0142906,0.590085,62.5224,1568006494
0,7,0,0,0,100,0,0,0,0,7.9,10.9952,0.000625,1.92398e-06,1.65423,0.0128143,0.920978,62.6851,1568006596
0,7,0,0,0,100,0,0,0,0,7.77,11.1607,0.000625,1.94724e-06,1.47926,0.0134946,0.901454,63.3871,1568006682
0,7,0,0,0,100,0,0,0,0,7.79,11.133,0.000625,1.94517e-06,1.42417,0.0148541,0.96576,63.6083,1568006767
0,7,0,0,0,100,0,0,0,0,7.67,11.2697,0.000625,1.94823e-06,1.05972,0.0156824,0.366466,63.3651,1568006856
0,7,0,0,0,100,0,0,0,0,7.83,11.0828,0.000625,1.93473e-06,1.6926,0.0153942,1.00398,63.1702,1568006952
0,7,0,0,0,100,0,0,0,0,7.68,11.2576,0.000625,1.95849e-06,1.00498,0.0162792,0.888292,63.2726,1568007040
0,7,0,0,0,100,0,0,0,0,7.79,11.1317,0.000625,1.94746e-06,1.38583,0.0151643,0.774353,62.7641,1568007129
0,7,0,0,0,100,0,0,0,0,7.78,11.1446,0.000625,1.96424e-06,1.49637,0.0158237,0.828591,63.2266,1568007221
0,7,0,0,0,100,0,0,0,0,7.8,11.1214,0.000625,2.01875e-06,1.57234,0.0153028,0.474965,63.6048,1568007308
0,7,0,0,0,100,0,0,0,0,7.87,11.0342,0.000625,1.96426e-06,1.71271,0.0137777,1.58114,62.7611,1568007392
0,7,0,0,0,100,0,0,0,0,7.85,11.0622,0.000625,1.92582e-06,1.64334,0.0148755,0.587205,62.4115,1568007482
0,7,0,0,0,100,0,0,0,0,7.7,11.2225,0.000625,1.90723e-06,1.34278,0.0143417,0.969254,63.4152,1568007571
0,7,0,0,0,100,0,0,0,0,7.71,11.2214,0.000625,1.92626e-06,1.23851,0.015224,0.104124,62.806,1568007661
0,7,0,0,0,100,0,0,0,0,7.77,11.1768,0.000625,1.937e-06,1.3597,0.0137293,1.05109,63.409,1568007748
0,7,0,0,0,100,0,0,0,0,7.78,11.1439,0.000625,1.94965e-06,1.47481,0.0156579,0.57717,62.5222,1568007835
0,7,0,0,0,100,0,0,0,0,7.72,11.1748,0.000625,1.91232e-06,0.819525,0.0155554,1.34397,63.1703,1568007924
0,7,0,0,0,100,0,0,0,0,7.7,11.2031,0.000625,1.9704e-06,1.05316,0.0134264,2.02065,62.8856,1568008011
0,7,0,0,0,100,0,0,0,0,7.86,11.0534,0.000625,1.93505e-06,1.67561,0.0151854,0.731057,62.6738,1568008110
0,7,0,0,0,100,0,0,0,0,7.81,11.1161,0.000625,1.93855e-06,1.48275,0.015622,0.225,63.354,1568008198
0,7,0,0,0,100,0,0,0,0,7.69,11.2282,0.000625,1.99301e-06,1.09311,0.0155637,0.886585,62.8361,1568008295
0,7,0,0,0,100,0,0,0,0,7.63,11.3107,0.000625,1.93839e-06,1.00217,0.0155138,1.33183,62.9208,1568008383
0,7,0,0,0,100,0,0,0,0,7.89,11.0125,0.000625,1.95017e-06,1.70221,0.0163534,1.18408,62.924,1568008478
0,7,0,0,0,100,0,0,0,0,7.75,11.1775,0.000625,1.96868e-06,1.39538,0.0160966,1.55009,63.5406,1568008569
0,7,0,0,0,100,0,0,0,0,7.8,11.12,0.000625,1.98464e-06,1.40854,0.0174457,0.740826,63.6448,1568008656
0,7,0,0,0,100,0,0,0,0,7.79,11.1295,0.000625,1.96137e-06,1.44719,0.0164227,0.904379,63.215,1568008744
0,7,0,0,0,100,0,0,0,0,7.78,11.1503,0.000625,1.97065e-06,1.48176,0.0168365,0.708333,63.1903,1568008835
0,7,0,0,0,100,0,0,0,0,7.77,11.1329,0.000625,1.91133e-06,1.23847,0.0183284,1.40991,63.12,1568008927
0,7,0,0,0,100,0,0,0,0,7.79,11.1322,0.000625,1.90324e-06,1.47847,0.0130415,0.703125,62.4703,1568009022
0,7,0,0,0,100,0,0,0,0,7.78,11.1574,0.000625,1.94551e-06,1.5022,0.0147233,0.974907,63.1735,1568009113
0,7,0,0,0,100,0,0,0,0,7.74,11.197,0.000625,1.89406e-06,1.29811,0.0151738,1.00087,63.378,1568009199
0,7,0,0,0,100,0,0,0,0,8.38,10.3958,0.000625,1.89437e-06,2.91604,0.012033,1.0873,63.2472,1568009289
0,7,0,0,0,100,0,0,0,0,7.8,11.1253,0.000625,1.95645e-06,1.55131,0.0154924,0.72878,62.5177,1568009376
0,7,0,0,0,100,0,0,0,0,7.81,11.1221,0.000625,1.88805e-06,1.59815,0.0155297,0.838689,63.567,1568009465
0,7,0,0,0,100,0,0,0,0,7.72,11.2203,0.000625,1.9292e-06,1.21236,0.0163675,0.942884,63.5373,1568009563
0,7,0,0,0,100,0,0,0,0,8.07,10.7797,0.000625,1.94304e-06,1.9938,0.0133952,1.03217,62.567,1568009652
0,7,0,0,0,100,0,0,0,0,7.69,11.2425,0.000625,2.01163e-06,1.02095,0.0161887,1.16853,62.8129,1568009749
0,7,0,0,0,100,0,0,0,0,7.75,11.1444,0.000625,1.99416e-06,1.20343,0.0141096,0.948114,63.4063,1568009839
0,7,0,0,0,100,0,0,0,0,7.73,11.195,0.000625,1.92174e-06,1.23152,0.0157861,0.764319,63.1331,1568009929
0,7,0,0,0,100,0,0,0,0,7.76,11.1616,0.000625,1.88657e-06,1.33438,0.0147343,0.984534,63.2121,1568010020
0,7,0,0,0,100,0,0,0,0,7.68,11.2643,0.000625,1.93411e-06,0.880766,0.0165214,1.55286,63.23,1568010107
0,7,0,0,0,100,0,0,0,0,7.64,11.2963,0.000625,1.94017e-06,0.672466,0.015666,1.27475,63.3038,1568010198
0,7,0,0,0,100,0,0,0,0,7.74,11.1969,0.000625,1.9567e-06,1.46002,0.0161652,0.844828,63.0056,1568010298
0,7,0,0,0,100,0,0,0,0,7.81,11.1198,0.000625,1.90866e-06,1.41342,0.0144472,1.29292,63.4428,1568010392
0,7,0,0,0,100,0,0,0,0,7.75,11.1972,0.000625,1.96023e-06,1.25335,0.0140147,0.488768,63.759,1568010485
0,7,0,0,0,100,0,0,0,0,7.77,11.1723,0.000625,1.93246e-06,1.42266,0.0147475,0.46268,63.152,1568010574
0,7,0,0,0,100,0,0,0,0,7.82,11.0998,0.000625,1.9347e-06,1.60091,0.0144698,0.564026,63.1296,1568010665
0,7,0,0,0,100,0,0,0,0,7.72,11.2296,0.000625,1.94025e-06,1.27994,0.0147423,0.512432,63.3818,1568010757
0,7,0,0,0,100,0,0,0,0,7.7,11.2459,0.000625,1.92015e-06,1.17345,0.0164191,1.37579,63.1577,1568010845
0,7,0,0,0,100,0,0,0,0,7.7,11.2231,0.000625,1.9818e-06,1.03361,0.0162517,1.03736,62.6471,1568010934
0,7,0,0,0,100,0,0,0,0,7.68,11.2507,0.000625,1.94191e-06,1.13187,0.0166274,1.46059,63.1753,1568011021
0,7,0,0,0,100,0,0,0,0,7.74,11.1547,0.000625,1.92954e-06,1.09378,0.0145442,0.976973,62.5704,1568011119
0,7,0,0,0,100,0,0,0,0,7.71,11.2311,0.000625,1.94501e-06,1.29365,0.0155632,0.889637,63.3685,1568011208
0,7,0,0,0,100,0,0,0,0,7.79,11.137,0.000625,1.97183e-06,1.44172,0.0137569,0.947254,62.8569,1568011298
0,7,0,0,0,100,0,0,0,0,7.67,11.2778,0.000625,1.94903e-06,0.934983,0.0168816,0.91985,63.044,1568011389
0,7,0,0,0,100,0,0,0,0,7.79,11.1502,0.000625,1.92733e-06,1.3731,0.013682,0.911883,63.5853,1568011478
0,7,0,0,0,100,0,0,0,0,7.78,11.1427,0.000625,1.99003e-06,1.36782,0.0156752,1.8899,62.9554,1568011561
0,7,0,0,0,100,0,0,0,0,7.68,11.2416,0.000625,1.92367e-06,1.65775,0.0159191,0.871983,63.6217,1568011651
0,7,0,0,0,100,0,0,0,0,7.84,11.0666,0.000625,1.92001e-06,1.52728,0.0157118,0.327814,63.5912,1568011746
0,7,0,0,0,100,0,0,0,0,7.76,11.1782,0.000625,2.01743e-06,1.35151,0.014568,1.37034,63.021,1568011834
0,7,0,0,0,100,0,0,0,0,8.35,10.4325,0.000625,1.93118e-06,2.69864,0.013261,0.796022,63.2963,1568011929
0,7,0,0,0,100,0,0,0,0,7.7,11.2377,0.000625,1.90089e-06,1.09281,0.014969,1.12961,62.877,1568012020
0,7,0,0,0,100,0,0,0,0,7.81,11.0636,0.000625,1.96162e-06,1.29636,0.0147861,0.264821,63.5771,1568012110
0,7,0,0,0,100,0,0,0,0,7.81,11.1291,0.000625,1.90628e-06,1.53433,0.0156945,0.511807,63.1535,1568012199
0,7,0,0,0,100,0,0,0,0,7.7,11.2106,0.000625,1.93691e-06,1.10293,0.0134155,0.949451,63.2992,1568012291
0,7,0,0,0,100,0,0,0,0,7.79,11.1387,0.000625,1.90017e-06,1.42586,0.014122,1.31005,62.8646,1568012383
0,7,0,0,0,100,0,0,0,0,7.9,11.0086,0.000625,1.95026e-06,1.87861,0.0154973,0.879297,63.1079,1568012476
0,7,0,0,0,100,0,0,0,0,7.71,11.2496,0.000625,1.97258e-06,1.15592,0.0166085,0.423514,62.9743,1568012561
0,7,0,0,0,100,0,0,0,0,7.71,11.2246,0.000625,1.99149e-06,1.23151,0.0159808,1.15227,63.2788,1568012657
0,7,0,0,0,100,0,0,0,0,7.64,11.2664,0.000625,1.92857e-06,0.667005,0.0145074,0.965215,62.8884,1568012748
0,8,0,0,0,100,0,0,0,0,7.97,10.8775,0.000625,1.87275e-06,1.67086,0.0156644,0.373817,63.1953,1568012840
0,8,0,0,0,100,0,0,0,0,7.87,11.0331,0.000625,1.91875e-06,1.72015,0.0165672,1.05796,63.0537,1568012931
0,8,0,0,0,100,0,0,0,0,7.83,11.093,0.000625,1.93026e-06,1.7961,0.0129884,0.385668,63.0161,1568013020
0,8,0,0,0,100,0,0,0,0,7.74,11.1923,0.000625,1.91965e-06,1.32288,0.0144437,1.19803,63.4821,1568013110
0,8,0,0,0,100,0,0,0,0,8.01,10.8951,0.000625,1.89795e-06,2.11791,0.0141129,0.374828,63.5181,1568013202
0,8,0,0,0,100,0,0,0,0,7.69,11.1986,0.000625,1.94475e-06,1.06158,0.0143873,1.24505,63.1355,1568013295
0,8,0,0,0,100,0,0,0,0,7.86,11.0533,0.000625,1.92624e-06,1.48211,0.0144761,1.31355,62.7791,1568013393
0,8,0,0,0,100,0,0,0,0,8.13,10.7163,0.000625,1.92663e-06,2.54891,0.0136141,1.18329,62.896,1568013484
0,8,0,0,0,100,0,0,0,0,7.83,11.0877,0.000625,1.9329e-06,1.60441,0.0147456,0.197059,62.9086,1568013576
0,8,0,0,0,100,0,0,0,0,7.78,11.1534,0.000625,1.96985e-06,1.45837,0.0147133,1.25069,63.5089,1568013663
0,8,0,0,0,100,0,0,0,0,7.7,11.2158,0.000625,1.92546e-06,1.08473,0.0134616,0.0919496,63.1367,1568013754
0,8,0,0,0,100,0,0,0,0,7.76,11.1639,0.000625,1.93964e-06,1.3081,0.0154536,0.954481,63.0978,1568013842
0,8,0,0,0,100,0,0,0,0,7.78,11.1577,0.000625,1.9706e-06,1.54145,0.0154353,0.643511,63.271,1568013930
0,8,0,0,0,100,0,0,0,0,7.69,11.2425,0.000625,1.9738e-06,1.087,0.0146329,0.919359,62.6981,1568014022
0,8,0,0,0,100,0,0,0,0,7.88,11.0307,0.000625,1.89001e-06,1.95344,0.014619,0.64502,62.9622,1568014113
0,8,0,0,0,100,0,0,0,0,7.77,11.1565,0.000625,1.90935e-06,1.2008,0.0156496,1.22213,62.5036,1568014200
0,8,0,0,0,100,0,0,0,0,7.72,11.162,0.000625,1.93754e-06,0.854657,0.0180698,1.19483,62.4242,1568014300
0,8,0,0,0,100,0,0,0,0,7.82,11.1048,0.000625,1.96863e-06,1.71327,0.0170285,0.455814,62.8491,1568014391
0,8,0,0,0,100,0,0,0,0,7.77,11.1613,0.000625,1.96312e-06,1.51519,0.0137562,1.20875,63.0994,1568014477
0,8,0,0,0,100,0,0,0,0,7.7,11.2411,0.000625,1.96262e-06,1.04357,0.0137669,1.45086,62.8272,1568014566
0,8,0,0,0,100,0,0,0,0,8.48,10.2704,0.000625,1.92369e-06,3.03511,0.0139375,0.0576923,62.966,1568014657
0,8,0,0,0,100,0,0,0,0,7.72,11.2249,0.000625,1.90841e-06,1.18339,0.0159462,1.27779,62.9983,1568014751
0,8,0,0,0,100,0,0,0,0,7.66,11.2789,0.000625,1.99789e-06,0.853106,0.0158411,1.20586,62.8373,1568014847
0,8,0,0,0,100,0,0,0,0,7.7,11.2264,0.000625,1.95537e-06,1.0798,0.0145075,1.12354,63.4103,1568014940
0,8,0,0,0,100,0,0,0,0,7.78,11.1113,0.000625,1.9121e-06,1.00416,0.0161334,0.66888,63.541,1568015031
0,8,0,0,0,100,0,0,0,0,7.8,11.1482,0.000625,1.91819e-06,1.90591,0.0159665,0.890505,63.7848,1568015131
0,8,0,0,0,100,0,0,0,0,7.82,11.1004,0.000625,1.90984e-06,1.63551,0.0145714,1.46602,63.2615,1568015225
0,8,0,0,0,100,0,0,0,0,7.67,11.229,0.000625,1.99539e-06,0.804431,0.016172,0.513221,63.5915,1568015318
0,8,0,0,0,100,0,0,0,0,7.7,11.25,0.000625,1.91368e-06,1.0705,0.0158308,0.97814,62.6897,1568015414
0,8,0,0,0,100,0,0,0,0,7.81,11.1156,0.000625,1.93529e-06,1.64581,0.0144929,0.317805,63.6168,1568015504
0,8,0,0,0,100,0,0,0,0,7.82,11.097,0.000625,1.89437e-06,1.44155,0.0151311,1.21899,63.6511,1568015592
0,8,0,0,0,100,0,0,0,0,7.73,11.1991,0.000625,1.97285e-06,1.23781,0.0156757,0.4694,63.1487,1568015681
0,8,0,0,0,100,0,0,0,0,7.64,11.2614,0.000625,2.01844e-06,0.818393,0.0134549,0.573092,63.0208,1568015774
0,8,0,0,0,100,0,0,0,0,7.9,11.0019,0.000625,1.93852e-06,1.79425,0.0147582,1.14215,62.5438,1568015863
0,8,0,0,0,100,0,0,0,0,7.67,11.2724,0.000625,1.94352e-06,0.997287,0.0143904,1.29636,62.9294,1568015951
0,8,0,0,0,100,0,0,0,0,7.83,11.0855,0.000625,1.93353e-06,1.61002,0.0140261,0.559874,62.7051,1568016047
0,8,0,0,0,100,0,0,0,0,7.8,11.1241,0.000625,1.95907e-06,1.55931,0.0143601,0.232924,63.8089,1568016132
0,8,0,0,0,100,0,0,0,0,7.84,11.0737,0.000625,1.93864e-06,1.54984,0.0145794,1.00778,63.5724,1568016225
0,8,0,0,0,100,0,0,0,0,7.85,11.0662,0.000625,1.94515e-06,1.69323,0.0177877,1.28226,62.3997,1568016313
0,8,0,0,0,100,0,0,0,0,7.81,11.1214,0.000625,1.98465e-06,1.54568,0.0152831,0.778398,63.6633,1568016402
0,8,0,0,0,100,0,0,0,0,8.25,10.5557,0.000625,1.93863e-06,2.44419,0.0142967,0.449765,62.6958,1568016496
0,8,0,0,0,100,0,0,0,0,7.72,11.2106,0.000625,1.96648e-06,1.32999,0.0125206,0.80038,63.3146,1568016590
0,8,0,0,0,100,0,0,0,0,7.78,11.1571,0.000625,1.9219e-06,1.32623,0.0142195,1.35522,63.191,1568016678
0,8,0,0,0,100,0,0,0,0,7.82,11.0958,0.000625,1.93916e-06,1.56054,0.0164859,0.666875,63.1568,1568016776
0,8,0,0,0,100,0,0,0,0,7.83,11.0736,0.000625,1.93754e-06,1.44055,0.0160625,0.484523,62.9087,1568016865
0,8,0,0,0,100,0,0,0,0,7.67,11.227,0.000625,1.96076e-06,0.818457,0.0165438,0.68831,62.7937,1568016957
0,8,0,0,0,100,0,0,0,0,7.65,11.2858,0.000625,1.97001e-06,1.01411,0.0158096,1.3306,63.6671,1568017048
0,8,0,0,0,100,0,0,0,0,7.66,11.282,0.000625,1.92841e-06,0.907746,0.0146741,1.02952,63.4653,1568017139
0,8,0,0,0,100,0,0,0,0,7.76,11.1802,0.000625,1.9836e-06,1.43421,0.0143764,1.59965,63.5558,1568017228
0,8,0,0,0,100,0,0,0,0,7.73,11.1998,0.000625,1.99714e-06,1.15276,0.0161384,0.910779,62.7956,1568017320
0,8,0,0,0,100,0,0,0,0,7.83,11.0867,0.000625,1.93285e-06,1.67096,0.0165489,0.394477,62.918,1568017407
0,8,0,0,0,100,0,0,0,0,7.9,10.9966,0.000625,1.9195e-06,1.73431,0.0155712,0.541717,62.4961,1568017495
0,8,0,0,0,100,0,0,0,0,7.85,11.0568,0.000625,1.93145e-06,1.64959,0.0165626,0.957572,63.6153,1568017590
0,8,0,0,0,100,0,0,0,0,7.79,11.1382,0.000625,1.93473e-06,1.52715,0.0150941,0.627474,63.7839,1568017679
0,8,0,0,0,100,0,0,0,0,7.78,11.149,0.000625,1.96093e-06,1.4934,0.0153797,0.19901,63.4162,1568017765
0,8,0,0,0,100,0,0,0,0,7.72,11.172,0.000625,1.92529e-06,0.908625,0.0171295,1.72502,62.9789,1568017850
0,8,0,0,0,100,0,0,0,0,7.72,11.1909,0.000625,1.95965e-06,1.35372,0.013237,0.9994,63.0091,1568017940
0,8,0,0,0,100,0,0,0,0,7.69,11.2478,0.000625,1.94749e-06,1.02808,0.0155554,1.22972,62.9574,1568018033
0,8,0,0,0,100,0,0,0,0,7.8,11.0964,0.000625,1.94939e-06,1.46105,0.0158934,0.60184,63.5222,1568018127
0,8,0,0,0,100,0,0,0,0,7.74,11.2078,0.000625,1.96793e-06,1.3047,0.0150229,0.521477,63.6039,1568018216
0,8,0,0,0,100,0,0,0,0,7.68,11.2214,0.000625,1.96669e-06,0.974498,0.0149265,0.609285,62.9981,1568018303
0,8,0,0,0,100,0,0,0,0,7.8,11.1312,0.000625,1.95765e-06,1.62365,0.0150303,1.49713,63.6261,1568018394
0,8,0,0,0,100,0,0,0,0,7.76,11.1753,0.000625,1.94284e-06,1.2029,0.0162445,1.12697,62.6998,1568018480
0,8,0,0,0,100,0,0,0,0,7.75,11.1856,0.000625,1.95532e-06,1.22019,0.0152017,1.20941,62.9362,1568018565
0,8,0,0,0,100,0,0,0,0,7.76,11.1227,0.000625,1.90664e-06,0.961365,0.0153982,1.16622,63.8075,1568018655
0,8,0,0,0,100,0,0,0,0,7.83,11.0819,0.000625,1.96141e-06,1.56877,0.0155069,1.6313,63.4884,1568018741
0,8,0,0,0,100,0,0,0,0,7.74,11.202,0.000625,1.98819e-06,1.33574,0.0139013,1.12748,63.1819,1568018829
0,8,0,0,0,100,0,0,0,0,7.68,11.2245,0.000625,1.91437e-06,0.900194,0.0150267,0.904891,62.9842,1568018918
0,8,0,0,0,100,0,0,0,0,7.74,11.1999,0.000625,1.94171e-06,1.3284,0.0152288,1.00913,62.549,1568019015
0,8,0,0,0,100,0,0,0,0,8.02,10.853,0.000625,1.92056e-06,2.4463,0.0148381,0.90821,63.1278,1568019103
0,8,0,0,0,100,0,0,0,0,7.82,11.0957,0.000625,1.93449e-06,1.55288,0.0159394,1.27769,63.6072,1568019198
0,8,0,0,0,100,0,0,0,0,7.67,11.2276,0.000625,1.94257e-06,0.865029,0.0144159,0.578092,62.713,1568019289
0,8,0,0,0,100,0,0,0,0,7.81,11.1146,0.000625,1.9432e-06,1.54037,0.0153891,1.50787,63.5072,1568019387
0,8,0,0,0,100,0,0,0,0,7.71,11.237,0.000625,1.95346e-06,1.14443,0.0133165,1.36771,63.0612,1568019473
0,8,0,0,0,100,0,0,0,0,7.69,11.2481,0.000625,1.99259e-06,1.19306,0.0144978,0.876239,62.7591,1568019561
0,8,0,0,0,100,0,0,0,0,7.72,11.2155,0.000625,1.93158e-06,1.22821,0.0158701,0.802621,62.7071,1568019654
0,8,0,0,0,100,0,0,0,0,7.74,11.1543,0.000625,1.93616e-06,1.11936,0.0147648,0.964236,63.5996,1568019751
0,8,0,0,0,100,0,0,0,0,7.9,11.0018,0.000625,1.95194e-06,1.66989,0.0149135,1.04371,63.4888,1568019843
0,8,0,0,0,100,0,0,0,0,7.75,11.186,0.000625,1.99115e-06,1.3949,0.0141249,0.660991,62.8818,1568019934
0,8,0,0,0,100,0,0,0,0,7.9,10.997,0.000625,1.94392e-06,1.74239,0.0133043,0.941196,62.979,1568020022
0,8,0,0,0,100,0,0,0,0,7.79,11.1413,0.000625,1.89438e-06,1.64207,0.0145096,0.926413,63.1668,1568020109
0,8,0,0,0,100,0,0,0,0,7.81,11.121,0.000625,1.95428e-06,1.67226,0.0155719,1.27624,62.7064,1568020196
0,8,0,0,0,100,0,0,0,0,7.8,11.1303,0.000625,1.93074e-06,1.53346,0.0157815,0.943092,62.4854,1568020282
0,8,0,0,0,100,0,0,0,0,7.78,11.1416,0.000625,1.94255e-06,1.40327,0.0151516,0.742498,63.3078,1568020370
0,8,0,0,0,100,0,0,0,0,7.67,11.2666,0.000625,1.93713e-06,0.899684,0.0141277,1.14787,63.1739,1568020460
0,8,0,0,0,100,0,0,0,0,8.55,10.1893,0.000625,1.9e-06,2.92756,0.0152038,0.546323,63.0243,1568020553
0,8,0,0,0,100,0,0,0,0,7.82,11.0901,0.000625,1.92667e-06,1.47918,0.014016,0.974319,63.3511,1568020644
0,8,0,0,0,100,0,0,0,0,7.7,11.1967,0.000625,1.93393e-06,1.12782,0.015353,1.29488,63.6015,1568020734
0,8,0,0,0,100,0,0,0,0,7.72,11.1916,0.000625,1.96393e-06,1.26646,0.0150891,0.848952,63.1478,1568020828
0,8,0,0,0,100,0,0,0,0,7.75,11.1713,0.000625,1.9094e-06,1.28719,0.0146128,0.973324,63.2227,1568020915
0,8,0,0,0,100,0,0,0,0,7.81,11.1106,0.000625,1.97204e-06,1.50652,0.0143305,1.26149,63.7969,1568021008
0,8,0,0,0,100,0,0,0,0,7.86,11.0571,0.000625,1.91023e-06,1.71162,0.0170635,0.576762,62.6886,1568021100
0,8,0,0,0,100,0,0,0,0,7.69,11.2629,0.000625,1.92143e-06,0.989825,0.0177871,0.461939,63.6975,1568021188
0,8,0,0,0,100,0,0,0,0,7.78,11.138,0.000625,1.91794e-06,1.41078,0.0132786,0.381742,62.97,1568021276
0,8,0,0,0,100,0,0,0,0,7.77,11.1554,0.000625,1.9398e-06,1.22606,0.0157114,1.23572,63.2965,1568021366
0,8,0,0,0,100,0,0,0,0,7.64,11.2667,0.000625,1.94382e-06,0.69529,0.0152133,1.16606,63.17,1568021461
0,8,0,0,0,100,0,0,0,0,7.78,11.109,0.000625,1.94406e-06,1.13729,0.0153161,1.01764,62.9815,1568021553
0,8,0,0,0,100,0,0,0,0,7.88,11.0231,0.000625,1.95669e-06,1.61752,0.0140451,1.32057,63.0792,1568021639
0,8,0,0,0,100,0,0,0,0,7.82,11.0996,0.000625,1.99517e-06,1.6436,0.0144497,0.505076,62.7946,1568021730
0,8,0,0,0,100,0,0,0,0,7.72,11.2114,0.000625,2.00132e-06,1.14922,0.0161661,1.08653,63.0049,1568021819
