Rain Rate,Dust Rate,Droput Rate,RTK Error,Lidar Error,Timed Out,Anvel Dropped,Collision,RolledOver,Simulation Time,Effective Speed,Point Cloud Error,Odometry Error,Path Error,Grid Error,Obstacle Error,Detection Range
0,0,0,200,0,0,0,0,0,7.83,11.0732,0,0.347751,1.69822,0.0145658,3.40282e+38,-1
0,0,0,200,0,0,0,1,0,6.72,6.50698,0,0.356997,1.36004,0.0136164,3.40282e+38,-1
0,0,0,200,0,0,0,0,0,7.79,11.1125,0,0.353015,1.70706,0.0135145,3.40282e+38,-1
0,0,0,200,0,0,0,0,0,7.85,11.0561,0,0.332772,1.74431,0.0147317,3.40282e+38,-1
0,0,0,200,0,0,0,0,0,7.86,11.0376,0,0.338006,1.69308,0.015062,3.40282e+38,-1
0,0,0,200,0,0,0,0,0,7.83,11.0624,0,0.344699,1.86554,0.0146406,3.40282e+38,-1
0,0,0,200,0,0,0,0,0,7.78,11.1235,0,0.351218,1.55871,0.0145095,3.40282e+38,-1
0,0,0,200,0,0,0,0,0,8.1,10.698,0,0.328504,1.64565,0.0145169,1.09732,45.0278
0,0,0,200,0,0,0,0,0,7.76,11.1564,0,0.347932,1.55894,0.0141355,3.40282e+38,-1
0,0,0,200,0,0,0,0,0,7.82,11.0831,0,0.346966,1.66342,0.0144819,3.40282e+38,-1
0,0,0,400,0,0,0,0,0,7.8,11.123,0,0.658085,2.54639,0.0137764,3.40282e+38,-1
0,0,0,400,0,0,0,0,0,7.7,11.2457,0,0.689199,2.47743,0.0134451,3.40282e+38,-1
0,0,0,400,0,0,0,0,0,7.77,11.1651,0,0.695938,2.64658,0.0144984,3.40282e+38,-1
0,0,0,400,0,0,0,0,1,90,0,0,0.714003,1.43942,0.0133341,1.25,92.7575
0,0,0,400,0,0,0,0,0,7.83,11.0841,0,0.695669,2.7288,0.014159,3.40282e+38,-1
0,0,0,400,0,0,0,0,1,33.8,0.0224967,0,0.669027,43.7085,0.0973191,0.617147,99.5443
0,0,0,400,0,0,0,0,0,7.79,11.1188,0,0.670209,3.05657,0.0139165,3.40282e+38,-1
0,0,0,400,0,0,0,0,0,7.84,11.0579,0,0.68802,2.69188,0.0135712,3.40282e+38,-1
0,0,0,400,0,0,0,0,0,7.72,11.2167,0,0.652733,2.32932,0.0133797,3.40282e+38,-1
0,0,0,400,0,0,0,0,1,90,0,0,0.678381,8.98799,0.0339234,1.02752,96.8321
0,0,0,600,0,0,0,0,0,7.57,11.4713,0,1.04049,3.45312,0.0135374,3.40282e+38,-1
0,0,0,600,0,0,0,0,0,13.12,6.66045,0,1.03019,7.19875,0.0226093,0.718281,104.339
0,0,0,600,0,0,0,0,0,7.6,11.4069,0,1.01878,3.21564,0.0136779,3.40282e+38,-1
0,0,0,600,0,0,0,0,0,7.57,11.406,0,1.01137,2.92563,0.0135138,3.40282e+38,-1
0,0,0,600,0,0,0,0,0,7.6,11.4108,0,1.08988,3.25077,0.0137129,3.40282e+38,-1
0,0,0,600,0,0,0,0,0,7.88,10.9503,0,1.0217,3.25505,0.0149515,0.0964109,41.1094
0,0,0,600,0,0,0,0,0,7.6,11.4258,0,1.04602,3.43337,0.0136109,3.40282e+38,-1
0,0,0,600,0,0,0,0,0,13,6.64131,0,1.06173,3.70857,0.0148187,2.9171,51.276
0,0,0,600,0,0,0,0,0,7.64,11.3299,0,1.02839,3.42981,0.0145493,3.40282e+38,-1
0,0,0,600,0,0,0,0,0,7.56,11.4405,0,1.05954,3.02884,0.0138275,3.40282e+38,-1
0,0,0,800,0,0,0,0,0,7.56,11.5084,0,1.38666,4.19059,0.0140535,3.32039,35.9819
0,0,0,800,0,0,0,0,0,7.58,11.4511,0,1.35938,3.91983,0.0139332,3.28824,13.4481
0,0,0,800,0,0,0,0,0,7.56,11.4825,0,1.40683,4.06666,0.0138032,3.40282e+38,-1
0,0,0,800,0,0,0,0,0,7.76,11.1161,0,1.36668,3.57708,0.0140394,3.69121,64.8389
0,0,0,800,0,0,0,0,0,7.54,11.5062,0,1.34669,3.91626,0.0139504,3.4821,31.8012
0,0,0,800,0,0,0,0,1,90,0,0,1.30848,2.56267,0.0134843,3.40282e+38,-1
0,0,0,800,0,0,0,0,0,7.54,11.5188,0,1.31992,3.97895,0.013784,3.40282e+38,-1
0,0,0,800,0,0,0,0,0,7.57,11.4878,0,1.37182,4.16469,0.0137416,3.55317,72.6279
0,0,0,800,0,0,0,0,0,7.52,11.5545,0,1.35057,3.87917,0.0138097,3.4821,31.9026
0,0,0,800,0,0,0,0,0,7.55,11.4979,0,1.3352,3.89237,0.014206,3.40282e+38,-1
0,0,0,1000,0,0,0,0,0,7.86,11.0735,0,1.77647,5.07395,0.0155532,3.31165,37.3689
0,0,0,1000,0,0,0,0,0,7.61,11.4357,0,1.75905,5.10573,0.0145439,3.6305,32.5426
0,0,0,1000,0,0,0,0,0,7.61,11.4427,0,1.5918,4.59896,0.0145283,3.4821,9.89688
0,0,0,1000,0,0,0,1,0,6,7.31956,0,1.69517,2.74677,0.0152975,3.05769,53.0316
0,0,0,1000,0,0,0,0,0,7.61,11.4546,0,1.64972,4.8277,0.0144389,3.95285,49.5804
0,0,0,1000,0,0,0,0,0,7.6,11.4407,0,1.66071,4.70451,0.014413,3.30194,10.9048
0,0,0,1000,0,0,0,0,0,7.61,11.4255,0,1.62754,4.43208,0.0144239,3.57946,36.6532
0,0,0,1000,0,0,0,0,0,7.6,11.4384,0,1.63947,4.86252,0.0145062,3.30955,0.192747
0,0,0,1000,0,0,0,0,0,7.8,11.1417,0,1.63633,4.69834,0.0146184,3.28824,23.9728
0,0,0,1000,0,0,0,0,1,7.66,11.109,0,1.8205,5.01316,0.0154739,3.4821,0.630163
0,0,0,1200,0,0,0,0,0,7.61,11.4469,0,2.02305,5.7699,0.0152631,3.39779,7.74719
0,0,0,1200,0,0,0,0,0,7.73,11.2424,0,2.02199,4.39757,0.0155126,3.25008,76.6691
0,0,0,1200,0,0,0,0,0,7.62,11.434,0,2.03714,5.86684,0.0154,3.10147,80.2646
0,0,0,1200,0,0,0,0,0,8.11,10.6542,0,1.9068,4.70747,0.0163499,1.35458,56.2749
0,0,0,1200,0,0,0,0,0,7.94,10.9009,0,2.09757,4.12132,0.01647,2.14332,42.7176
0,0,0,1200,0,0,0,0,0,7.7,11.2166,0,2.09023,5.13338,0.0166419,3.10118,90.6311
0,0,0,1200,0,0,0,0,1,90,0,0,2.0325,3.19525,0.0161662,3.40282e+38,-1
0,0,0,1200,0,0,0,0,0,7.66,11.3378,0,2.01363,4.31033,0.0147086,3.77308,17.638
0,0,0,1200,0,0,0,0,1,90,0,0,2.11612,3.24377,0.0143662,0.65192,100.713
0,0,0,1200,0,0,0,0,0,8.04,10.7693,0,2.07911,3.60368,0.017859,3.34963,41.623
0,0,0,1400,0,0,0,0,0,7.72,11.2918,0,2.42175,5.6491,0.0159342,3.19349,48.1373
0,0,0,1400,0,0,0,0,0,8.61,10.1091,0,2.48725,6.52962,0.0173338,2.97607,49.9808
0,0,0,1400,0,0,0,0,0,7.68,11.3639,0,2.42358,6.77576,0.016467,3.06741,74.0182
0,0,0,1400,0,0,0,0,0,7.67,11.3657,0,2.35719,5.74709,0.0170035,3.31115,42.673
0,0,0,1400,0,0,0,0,0,7.7,11.326,0,2.42558,6.52013,0.0162002,2.93987,63.9904
0,0,0,1400,0,0,0,0,0,7.73,11.2893,0,2.36034,5.86362,0.0159924,3.05955,81.2301
0,0,0,1400,0,0,0,0,1,2.43,6.69094,0,2.35595,2.5453,0.0157783,0.929624,82.9125
0,0,0,1400,0,0,0,0,1,90,0,0,2.55205,4.30612,0.0179307,0.283364,75.5301
0,0,0,1400,0,0,0,0,1,7.22,10.1988,0,2.35668,4.01186,0.0176216,3.05732,37.0599
0,0,0,1400,0,0,0,0,0,7.69,11.3342,0,2.22085,5.98809,0.0164559,3.16228,61.0664
