Rain Rate,Dust Rate,Droput Rate,RTK Error,Lidar Error,Timed Out,Anvel Dropped,Collision,RolledOver,Simulation Time,Effective Speed,Point Cloud Error,Odometry Error,Path Error,Grid Error,Obstacle Error,Detection Range,Random Seed
0,0,18,800,0,0,0,0,0,8.24,10.314,0,3.38262,1.80494,0.0280118,2.33072,99.514,1565844275
0,0,18,800,0,0,0,0,0,8.05,10.436,0,2.80996,2.59084,0.0256353,0.525376,178.918,1565844319
0,0,18,800,0,0,0,1,0,4.06,10.7738,0,1.41313,1.99651,0.0185993,0.949741,128.198,1565844363
0,0,18,800,0,0,0,0,0,8.3,10.077,0,3.85665,4.10392,0.0300991,2.43603,76.9284,1565844399
0,0,18,800,0,0,0,0,0,7.79,11.1032,0,1.26618,3.16682,0.0185407,1.43717,124.767,1565844444
0,0,18,800,0,0,0,0,0,8.82,9.76019,0,1.55099,9.56471,0.0202741,1.34226,106.207,1565844486
0,0,18,800,0,0,0,0,0,7.6,11.4748,0,1.11551,1.63719,0.0178521,0.524023,120.629,1565844532
0,0,18,800,0,1,0,0,0,90,0,0,2.5291,9.49116,0.0250871,3.40282e+38,-1,1565844574
0,0,18,800,0,0,0,0,0,7.8,11.0655,0,1.15691,2.12193,0.0164112,1.38734,120.186,1565844720
0,0,18,800,0,0,0,0,0,7.6,11.3465,0,1.42808,2.05842,0.0176499,0.763399,124.397,1565844763
0,0,18,800,0,0,0,0,0,8.2,11.4217,0,2.77822,4.95195,0.0276585,3.71652,52.7334,1565844804
0,0,18,800,0,0,0,0,0,7.58,11.3755,0,1.03679,1.99863,0.0165479,0.416667,127.21,1565844845
0,0,18,800,0,0,0,0,0,8.91,9.63197,0,3.60311,3.68262,0.0315894,1.94431,117.58,1565844887
0,0,18,800,0,0,0,0,0,7.55,11.4776,0,1.01562,1.62982,0.0181042,0.742706,81.9978,1565844932
0,0,18,800,0,0,0,0,0,8.37,10.2977,0,1.88856,5.26801,0.0246781,1.46015,119.089,1565844973
0,0,18,800,0,0,0,0,0,13.28,6.55487,0,1.37594,3.28809,0.0203102,1.04506,113.4,1565845018
0,0,18,800,0,0,0,0,1,3.8,9.82073,0,4.15523,2.28192,0.0347424,0.984901,174.633,1565845080
0,0,18,800,0,0,0,0,0,7.65,11.2854,0,0.641174,1.53036,0.0141895,0.270228,122.908,1565845116
0,0,18,800,0,0,0,0,0,7.61,11.3588,0,1.36428,3.14799,0.0179336,0.7075,119.34,1565845159
0,0,18,800,0,0,0,0,0,7.58,11.5971,0,1.42567,4.01108,0.0216231,0.911811,60.9125,1565845200
0,0,36,800,0,0,0,0,0,8.29,10.4115,0,3.19539,5.61096,0.0275812,0.853531,151.936,1565845241
0,0,36,800,0,0,0,0,0,7.82,11.0392,0,1.09295,1.85507,0.0160189,1.24882,119.574,1565845285
0,0,36,800,0,0,0,0,1,90,0,0,1.16816,29.4,0.0218292,3.40282e+38,158.472,1565845327
0,0,36,800,0,0,0,0,0,7.5,11.7624,0,1.70928,5.98703,0.0231335,0.899701,68.8987,1565845374
0,0,36,800,0,0,0,0,0,7.59,11.4382,0,0.82233,2.04245,0.0158417,1.00642,93.5026,1565845415
0,0,36,800,0,0,0,0,0,14,6.14591,0,1.44519,1.93932,0.0195464,1.61063,124.966,1565845456
0,0,36,800,0,0,0,0,0,14,6.16009,0,2.01418,9.42863,0.022509,0.84899,84.2333,1565845521
0,0,36,800,0,0,0,1,0,4.08,10.7599,0,1.49288,2.62664,0.024487,0.797796,50.0094,1565845590
0,0,36,800,0,0,0,0,0,7.95,10.986,0,3.51691,6.50008,0.0313899,1.66992,72.2739,1565845624
0,0,36,800,0,0,0,0,0,7.52,11.6299,0,1.21073,2.69624,0.01896,1.25905,57.5898,1565845666
0,0,36,800,0,0,0,0,0,7.9,11.0876,0,1.4522,3.01213,0.0208561,0.567878,89.5449,1565845708
0,0,36,800,0,0,0,0,0,8.16,11.5202,0,3.98143,8.29903,0.0294431,0.874251,63.0949,1565845750
0,0,36,800,0,0,0,0,0,7.7,11.2589,0,0.5769,2.18103,0.0127995,0.426992,87.7616,1565845791
0,0,36,800,0,0,0,0,0,7.75,11.1377,0,0.880798,2.42576,0.0142411,1.12673,121.918,1565845832
0,0,36,800,0,0,0,0,1,90,0,0,2.16876,3.8221,0.0260264,3.40037,122.643,1565845874
0,0,36,800,0,0,0,0,0,7.81,11.102,0,1.37915,3.07328,0.0184218,1.34371,124.837,1565845898
0,0,36,800,0,0,0,0,1,90,0,0,1.43726,20.9272,0.0212867,3.40282e+38,-1,1565845941
0,0,36,800,0,0,0,1,0,4.06,10.9757,0,1.38014,1.293,0.0181998,0.823844,87.2342,1565846054
0,0,36,800,0,0,0,0,0,7.88,10.9198,0,1.52533,3.27851,0.0187165,1.38475,121.465,1565846090
0,0,36,800,0,0,0,0,0,14.28,6.04022,0,1.46117,4.98231,0.0181653,1.22123,116.996,1565846132
0,0,54,800,0,0,0,0,0,7.8,11.0702,0,1.20979,1.7007,0.0185348,1.45472,126.09,1565846199
0,0,54,800,0,0,0,0,1,90,0,0,1.1091,37.9967,0.0200088,0.666667,139.098,1565846241
0,0,54,800,0,0,0,0,0,7.64,11.3391,0,0.771425,2.66884,0.0169068,0.932075,125.825,1565846308
0,0,54,800,0,0,0,1,0,4.17,10.4639,0,1.77553,1.53873,0.0178968,1.67705,134.801,1565846349
0,0,54,800,0,0,0,0,0,7.9,10.9164,0,1.36398,2.85549,0.0170011,1.51056,125.978,1565846387
0,0,54,800,0,0,0,0,0,7.77,11.1768,0,0.989592,2.35849,0.0177464,1.02591,120.703,1565846430
0,0,54,800,0,0,0,0,0,7.7,11.1986,0,1.21595,2.19202,0.0165132,1.19505,123.148,1565846471
0,0,54,800,0,0,0,0,0,7.8,11.0825,0,0.756936,1.80882,0.0121856,0.905105,123.047,1565846513
0,0,54,800,0,0,0,0,0,7.5,11.5615,0,1.06583,2.58509,0.0165452,0.881535,87.2114,1565846556
0,0,54,800,0,0,0,0,0,10.51,8.04574,0,1.97742,2.71514,0.0213905,1.86629,121.986,1565846597
0,0,54,800,0,0,0,0,0,7.85,11.0041,0,1.52195,3.60752,0.0183021,1.38808,117.433,1565846645
0,0,54,800,0,0,0,0,1,90,0,0,1.76347,15.8239,0.0237138,3.40282e+38,-1,1565846688
0,0,54,800,0,0,0,0,0,7.5,11.5204,0,1.41699,2.84587,0.0187407,1.02956,120.426,1565846806
0,0,54,800,0,0,0,0,0,7.72,11.3331,0,1.45107,3.54448,0.0206282,0.845992,122.668,1565846846
0,0,54,800,0,0,0,0,0,7.79,11.1066,0,0.869649,3.29121,0.0169505,1.21087,121.125,1565846887
0,0,54,800,0,0,0,0,0,7.68,11.223,0,1.32523,2.84968,0.0200448,0.767787,60.6468,1565846928
0,0,54,800,0,0,0,0,0,9.41,9.15646,0,0.752204,1.65242,0.014927,0.483528,127.713,1565846970
0,0,54,800,0,0,0,0,0,7.97,10.9367,0,1.64798,3.96589,0.0193754,0.663076,124.458,1565847014
0,0,54,800,0,0,0,0,0,7.42,11.6984,0,1.48788,3.59215,0.0197536,1.2015,120.879,1565847056
0,0,54,800,0,0,0,0,0,7.51,11.696,0,1.60761,4.63173,0.0206568,1.30403,90.1531,1565847096
0,0,72,800,0,0,0,0,0,7.89,10.9456,0,1.50292,2.86297,0.0197287,1.66817,126.325,1565847135
0,0,72,800,0,0,0,1,0,4.18,10.6776,0,1.4848,2.14573,0.0185755,0.754321,123.705,1565847179
0,0,72,800,0,0,0,0,1,5.25,10.5244,0,1.88141,2.86264,0.0228744,0.43676,87.4087,1565847214
0,0,72,800,0,0,0,0,1,8.02,10.9843,0,1.86615,2.78703,0.0253298,2.09624,82.2057,1565847252
0,0,72,800,0,0,0,0,0,7.51,11.5071,0,1.53303,3.5303,0.0225722,1.42348,86.2178,1565847294
0,0,72,800,0,0,0,0,0,7.95,10.8722,0,1.40061,1.72658,0.0190375,1.54286,129.437,1565847335
0,0,72,800,0,0,0,0,0,7.74,11.0927,0,1.62293,3.68589,0.0196309,1.86118,123.464,1565847378
0,0,72,800,0,0,0,0,0,7.6,11.3689,0,0.623792,1.39661,0.0149191,0.480769,87.9575,1565847420
0,0,72,800,0,0,0,0,0,7.55,11.3955,0,1.23631,2.36933,0.0167754,0.640815,109.902,1565847462
0,0,72,800,0,0,0,0,0,7.8,11.0523,0,1.90428,2.40543,0.0210803,0.912688,120.019,1565847503
0,0,72,800,0,0,0,0,0,7.5,11.5742,0,0.925394,2.57586,0.0154548,0.790193,95.7928,1565847546
0,0,72,800,0,0,0,0,0,14.61,5.91016,0,1.40868,8.61908,0.0180956,1.26269,117.266,1565847586
0,0,72,800,0,0,0,0,0,14.69,5.89172,0,1.21137,8.72099,0.0186902,1.068,117.789,1565847652
0,0,72,800,0,0,0,0,0,7.7,11.2471,0,0.7693,2.56749,0.0137921,0.762758,115.829,1565847719
0,0,72,800,0,0,0,0,1,49.03,1.66027,0,0.994518,18.527,0.0234106,0.855132,175.697,1565847761
0,0,72,800,0,0,0,0,0,7.9,11.1443,0,1.14753,3.5195,0.0189065,1.17148,173.718,1565847889
0,0,72,800,0,0,0,0,0,7.52,11.5722,0,1.37794,1.70747,0.0200008,1.27159,85.3425,1565847932
0,0,72,800,0,0,0,0,1,60.02,2.63394,0,2.19624,14.265,0.0395352,1.03347,61.5158,1565847973
0,0,72,800,0,0,0,1,0,4.02,10.9126,0,1.52305,2.4791,0.0164999,0.688499,118.843,1565848106
0,0,72,800,0,0,0,0,0,8.01,10.8164,0,1.77267,2.68326,0.0228142,2.99272,126.588,1565848141
0,0,90,800,0,0,0,0,0,7.95,10.9773,0,1.93679,6.81427,0.0213891,0.13132,170.507,1565848184
0,0,90,800,0,0,0,0,0,7.82,11.0462,0,1.55208,4.68023,0.0193099,1.30175,124.994,1565848226
0,0,90,800,0,0,0,0,0,13.18,6.63084,0,1.48935,6.63666,0.0220779,0.825024,101.747,1565848269
0,0,90,800,0,0,0,0,0,7.85,11.0002,0,1.4326,3.83049,0.0168278,1.53573,122.831,1565848341
0,0,90,800,0,0,0,0,0,7.67,11.2996,0,0.107635,0.894971,0.00977824,1.64383,174.752,1565848384
0,0,90,800,0,0,0,0,0,42.21,2.10871,0,1.04538,31.0802,0.0317458,0.126724,97.6703,1565848426
0,0,90,800,0,0,0,0,1,90,0,0,1.217,3.78245,0.0187834,0.920447,150.663,1565848558
0,0,90,800,0,0,0,0,0,14.32,6.02445,0,1.04524,6.47251,0.0181351,1.11803,118.768,1565848579
0,0,90,800,0,0,0,0,1,67.36,0.302594,0,0.75637,18.9848,0.0657539,1.52967,106.729,1565848646
0,0,90,800,0,0,0,0,1,2.63,7.23311,0,1.81626,2.02713,0.0302684,0.818845,89.9993,1565848789
0,0,90,800,0,0,0,0,1,90,0,0,1.86382,11.9019,0.0253659,0.336076,90.3856,1565848823
0,0,90,800,0,0,0,0,0,7.95,10.9425,0,2.08381,3.74715,0.0238426,1.78919,52.8389,1565848853
0,0,90,800,0,0,0,0,0,7.5,11.5431,0,1.42575,3.11171,0.0240743,1.39171,121.277,1565848896
0,0,90,800,0,0,0,0,0,7.8,11.1359,0,1.19472,3.46947,0.0184631,1.38048,125.16,1565848938
0,0,90,800,0,0,0,0,0,7.78,11.1537,0,0.72751,1.71477,0.014163,0.76291,122.988,1565848979
0,0,90,800,0,0,0,0,0,7.5,11.6296,0,1.35698,3.18145,0.0190206,1.20919,123.863,1565849021
0,0,90,800,0,1,0,0,0,74.89,0.851122,0,1.28343,24.3333,0.0440673,2.58922,48.8387,1565849062
0,0,90,800,0,0,0,1,0,4.09,10.8348,0,1.07292,1.82665,0.0153475,1.52018,120.46,1565849219
0,0,90,800,0,0,0,0,0,7.92,10.9202,0,1.21154,2.48904,0.0175598,1.28098,124.476,1565849254
0,0,90,800,0,0,0,0,0,14.7,5.88689,0,1.5223,10.616,0.0202473,0.831986,116.915,1565849296
0,0,108,800,0,1,0,0,0,90,0,0,1.21948,15.9702,0.0202629,3.40282e+38,-1,1565849364
0,0,108,800,0,0,0,0,1,90,0,0,2.11056,1.8515,0.0201069,3.40282e+38,-1,1565849513
0,0,108,800,0,0,0,0,0,7.74,11.1217,0,0.316709,0.840738,0.0131463,0.217242,121.273,1565849531
0,0,108,800,0,0,0,0,1,90,0,0,2.60598,2.6683,0.0195066,3.40282e+38,-1,1565849574
0,0,108,800,0,0,0,0,0,7.73,11.1574,0,1.37903,3.4284,0.01699,0.922566,124.941,1565849593
0,0,108,800,0,0,0,0,0,8.22,10.5613,0,2.05966,4.03683,0.0258568,1.15421,174.935,1565849635
0,0,108,800,0,0,0,0,0,8.66,10.0128,0,1.8793,4.16945,0.0284578,1.1172,111.093,1565849678
0,0,108,800,0,0,0,0,0,7.79,11.0631,0,1.33861,1.88275,0.0202405,1.64645,129.078,1565849724
0,0,108,800,0,0,0,0,1,90,0,0,1.4171,2.42142,0.0203793,0.806034,94.1891,1565849767
0,0,108,800,0,0,0,0,1,90,0,0,2.02369,3.21446,0.0295833,0.265999,172.506,1565849793
0,0,108,800,0,0,0,0,0,7.97,10.8471,0,1.66033,2.00044,0.0214511,1.63007,135.711,1565849816
0,0,108,800,0,0,0,1,0,4.05,10.7593,0,1.56375,1.09913,0.0174798,1.58154,127.883,1565849860
0,0,108,800,0,0,0,0,0,7.83,11.2582,0,1.95036,6.13538,0.0216334,1.29547,87.2293,1565849897
0,0,108,800,0,0,0,0,0,7.5,11.592,0,1.38926,3.02003,0.0208294,1.251,80.3101,1565849937
0,0,108,800,0,0,0,1,0,4.01,10.9965,0,0.705164,1.54475,0.0135319,0.754615,119.083,1565849978
0,0,108,800,0,0,0,0,0,7.9,11.0292,0,1.69079,4.2485,0.0225184,1.60908,125.187,1565850014
0,0,108,800,0,0,0,0,0,7.7,11.3738,0,1.41374,3.93093,0.0208917,0.818917,76.3859,1565850056
0,0,108,800,0,0,0,0,1,90,0,0,1.45068,2.49182,0.0224695,3.40282e+38,167.085,1565850098
0,0,108,800,0,0,0,0,1,90,0,0,1.22896,12.9075,0.0435241,0.901388,130.85,1565850119
0,0,108,800,0,0,0,0,1,90,0,0,2.44692,3.75616,0.0228069,2.85044,164.748,1565850150
0,0,126,800,0,0,0,0,1,13.82,0.619155,0,1.19731,11.0999,0.0311668,1.31045,66.1939,1565850169
0,0,126,800,0,0,0,0,0,7.73,11.1795,0,1.13282,2.29662,0.0163687,1.4566,124.695,1565850224
0,0,126,800,0,0,0,0,0,7.56,11.394,0,1.26854,4.18131,0.0197974,0.977446,59.8789,1565850266
0,0,126,800,0,0,0,0,0,13.82,6.23421,0,1.24314,4.26876,0.016951,1.55042,120.044,1565850307
0,0,126,800,0,0,0,0,0,7.88,11.004,0,1.37105,1.40658,0.017793,1.205,130.708,1565850373
0,0,126,800,0,0,0,0,0,7.72,11.2105,0,0.814614,1.98662,0.0155462,1.09602,121.699,1565850416
0,0,126,800,0,0,0,0,0,7.9,10.9301,0,1.35647,2.79132,0.0205012,0.623891,176.276,1565850457
0,0,126,800,0,0,0,0,0,7.84,10.9909,0,1.42488,2.78656,0.0187496,1.81239,124.275,1565850499
0,0,126,800,0,0,0,0,0,7.7,11.2526,0,1.27124,2.04467,0.0182411,1.39291,125.229,1565850542
0,0,126,800,0,0,0,0,0,7.96,11.1199,0,1.39536,4.26123,0.0192959,1.11072,171.314,1565850584
0,0,126,800,0,0,0,0,0,7.83,11.1453,0,1.80221,4.17792,0.0221311,1.23069,119.324,1565850628
0,0,126,800,0,0,0,0,0,13.46,6.39683,0,1.35679,1.58041,0.0189992,0.477963,111.96,1565850670
0,0,126,800,0,0,0,0,0,8,10.8079,0,1.8026,3.64903,0.0232346,1.65922,127.121,1565850733
0,0,126,800,0,0,0,0,0,7.77,11.1382,0,1.58084,2.71507,0.0203683,1.49967,125.774,1565850775
0,0,126,800,0,0,0,0,0,7.56,11.447,0,1.37405,1.64451,0.0196144,1.16409,120.803,1565850817
0,0,126,800,0,0,0,0,0,7.6,11.3572,0,0.426837,0.915243,0.0127142,0.344853,127.233,1565850859
0,0,126,800,0,0,0,0,0,9.71,8.88092,0,1.46142,5.94057,0.020332,0.630971,134.874,1565850901
0,0,126,800,0,0,0,0,0,13.78,6.25843,0,1.07564,3.68223,0.0197964,0.901388,114.876,1565850951
0,0,126,800,0,0,0,0,0,7.91,10.9323,0,0.906938,1.78383,0.0161907,1.23674,123.685,1565851016
0,0,126,800,0,0,0,0,0,7.52,11.6355,0,1.20914,3.78439,0.017866,1.11418,82.1517,1565851059
