Squeeze Rain,,,,,,,,,,,,,,,,,,
,Rain.Rate,Dust.Rate,Droput.Rate,RTK.Error,Lidar.Error,Stereo.QF,Timed.Out,Collision,RolledOver,Simulation.Time,Effective.Speed,Point.Cloud.Error,Odometry.Error,Path.Error,Grid.Error,Obstacle.Error,Detection.Range,Failure
Rain.Rate,1,NA,NA,NA,NA,NA,NA,0.438314501,-0.105880477,-0.182118255,0.104708277,0.92519918,NA,-0.28095537,0.197495733,-0.026764386,-0.908510518,0.356300418
Dust.Rate,,1,NA,NA,NA,NA,NA,NA,NA,NA,NA,NA,NA,NA,NA,NA,NA,NA
Droput.Rate,,,1,NA,NA,NA,NA,NA,NA,NA,NA,NA,NA,NA,NA,NA,NA,NA
RTK.Error,,,,1,NA,NA,NA,NA,NA,NA,NA,NA,NA,NA,NA,NA,NA,NA
Lidar.Error,,,,,1,NA,NA,NA,NA,NA,NA,NA,NA,NA,NA,NA,NA,NA
Stereo.QF,,,,,,1,NA,NA,NA,NA,NA,NA,NA,NA,NA,NA,NA,NA
Timed.Out,,,,,,,1,NA,NA,NA,NA,NA,NA,NA,NA,NA,NA,NA
Collision,,,,,,,,1,-0.135430035,-0.368897038,0.100924191,0.28971359,NA,-0.447472133,0.103074453,-0.029844939,-0.3636446,0.866381329
RolledOver,,,,,,,,,1,0.264019194,-0.630776396,-0.128054852,NA,0.314720794,0.045214102,0.220371645,0.012155881,0.377448099
Simulation.Time,,,,,,,,,,1,-0.590608726,-0.166157593,NA,0.270956906,-0.02535316,0.901300138,-0.084859755,-0.211713835
Effective.Speed,,,,,,,,,,,1,0.109696019,NA,-0.512715287,0.001092822,-0.432662924,0.027309361,-0.223600162
Point.Cloud.Error,,,,,,,,,,,,1,NA,-0.223870494,0.29362136,-0.074026455,-0.879429994,0.206235337
Odometry.Error,,,,,,,,,,,,,1,NA,NA,NA,NA,NA
Path.Error,,,,,,,,,,,,,,1,-0.048792784,-0.038184397,0.27215564,-0.259598436
Grid.Error,,,,,,,,,,,,,,,1,0.021990871,-0.191663467,0.119126792
Obstacle.Error,,,,,,,,,,,,,,,,1,-0.246455813,0.083178858
Detection.Range,,,,,,,,,,,,,,,,,1,-0.33375051
Failure,,,,,,,,,,,,,,,,,,1
