Squeeze Dust,,,,,,,,,,,,,,,,,,
,Rain.Rate,Dust.Rate,Droput.Rate,RTK.Error,Lidar.Error,Stereo.QF,Timed.Out,Collision,RolledOver,Simulation.Time,Effective.Speed,Point.Cloud.Error,Odometry.Error,Path.Error,Grid.Error,Obstacle.Error,Detection.Range,Failure
Rain.Rate,1,NA,NA,NA,NA,NA,NA,NA,NA,NA,NA,NA,NA,NA,NA,NA,NA,NA
Dust.Rate,,1,NA,NA,NA,NA,-0.076471911,-0.039282289,0.014971826,-0.026814121,0.040515969,0.831663848,NA,-0.04190394,-0.003018834,0.002928901,-0.518184457,-0.0036758
Droput.Rate,,,1,NA,NA,NA,NA,NA,NA,NA,NA,NA,NA,NA,NA,NA,NA,NA
RTK.Error,,,,1,NA,NA,NA,NA,NA,NA,NA,NA,NA,NA,NA,NA,NA,NA
Lidar.Error,,,,,1,NA,NA,NA,NA,NA,NA,NA,NA,NA,NA,NA,NA,NA
Stereo.QF,,,,,,1,NA,NA,NA,NA,NA,NA,NA,NA,NA,NA,NA,NA
Timed.Out,,,,,,,1,-0.005632485,-0.029481796,0.365902311,-0.210898109,-0.08472783,NA,0.782433266,-0.043974307,-0.004703552,0.043630086,0.081798775
Collision,,,,,,,,1,-0.066256249,-0.066124355,0.035828943,0.040552414,NA,-0.057973461,0.004133603,-0.010570582,0.058143705,0.183831402
RolledOver,,,,,,,,,1,0.130248988,-0.525972242,-0.044958464,NA,0.02298278,0.206675847,0.1595409,-0.029743327,0.962218346
Simulation.Time,,,,,,,,,,1,-0.650939222,-0.078456207,NA,0.386893254,0.047768318,0.841615881,-0.388548701,0.152450533
Effective.Speed,,,,,,,,,,,1,-0.046147205,NA,-0.371901817,-0.187540625,-0.369103649,0.108759768,-0.531248495
Point.Cloud.Error,,,,,,,,,,,,1,NA,-0.027783879,0.020716436,-0.134085626,-0.339611847,-0.043535572
Odometry.Error,,,,,,,,,,,,,1,NA,NA,NA,NA,NA
Path.Error,,,,,,,,,,,,,,1,-0.004665254,-0.020142955,0.033593548,0.095859701
Grid.Error,,,,,,,,,,,,,,,1,-0.007057523,0.010990466,0.199067079
Obstacle.Error,,,,,,,,,,,,,,,,1,-0.491344909,0.153513181
Detection.Range,,,,,,,,,,,,,,,,,1,-0.009807613
Failure,,,,,,,,,,,,,,,,,,1
