Rain Rate,Dust Rate,Droput Rate,RTK Error,Lidar Error,Timed Out,Anvel Dropped,Collision,RolledOver,Simulation Time,Effective Speed,Point Cloud Error,Odometry Error,Path Error,Grid Error,Obstacle Error,Detection Range,Random Seed
0,0,0,200,0,0,0,0,0,7.7,11.2353,0,0.32989,0.961429,0.0122574,0.612883,101.755,1566864268
0,0,0,200,0,0,0,0,0,7.66,11.3202,0,0.272178,1.2432,0.0109794,0.279121,124.259,1566864310
0,0,0,200,0,0,0,0,0,7.61,11.3812,0,0.306881,1.15073,0.0130623,0.220092,122.083,1566864351
0,0,0,200,0,0,0,0,0,7.74,11.166,0,0.376028,0.961927,0.0097715,0.875627,87.0811,1566864393
0,0,0,200,0,0,0,0,0,8.1,10.8207,0,0.333603,2.17754,0.0121887,0.446429,171.631,1566864435
0,0,0,200,0,0,0,0,0,7.72,11.2694,0,0.337007,0.915099,0.0113106,0.443872,123.774,1566864478
0,0,0,200,0,0,0,0,0,7.71,11.196,0,0.298446,0.841532,0.0107401,0.633431,125.685,1566864520
0,0,0,200,0,0,0,0,0,7.68,11.2787,0,0.263427,0.686122,0.0117638,0.313249,127.139,1566864562
0,0,0,200,0,0,0,0,0,7.65,11.3033,0,0.263891,1.08811,0.00994584,0.442309,122.111,1566864604
0,0,0,200,0,0,0,0,0,7.69,11.2709,0,0.317139,0.901896,0.0109435,0.364005,125.162,1566864645
0,0,0,200,0,0,0,0,0,7.66,11.2677,0,0.349186,0.775394,0.0109578,0.34708,122.113,1566864687
0,0,0,200,0,0,0,0,0,8.8,9.9219,0,0.219236,3.72438,0.0111033,1.14735,148.746,1566864729
0,0,0,200,0,0,0,0,0,7.8,11.1289,0,0.35106,1.41061,0.0132998,0.476488,121.812,1566864775
0,0,0,200,0,0,0,0,0,7.7,11.3097,0,0.382244,0.992055,0.0136554,0.339142,124.813,1566864819
0,0,0,200,0,0,0,0,0,7.7,11.2691,0,0.281466,1.12023,0.0105838,0.305164,122.467,1566864861
0,0,0,200,0,0,0,0,0,7.68,11.2729,0,0.335628,1.00233,0.0129626,0.132522,87.8811,1566864904
0,0,0,200,0,0,0,0,0,7.71,11.2204,0,0.276894,0.843558,0.0108421,0.395285,124.082,1566864946
0,0,0,200,0,0,0,0,0,7.66,11.3445,0,0.31213,0.972846,0.0115083,0.303181,123.866,1566864988
0,0,0,200,0,0,0,0,0,7.72,11.1971,0,0.379926,1.02895,0.011088,0.883883,86.8903,1566865029
0,0,0,200,0,0,0,0,0,7.6,11.3517,0,0.364978,0.417699,0.0109687,0.450005,127.965,1566865071
0,0,0,400,0,0,0,0,0,7.64,11.3263,0,0.687161,2.14936,0.0138844,0.212132,124.876,1566865114
0,0,0,400,0,0,0,0,0,7.69,11.2957,0,0.565217,1.52247,0.0127946,0.485372,125.141,1566865156
0,0,0,400,0,0,0,0,0,7.7,11.2965,0,0.261782,0.859896,0.0113302,0.269258,103.378,1566865198
0,0,0,400,0,0,0,0,0,7.68,11.3012,0,0.641189,1.71099,0.0143704,0.574046,119.963,1566865241
0,0,0,400,0,0,0,0,0,7.78,11.0913,0,0.671873,2.00879,0.0130608,0.967083,124.155,1566865282
0,0,0,400,0,0,0,1,0,3.99,10.9795,0,0.749542,1.2872,0.0145869,1.23581,121.558,1566865324
0,0,0,400,0,0,0,0,0,7.64,11.3769,0,0.724713,1.66557,0.0160636,0.567274,88.8624,1566865361
0,0,0,400,0,0,0,0,0,7.58,11.4338,0,0.578617,1.82253,0.0134645,0.935162,124.347,1566865403
0,0,0,400,0,0,0,0,0,7.51,11.4928,0,0.734298,2.05823,0.014073,0.531743,88.5836,1566865444
0,0,0,400,0,0,0,0,0,7.81,11.0464,0,0.758716,1.29121,0.014327,1.13441,127.088,1566865487
0,0,0,400,0,0,0,1,0,4.04,11.1512,0,0.537086,1.13974,0.0135444,0.828387,116.505,1566865530
0,0,0,400,0,0,0,0,0,7.6,11.4234,0,0.733762,2.3704,0.0127207,0.483528,124.089,1566865565
0,0,0,400,0,0,0,0,0,7.7,11.3173,0,0.563303,1.3744,0.0146528,0.417217,118.039,1566865606
0,0,0,400,0,0,0,0,0,7.65,11.3578,0,0.573388,2.04922,0.01407,0.657419,88.1362,1566865649
0,0,0,400,0,0,0,0,0,7.67,11.2843,0,0.65216,1.65029,0.0145382,0.291014,86.6808,1566865690
0,0,0,400,0,0,0,0,0,7.59,11.4171,0,0.696669,2.42122,0.0143636,0.464629,114.166,1566865733
0,0,0,400,0,0,0,0,0,7.78,11.1022,0,0.65887,1.50604,0.0126722,1.05162,120.168,1566865774
0,0,0,400,0,0,0,0,0,7.6,11.3669,0,0.518406,1.01999,0.0142887,0.380789,105.258,1566865817
0,0,0,400,0,0,0,0,0,7.78,11.1555,0,0.597296,1.82956,0.0144649,0.74248,112.754,1566865858
0,0,0,400,0,0,0,0,0,7.8,11.13,0,0.675846,1.43995,0.012453,0.772428,122.642,1566865899
0,0,0,600,0,0,0,0,0,7.59,11.4573,0,0.705826,1.88561,0.0144093,0.730286,119.361,1566865941
0,0,0,600,0,0,0,0,0,7.71,11.2172,0,1.02633,2.41135,0.0157089,0.651958,126.612,1566865982
0,0,0,600,0,0,0,0,0,7.75,11.1755,0,1.05245,1.39195,0.0159316,1.02676,129.682,1566866023
0,0,0,600,0,0,0,0,0,7.79,11.0909,0,0.904489,2.35101,0.0160836,1.10495,127.785,1566866066
0,0,0,600,0,0,0,0,0,7.64,11.3037,0,0.0937178,0.830976,0.00944368,0.34375,86.5154,1566866109
0,0,0,600,0,0,0,0,0,7.67,11.3438,0,0.773492,1.96885,0.0159479,0.424581,122.663,1566866152
0,0,0,600,0,0,0,1,0,4.06,10.7259,0,0.90092,1.55628,0.0150843,0.93244,120.265,1566866193
0,0,0,600,0,0,0,0,0,7.76,11.1082,0,0.619067,1.58768,0.0120414,0.869781,125.313,1566866229
0,0,0,600,0,0,0,0,0,7.67,11.2293,0,0.78305,1.62073,0.0152302,0.410122,78.7715,1566866272
0,0,0,600,0,0,0,0,0,7.58,11.3678,0,0.931519,0.967779,0.0159656,0.627003,124.284,1566866313
0,0,0,600,0,0,0,0,0,7.7,11.3015,0,1.10545,2.95978,0.0198848,1.08048,117.814,1566866355
0,0,0,600,0,0,0,0,0,7.92,10.9334,0,1.0834,2.40498,0.0164193,1.22972,123.026,1566866398
0,0,0,600,0,0,0,1,0,4,11.0442,0,1.04738,2.19409,0.0181281,1.2179,87.2047,1566866440
0,0,0,600,0,0,0,0,0,7.52,11.6527,0,1.03653,3.47383,0.0182861,0.924536,88.5132,1566866474
0,0,0,600,0,0,0,0,0,7.82,11.0408,0,0.807174,1.55645,0.0140081,1.33641,128.33,1566866515
0,0,0,600,0,0,0,0,0,7.61,11.3662,0,0.66536,1.78067,0.0142142,1.15244,123.692,1566866559
0,0,0,600,0,0,0,0,0,7.6,11.4107,0,0.718376,1.86389,0.0140548,0.425691,118.649,1566866600
0,0,0,600,0,0,0,0,0,7.62,11.398,0,0.581573,1.81884,0.0146079,0.534325,122.233,1566866644
0,0,0,600,0,0,0,0,0,7.72,11.1849,0,1.07785,3.08268,0.0154507,1.16708,122.943,1566866686
0,0,0,600,0,0,0,0,0,7.6,11.5669,0,0.979151,3.2036,0.0169278,0.650129,77.8187,1566866729
0,0,0,800,0,0,0,0,0,7.86,10.994,0,1.50369,2.31479,0.0200995,1.70571,127.628,1566866770
0,0,0,800,0,0,0,0,0,7.54,11.467,0,1.26633,3.74348,0.018348,0.682833,123.721,1566866813
0,0,0,800,0,0,0,0,0,7.68,11.3966,0,0.984229,1.39269,0.0156376,0.75385,64.0986,1566866853
0,0,0,800,0,0,0,0,0,7.82,11.1177,0,1.11385,1.87739,0.0141234,0.823939,122.668,1566866896
0,0,0,800,0,0,0,0,0,7.5,11.6494,0,1.51029,3.61547,0.0196733,1.36114,84.8166,1566866938
0,0,0,800,0,0,0,0,0,8.04,10.78,0,1.17294,1.98352,0.016853,1.08786,118.97,1566866978
0,0,0,800,0,0,0,0,0,7.73,11.2528,0,1.1584,3.08102,0.0169254,1.16887,119.085,1566867022
0,0,0,800,0,0,0,0,0,7.81,11.1263,0,1.39881,2.08456,0.0185841,1.40142,99.7098,1566867064
0,0,0,800,0,0,0,0,0,7.65,11.5243,0,1.44442,4.33272,0.0224251,0.69527,66.8553,1566867107
0,0,0,800,0,0,0,0,0,7.6,11.4849,0,1.01884,2.53994,0.0179281,0.759471,63.4633,1566867149
0,0,0,800,0,0,0,0,0,7.71,11.3072,0,0.5901,1.81639,0.0152156,0.506897,88.5914,1566867191
0,0,0,800,0,0,0,0,0,8.05,10.7291,0,1.33198,2.88927,0.0180044,1.13845,176.633,1566867233
0,0,0,800,0,0,0,0,0,7.56,11.4662,0,0.847531,1.55974,0.016189,0.765617,86.7231,1566867277
0,0,0,800,0,0,0,0,0,7.78,11.1383,0,1.07645,3.10612,0.0170589,1.05888,126.142,1566867318
0,0,0,800,0,0,0,0,0,8.1,10.8059,0,1.54681,3.69617,0.0210795,0.589167,127.391,1566867359
0,0,0,800,0,0,0,0,0,7.8,11.1143,0,0.863595,2.19023,0.0143925,1.19161,119.716,1566867402
0,0,0,800,0,0,0,0,0,7.78,11.1334,0,1.41368,1.97497,0.0245469,0.392232,117.18,1566867444
0,0,0,800,0,0,0,0,0,7.68,11.2376,0,0.994175,1.30985,0.0186665,0.730286,72.8701,1566867487
0,0,0,800,0,0,0,0,0,7.73,11.2473,0,1.02345,3.11742,0.017795,1.26377,126.82,1566867529
0,0,0,800,0,0,0,1,0,3.93,11.2296,0,1.34706,2.71931,0.0179548,1.47733,91.7243,1566867571
0,0,0,1000,0,0,0,0,0,7.58,11.5179,0,1.4408,3.59922,0.0192274,1.03408,123.301,1566867607
0,0,0,1000,0,0,0,0,0,7.97,11.0491,0,1.49252,2.39537,0.0244874,0.974752,123.521,1566867648
0,0,0,1000,0,0,0,0,0,7.55,11.6011,0,1.26636,2.29381,0.0214288,0.890142,58.6165,1566867691
0,0,0,1000,0,0,0,0,0,7.88,10.9537,0,1.32051,3.31456,0.0168517,1.30504,126.479,1566867732
0,0,0,1000,0,0,0,0,0,7.83,11.0326,0,1.52508,3.24862,0.0199999,1.43037,122.149,1566867774
0,0,0,1000,0,0,0,0,0,7.9,11.1209,0,1.84513,4.32261,0.0251944,1.35633,63.4809,1566867818
0,0,0,1000,0,0,0,0,0,7.52,11.6012,0,1.0823,2.40764,0.0190915,0.868299,84.9825,1566867859
0,0,0,1000,0,0,0,0,1,5.65,9.08365,0,1.76361,3.59957,0.0217144,0.591138,147.102,1566867899
0,0,0,1000,0,0,0,0,0,9.1,9.59843,0,1.81616,4.50914,0.0239468,1.19713,126.683,1566867938
0,0,0,1000,0,0,0,0,0,8.1,10.652,0,1.90265,4.22654,0.0198879,1.97329,89.132,1566867984
0,0,0,1000,0,0,0,0,0,7.59,11.5692,0,1.62504,2.13499,0.0223356,1.38589,65.6083,1566868027
0,0,0,1000,0,0,0,0,0,7.63,11.6021,0,1.63582,4.27983,0.0226423,0.994885,60.2742,1566868068
0,0,0,1000,0,0,0,0,0,8.38,10.4462,0,1.83208,4.0588,0.0208751,1.16141,168.853,1566868109
0,0,0,1000,0,0,0,0,0,7.69,11.2278,0,1.26655,2.6985,0.0175988,0.961731,118.295,1566868151
0,0,0,1000,0,0,0,0,0,7.52,11.4525,0,1.46548,3.10229,0.0203057,1.45871,88.4274,1566868194
0,0,0,1000,0,0,0,0,0,7.54,11.4726,0,1.022,1.79094,0.0167818,0.618718,121.453,1566868236
0,0,0,1000,0,0,0,0,0,7.63,11.4583,0,0.702807,2.26642,0.0163616,0.708609,103.291,1566868277
0,0,0,1000,0,0,0,0,0,7.8,11.1307,0,1.50315,1.56258,0.022849,1.14218,93.0788,1566868319
0,0,0,1000,0,0,0,0,0,7.91,10.8781,0,1.77851,1.70555,0.0213151,1.50787,118.852,1566868362
0,0,0,1000,0,0,0,0,0,7.89,10.9916,0,1.0106,2.6692,0.0144937,1.094,119.967,1566868406
0,0,0,1200,0,0,0,0,0,7.82,11.2058,0,2.08047,2.71491,0.0271545,0.773901,91.5066,1566868448
0,0,0,1200,0,0,0,0,0,7.68,11.5204,0,1.88529,3.31529,0.0240155,1.20341,46.4337,1566868491
0,0,0,1200,0,0,0,0,1,7.72,8.24172,0,1.88104,4.96307,0.0240273,0.773247,128.571,1566868532
0,0,0,1200,0,0,0,0,0,8.56,10.0569,0,2.23782,4.48077,0.0241317,2.14794,89.4855,1566868574
0,0,0,1200,0,0,0,0,0,8.08,10.9648,0,1.84418,7.49488,0.0248912,1.14047,69.2029,1566868619
0,0,0,1200,0,0,0,0,0,7.7,11.2295,0,1.40814,1.83281,0.0205926,1.23919,125.262,1566868661
0,0,0,1200,0,0,0,0,0,7.84,11.1316,0,1.63955,2.07319,0.0223973,1.91668,88.0531,1566868703
0,0,0,1200,0,0,0,0,0,7.9,10.9598,0,1.58006,2.01989,0.0192168,1.75426,122.641,1566868746
0,0,0,1200,0,0,0,0,0,7.73,11.1571,0,1.57196,2.38167,0.0184838,0.775325,125.773,1566868789
0,0,0,1200,0,0,0,0,0,8.1,10.6847,0,1.81558,3.55107,0.0213044,1.74483,124.906,1566868831
0,0,0,1200,0,0,0,0,0,7.93,10.9235,0,1.85904,4.13964,0.0218028,1.53326,91.7002,1566868875
0,0,0,1200,0,0,0,0,0,7.58,11.6008,0,1.15569,3.71747,0.0170187,0.905207,121.391,1566868918
0,0,0,1200,0,0,0,0,0,7.98,10.8527,0,1.833,4.06029,0.0196629,1.90882,130.836,1566868959
0,0,0,1200,0,0,0,0,0,8.1,10.6869,0,2.02228,2.39726,0.0231675,1.72607,88.459,1566869002
0,0,0,1200,0,0,0,0,0,7.82,11.1054,0,1.98702,2.01852,0.0246072,1.28494,81.4999,1566869045
0,0,0,1200,0,0,0,0,0,8.85,9.87187,0,2.04986,4.37093,0.0217108,1.83345,121.467,1566869087
0,0,0,1200,0,0,0,0,0,7.8,11.1367,0,1.14464,3.98133,0.016483,1.42302,125.115,1566869132
0,0,0,1200,0,0,0,0,0,7.95,10.8467,0,1.79162,2.4246,0.0218718,1.91335,137.292,1566869174
0,0,0,1200,0,0,0,0,0,7.72,11.417,0,1.87139,5.48174,0.0248482,0.83112,61.0269,1566869216
0,0,0,1200,0,0,0,0,0,8.31,10.4881,0,1.94799,3.08162,0.0224861,1.40464,134.994,1566869258
0,0,0,1400,0,0,0,0,0,7.71,11.8004,0,2.56931,6.39875,0.0253671,1.60381,58.5345,1566869302
0,0,0,1400,0,0,0,0,0,7.57,11.4162,0,2.05917,4.46107,0.0240162,1.94269,71.8691,1566869342
0,0,0,1400,0,0,0,0,0,7.5,11.7217,0,2.51153,3.24404,0.0242467,1.82928,78.0599,1566869383
0,0,0,1400,0,0,0,0,0,7.53,11.8432,0,2.63374,5.3559,0.0254656,2.0429,59.7877,1566869424
0,0,0,1400,0,0,0,0,0,8,10.8718,0,1.89884,4.98955,0.0203168,1.39071,88.4043,1566869465
0,0,0,1400,0,0,0,0,0,16.67,5.65593,0,2.24686,7.56625,0.0289633,1.32708,63.4093,1566869508
0,0,0,1400,0,0,0,1,0,4.06,10.8069,0,0.892978,1.97313,0.015459,0.594886,126.637,1566869564
0,0,0,1400,0,0,0,0,0,16.07,5.36085,0,2.42447,5.68658,0.0265806,2.02961,69.6924,1566869601
0,0,0,1400,0,0,0,0,0,8.52,10.1857,0,2.31503,2.84659,0.0274805,1.86465,171.954,1566869658
0,0,0,1400,0,0,0,0,0,7.87,11.2588,0,2.4573,3.64162,0.0254577,1.69832,60.2485,1566869703
0,0,0,1400,0,0,0,0,0,7.58,11.5027,0,2.33604,2.39621,0.0219798,2.02632,76.1577,1566869743
0,0,0,1400,0,0,0,0,0,8.08,10.6852,0,2.50619,5.60203,0.0235701,1.71021,126.725,1566869784
0,0,0,1400,0,0,0,0,0,7.9,11.0033,0,1.24744,3.35428,0.018373,1.37361,123.835,1566869827
0,0,0,1400,0,0,0,0,0,8.15,10.5589,0,2.59769,3.64027,0.0263625,2.04264,133.878,1566869870
0,0,0,1400,0,0,0,1,0,6.22,7.01889,0,2.5811,3.85274,0.0285959,1.55234,44.3449,1566869914
0,0,0,1400,0,0,0,0,1,35.83,3.68139,0,2.21942,10.0754,0.0286961,0.167731,179.406,1566869952
0,0,0,1400,0,0,0,0,0,7.7,11.7634,0,2.65168,6.34367,0.0256927,1.9265,56.4243,1566870047
0,0,0,1400,0,0,0,0,0,8.1,10.895,0,2.14746,6.97786,0.0244569,0.647176,88.0311,1566870089
0,0,0,1400,0,0,0,0,0,8.16,10.5689,0,2.52753,5.0549,0.0243319,1.74544,122.975,1566870132
0,0,0,1400,0,0,0,0,0,8.18,10.5661,0,1.96692,2.84059,0.0273948,1.58053,117.903,1566870175
