Rain Rate,Dust Rate,Droput Rate,RTK Error,Lidar Error,Timed Out,Anvel Dropped,Collision,RolledOver,Simulation Time,Effective Speed,Point Cloud Error,Odometry Error,Path Error,Grid Error,Obstacle Error,Detection Range,Random Seed
0,0,0,0,0,0,0,0,0,7.69,11.2446,0,1.88308e-06,0.9558,0.0149018,0.465657,52.6175,1567176737
0,0,0,0,0,0,0,0,0,7.71,11.227,0,1.9539e-06,0.96648,0.0133102,0.591177,54.2036,1567176894
0,0,0,0,0,0,0,1,0,3.94,11.0543,0,2.19578e-06,0.247907,0.0151604,0.125,53.6667,1567177053
0,0,0,0,0,0,0,0,0,7.69,11.2346,0,1.97324e-06,0.856669,0.014698,0.182108,52.9215,1567177186
0,0,0,0,0,0,0,0,0,7.69,11.2502,0,1.89e-06,0.947176,0.0130759,0.412311,54.0274,1567177344
0,0,0,0,0,0,0,0,0,7.7,11.2325,0,1.97143e-06,0.932046,0.0134092,0.355738,47.1493,1567177501
0,0,0,0,0,0,0,0,0,8.32,10.4009,0,1.88848e-06,1.07904,0.0151764,0,54.4451,1567177661
0,0,0,0,0,0,0,0,0,7.7,11.2274,0,1.91874e-06,0.941116,0.0146584,0.37448,53.7885,1567177824
0,0,0,0,0,0,0,0,0,7.69,11.2489,0,1.93187e-06,0.98519,0.0151868,0.469647,54.3699,1567177983
0,0,0,0,0,0,0,1,0,4.08,10.749,0,2.2685e-06,0.254214,0.0153135,0,50.1409,1567178141
0,0,0,0,0,0,0,0,0,8.78,9.846,0,1.86509e-06,1.11785,0.0123828,0.353553,49.9029,1567178275
0,0,0,0,0,0,0,0,0,7.72,11.2174,0,1.89904e-06,1.05936,0.0134565,0,50.2327,1567178441
0,0,0,0,0,0,0,0,0,7.69,11.2398,0,1.94431e-06,0.934439,0.0136923,0,53.9454,1567178600
0,0,0,0,0,0,0,0,0,7.68,11.2539,0,1.93733e-06,0.959982,0.0165006,0.112134,54.1332,1567178758
0,0,0,0,0,0,0,0,0,7.64,11.2675,0,1.93997e-06,0.539014,0.0127675,0,53.851,1567178917
0,0,0,0,0,0,0,0,0,7.7,11.2272,0,1.93799e-06,0.932795,0.0149101,0.459631,53.8132,1567179076
0,0,0,0,0,0,0,0,0,7.72,11.2132,0,1.91217e-06,0.970606,0.0143571,0.260589,53.1079,1567179233
0,0,0,0,0,0,0,0,0,7.67,11.2604,0,1.93791e-06,0.859056,0.0134639,0,53.1448,1567179394
0,0,0,0,0,0,0,0,0,7.71,11.2238,0,1.96081e-06,0.998992,0.0151701,0.165429,50.8587,1567179554
0,0,0,0,0,0,0,0,0,7.69,11.2499,0,1.92951e-06,0.937575,0.0134532,0,54.5478,1567179713
0,0,0,0,5,0,0,0,0,7.74,11.1821,0.00391484,1.90088e-06,1.02006,0.0119683,0.911373,48.3495,1567179872
0,0,0,0,5,0,0,0,0,7.86,11.0084,0.00391303,1.97747e-06,0.997001,0.0136436,1.02006,45.3174,1567180032
0,0,0,0,5,0,0,0,0,7.92,10.927,0.0039029,1.88962e-06,1.41455,0.0143696,0.80196,54.1135,1567180192
0,0,0,0,5,0,0,0,0,7.81,11.046,0.00390994,1.95453e-06,1.26286,0.015809,0.614971,52.0489,1567180353
0,0,0,0,5,0,0,0,0,7.72,11.2133,0.00390395,1.93934e-06,0.977349,0.0139947,0.608769,52.2721,1567180514
0,0,0,0,5,0,0,0,0,7.69,11.2478,0.00391154,1.90545e-06,0.980341,0.0147777,1.06125,50.6497,1567180674
0,0,0,0,5,0,0,0,0,7.67,11.2727,0.00391216,1.95422e-06,1.24834,0.0153955,0.713023,45.2757,1567180832
0,0,0,0,5,0,0,0,0,7.69,11.2315,0.00391377,1.98958e-06,0.887347,0.0163254,0.742498,47.5812,1567180992
0,0,0,0,5,0,0,0,0,7.67,11.2137,0.00391128,1.93531e-06,0.448543,0.0129711,0.567274,46.954,1567181152
0,0,0,0,5,0,0,0,0,7.72,11.2137,0.00391489,1.94329e-06,1.00112,0.0133232,1.00125,34.9824,1567181312
0,0,0,0,5,0,0,0,0,7.71,11.2242,0.00391013,1.91487e-06,0.938058,0.0161728,0.833796,48.2426,1567181472
0,0,0,0,5,0,0,0,0,8.49,10.3566,0.00391097,1.9083e-06,1.03787,0.0151887,1.30482,51.6398,1567181630
0,0,0,0,5,0,0,0,0,7.71,11.2281,0.00391176,1.99254e-06,0.946689,0.015444,0.713364,48.1724,1567181795
0,0,0,0,5,0,0,0,0,7.73,11.1986,0.00390912,1.93681e-06,1.02792,0.013054,0.781761,51.5108,1567181955
0,0,0,0,5,0,0,0,0,7.73,11.1401,0.00390968,1.93648e-06,0.831024,0.0163302,0.833333,42.4967,1567182114
0,0,0,0,5,0,0,0,0,7.74,11.1962,0.0039098,1.9584e-06,1.04868,0.0130662,0.641788,46.8135,1567182274
0,0,0,0,5,0,0,0,0,7.73,11.1886,0.0039119,1.93688e-06,0.963166,0.0146523,0.87224,48.4542,1567182433
0,0,0,0,5,0,0,0,0,7.71,11.2213,0.00390918,1.92725e-06,0.986726,0.0135845,0.642748,44.5281,1567182592
0,0,0,0,5,0,0,0,0,7.75,11.1682,0.00390803,1.91093e-06,0.959432,0.0144291,0.609697,51.3948,1567182751
0,0,0,0,5,0,0,1,0,3.99,10.9275,0.0039128,2.2462e-06,1.19685,0.0137656,0.539347,51.9165,1567182911
0,0,0,0,10,0,0,0,0,7.74,11.1827,0.00782697,1.92058e-06,1.04481,0.0150629,0.588187,54.4935,1567183045
0,0,0,0,10,0,0,0,0,7.77,11.1296,0.00783134,1.93913e-06,0.991634,0.0148768,0.615318,45.9691,1567183205
0,0,0,0,10,0,0,0,0,7.72,11.1978,0.00781386,1.96753e-06,1.01404,0.0132192,0.86825,40.4536,1567183363
0,0,0,0,10,0,0,0,0,7.7,11.2484,0.00780837,1.9262e-06,1.0217,0.0140569,1.13252,49.417,1567183523
0,0,0,0,10,0,0,0,0,7.78,11.1266,0.00781514,1.97057e-06,0.978248,0.015197,0.671702,45.7418,1567183683
0,0,0,0,10,0,0,0,0,7.78,11.0747,0.00780787,1.95931e-06,0.700979,0.0148265,0.86594,46.853,1567183842
0,0,0,0,10,0,0,0,0,7.69,11.2536,0.00783648,1.9564e-06,1.00333,0.0150892,0.724505,36.6343,1567184003
0,0,0,0,10,0,0,0,0,7.72,11.1999,0.00780662,1.89376e-06,0.914722,0.0142186,0.823217,51.9443,1567184160
0,0,0,0,10,0,0,0,0,7.71,11.2118,0.00783563,1.91889e-06,0.954055,0.0148155,0.612727,43.993,1567184319
0,0,0,0,10,0,0,1,0,3.99,10.9846,0.00781555,2.1628e-06,0.247337,0.0135219,0.253448,43.936,1567184479
0,0,0,0,10,0,0,0,0,7.73,11.1993,0.00783222,1.98949e-06,0.982878,0.0138852,0.901388,35.1556,1567184612
0,0,0,0,10,0,0,0,0,7.7,11.1914,0.00782782,1.92695e-06,0.67379,0.0142677,0.62077,39.3248,1567184772
0,0,0,0,10,0,0,0,0,7.75,11.1413,0.00782716,1.92131e-06,0.89022,0.0133082,0.774999,38.5738,1567184931
0,0,0,0,10,0,0,0,0,7.71,11.2235,0.00780723,1.89508e-06,0.95459,0.0125797,0.58709,38.7469,1567185090
0,0,0,0,10,0,0,0,0,8.45,10.2263,0.00782551,1.86332e-06,1.05205,0.0136042,1.00639,54.119,1567185249
0,0,0,0,10,0,0,0,0,7.76,11.1607,0.00780255,1.93728e-06,1.00667,0.012908,0.889323,46.4888,1567185414
0,0,0,0,10,0,0,0,0,7.75,11.1874,0.00779917,1.96661e-06,1.08192,0.013521,0.835183,38.7616,1567185573
0,0,0,0,10,0,0,0,0,7.72,11.2106,0.00782053,1.93132e-06,0.956142,0.0134852,0.716879,38.7276,1567185731
0,0,0,0,10,0,0,0,0,7.71,11.2155,0.00782283,1.9444e-06,0.963956,0.0137683,0.867424,50.8489,1567185891
0,0,0,0,10,0,0,0,0,7.72,11.2129,0.00781432,1.94351e-06,0.940034,0.0140221,0.662873,42.3698,1567186051
0,0,0,0,15,0,0,0,0,7.69,11.1953,0.011735,1.93189e-06,0.776992,0.0151172,0.654897,45.2877,1567186210
0,0,0,0,15,0,0,1,0,4.5,9.74088,0.0117309,2.13099e-06,0.281504,0.0151946,0.474342,51.4637,1567186369
0,0,0,0,15,0,0,0,0,7.94,10.8349,0.0117395,1.93577e-06,0.406866,0.014325,0.527315,45.7987,1567186507
0,0,0,0,15,0,0,0,0,7.72,11.2054,0.0116908,1.91641e-06,0.933014,0.0126008,0.79686,53.468,1567186668
0,0,0,0,15,0,0,0,0,7.7,11.2062,0.0117106,1.95804e-06,1.07368,0.0144959,0.838719,49.8563,1567186827
0,0,0,0,15,0,0,0,0,7.7,11.239,0.0117164,1.91063e-06,0.972706,0.0144245,1.02774,49.4829,1567186988
0,0,0,0,15,0,0,0,0,7.72,11.1991,0.0117126,1.95209e-06,0.936833,0.0145528,1.02421,48.1261,1567187147
0,0,0,0,15,0,0,0,0,7.7,11.2312,0.0117256,1.95656e-06,0.973692,0.0150915,0.65192,34.8945,1567187306
0,0,0,0,15,0,0,0,0,7.83,11.0297,0.0117287,1.93915e-06,0.821309,0.0132535,0.781301,45.9545,1567187466
0,0,0,0,15,0,0,0,0,7.71,11.2179,0.0117138,1.93892e-06,0.94294,0.0148233,0.955249,48.4473,1567187626
0,0,0,0,15,0,0,0,0,7.71,11.2044,0.0117391,1.93612e-06,1.01581,0.0144632,0.748463,49.5912,1567187785
0,0,0,0,15,0,0,0,0,7.72,11.1918,0.0117388,1.92315e-06,0.880335,0.0129487,0.739015,53.2055,1567187943
0,0,0,0,15,0,0,0,0,7.71,11.2198,0.0117104,1.95722e-06,0.962004,0.0132686,0.81471,51.598,1567188103
0,0,0,0,15,0,0,0,0,7.72,11.2051,0.0117162,1.96288e-06,0.974247,0.0130149,0.746324,42.8301,1567188263
0,0,0,0,15,0,0,0,0,7.79,11.1122,0.0117443,1.91094e-06,1.04426,0.0159876,1.15998,45.4019,1567188422
0,0,0,0,15,0,0,0,0,7.94,10.9332,0.0117297,1.89521e-06,1.27505,0.0158602,0.8125,49.0649,1567188582
0,0,0,0,15,0,0,0,0,7.71,11.2157,0.011722,1.97698e-06,0.940126,0.014408,0.756139,38.7174,1567188742
0,0,0,0,15,0,0,0,0,7.71,11.2271,0.0116913,1.91653e-06,0.943162,0.0158421,0.780635,44.8393,1567188900
0,0,0,0,15,0,0,0,1,90,0,0.0116962,2.70605e-06,1.97685,0.0160759,3.40282e+38,-1,1567189059
0,0,0,0,15,0,0,1,0,4.11,10.7499,0.0117277,2.25434e-06,0.286902,0.0163879,0.115887,52.3201,1567189164
0,0,0,0,20,0,0,1,0,4.04,11.0059,0.0156413,2.19283e-06,0.284425,0.0162842,0.336928,51.7165,1567189299
0,0,0,0,20,0,0,0,0,11.33,7.68655,0.0156437,1.76591e-06,1.04033,0.0148188,0.775729,48.4783,1567189432
0,0,0,0,20,0,0,0,0,7.71,11.1691,0.0156455,1.91479e-06,0.648601,0.0148842,0.84097,42.1721,1567189617
0,0,0,0,20,0,0,1,0,3.98,11.0093,0.0156508,2.22404e-06,0.224241,0.0136854,0.350397,45.2718,1567189776
0,0,0,0,20,0,0,0,0,7.72,11.2204,0.0156506,1.95422e-06,1.02186,0.0147095,1.09829,47.2836,1567189909
0,0,0,0,20,0,0,0,0,7.74,11.18,0.0156182,1.92331e-06,0.96035,0.0150944,0.807234,50.2085,1567190068
0,0,0,0,20,0,0,0,0,7.71,11.231,0.0155909,1.92889e-06,1.02746,0.0141623,0.735538,47.0037,1567190227
0,0,0,0,20,0,0,0,0,7.7,11.2294,0.0156447,1.94166e-06,0.981992,0.0137152,0.650482,53.7072,1567190385
0,0,0,0,20,0,0,0,0,7.76,11.0983,0.0156028,1.90365e-06,0.50924,0.0132384,0.756872,45.5091,1567190544
0,0,0,0,20,0,0,0,0,7.71,11.2146,0.0156508,1.93024e-06,0.929517,0.0160478,0.825973,44.9922,1567190705
0,0,0,0,20,0,0,0,0,7.71,11.2149,0.0156456,1.90954e-06,0.984681,0.0145494,0.815341,53.6989,1567190863
0,0,0,0,20,0,0,0,0,7.73,11.1915,0.0156613,1.91306e-06,0.962234,0.0151009,1.15289,51.731,1567191022
0,0,0,0,20,0,0,0,0,7.91,10.9382,0.0156162,1.89324e-06,0.97946,0.0158619,0.725881,38.2231,1567191182
0,0,0,0,20,0,0,0,1,10.18,7.33597,0.015629,1.7696e-06,0.833052,0.0139752,0.923277,53.776,1567191342
0,0,0,0,20,0,0,0,0,7.68,11.2125,0.0155942,1.92202e-06,0.681766,0.0127779,0.928559,48.858,1567191518
0,0,0,0,20,0,0,0,0,7.81,11.0193,0.0156173,1.88312e-06,0.675979,0.0131626,0.646957,52.4782,1567191677
0,0,0,0,20,0,0,0,0,7.72,11.1816,0.0156417,1.92299e-06,0.879763,0.0157941,1.06119,51.3981,1567191838
0,0,0,0,20,0,0,0,0,7.72,11.1439,0.0156527,1.89453e-06,0.855317,0.0133522,1.06882,48.7685,1567191997
0,0,0,0,20,0,0,0,0,7.75,11.167,0.0156414,1.88774e-06,0.983692,0.0152317,1.11708,48.8483,1567192157
0,0,0,0,20,0,0,0,0,7.75,11.1697,0.0156556,1.96172e-06,0.951501,0.0148174,0.62407,52.2021,1567192317
0,0,0,0,25,0,0,0,0,7.72,11.2142,0.0195568,1.96096e-06,1.0125,0.0131972,1.27475,52.2238,1567192478
0,0,0,0,25,0,0,0,0,7.75,11.1645,0.0195598,1.97567e-06,1.03398,0.0135528,1.07143,47.4891,1567192636
0,0,0,0,25,0,0,0,0,12.38,7.07042,0.0195561,1.68183e-06,3.04097,0.0157404,0.927095,52.5953,1567192796
0,0,0,0,25,0,0,0,0,7.72,11.1946,0.0194996,1.97177e-06,0.998108,0.0137345,0.81862,54.766,1567192987
0,0,0,0,25,0,0,0,0,7.73,11.192,0.0195624,1.92961e-06,0.975349,0.0140546,0.939163,54.1883,1567193148
0,0,0,0,25,0,0,0,0,7.74,11.1925,0.0195773,1.93654e-06,0.920212,0.0130832,0.8335,53.5536,1567193307
0,0,0,0,25,0,0,0,0,7.72,11.2207,0.0195544,1.95133e-06,1.01547,0.0152149,0.81862,45.912,1567193466
0,0,0,0,25,0,0,0,0,7.72,11.2117,0.0195705,1.93518e-06,1.06816,0.0140247,1.18907,40.6336,1567193625
0,0,0,0,25,0,0,0,0,7.71,11.2316,0.0195392,1.93117e-06,0.958764,0.0142879,0.846097,51.9635,1567193785
0,0,0,0,25,0,0,1,0,4.09,10.6545,0.0195587,2.21553e-06,0.405732,0.01546,0,43.9099,1567193944
0,0,0,0,25,0,0,0,0,7.75,11.1655,0.0195701,1.90493e-06,1.01222,0.0157948,1.22059,49.5772,1567194078
0,0,0,0,25,0,0,0,0,7.71,11.2391,0.0195462,1.96379e-06,1.09373,0.0147438,1.17072,52.0947,1567194238
0,0,0,0,25,0,0,0,1,6.19,9.87343,0.0195519,1.97836e-06,0.723065,0.0137005,1.17722,47.0316,1567194397
0,0,0,0,25,0,0,0,0,7.74,11.1866,0.0195688,1.99103e-06,1.03398,0.0137067,1.37033,38.6763,1567194545
0,0,0,0,25,0,0,0,0,7.73,11.1984,0.0195048,1.96555e-06,0.955801,0.0140843,1.16309,52.4209,1567194704
0,0,0,0,25,0,0,0,0,7.77,11.1427,0.0195519,1.96092e-06,1.13075,0.0144526,0.74168,43.0706,1567194862
0,0,0,0,25,0,0,0,0,7.74,11.1808,0.0195862,1.91342e-06,1.02655,0.01527,0.828387,53.5948,1567195022
0,0,0,0,25,0,0,0,0,7.83,11.0133,0.0195796,1.90222e-06,0.781103,0.0148293,1.31533,38.7145,1567195183
0,0,0,0,25,0,0,0,0,7.75,11.1758,0.0195717,1.93852e-06,1.01399,0.0171243,0.830885,37.0247,1567195342
0,0,0,0,25,0,0,0,0,7.68,11.2532,0.0195651,1.9418e-06,0.814565,0.0138197,0.965926,50.4383,1567195501
0,0,0,0,30,0,0,0,0,7.72,11.1907,0.0234285,1.96268e-06,0.938316,0.0136063,1.03917,51.9033,1567195660
0,0,0,0,30,0,0,0,0,7.67,11.2226,0.0234589,1.94788e-06,0.466459,0.0151085,0.865429,48.4575,1567195821
0,0,0,0,30,0,0,0,0,7.67,11.2529,0.0234914,1.95512e-06,0.981746,0.015977,0.98127,50.7962,1567195980
0,0,0,0,30,0,0,0,0,7.73,11.1946,0.023493,1.97142e-06,0.986008,0.0149821,0.847678,52.4349,1567196138
0,0,0,0,30,0,0,0,0,7.73,11.2063,0.0234871,1.89924e-06,1.02845,0.0151674,1.10207,39.6906,1567196299
0,0,0,0,30,0,0,0,0,7.74,11.1831,0.0234564,1.92788e-06,0.949028,0.0134392,1.18164,48.6404,1567196458
0,0,0,0,30,0,0,0,1,12.3,5.69607,0.0233873,1.68544e-06,5.75795,0.0131515,0.879269,43.3034,1567196617
0,0,0,0,30,0,0,0,0,7.73,11.1944,0.0234804,1.90309e-06,0.981153,0.014861,0.933928,51.5858,1567196808
0,0,0,0,30,0,0,0,0,7.8,11.1027,0.0234815,1.9519e-06,1.28063,0.0128162,0.93444,50.6413,1567196968
0,0,0,0,30,0,0,0,0,7.68,11.2043,0.0234526,1.93635e-06,0.598807,0.0153926,0.812049,38.2676,1567197129
0,0,0,0,30,0,0,0,0,7.79,11.1178,0.0233791,1.90118e-06,1.2755,0.0140743,0.913716,48.8578,1567197288
0,0,0,0,30,0,0,0,0,7.74,11.1853,0.0234758,1.93373e-06,1.00798,0.012178,0.834934,52.6746,1567197449
0,0,0,0,30,0,0,1,0,3.96,11.0066,0.0234683,2.30126e-06,0.2736,0.0128466,0.358924,53.6259,1567197609
0,0,0,0,30,0,0,1,0,3.98,11.0269,0.0234997,2.26748e-06,0.239923,0.0167726,0.36589,47.3875,1567197743
0,0,0,0,30,0,0,0,0,7.68,11.2472,0.0235032,1.94723e-06,0.971162,0.0146238,0.827817,52.2737,1567197876
0,0,0,0,30,0,0,1,0,4.09,10.724,0.0234627,2.17274e-06,0.30082,0.0131179,0.474965,49.1826,1567198036
0,0,0,0,30,0,0,0,0,7.71,11.22,0.0234663,1.91084e-06,1.03519,0.0161255,0.99113,46.1644,1567198170
0,0,0,0,30,0,0,1,0,5.02,8.6756,0.0234371,2.11142e-06,0.237647,0.0175028,0.36733,47.1743,1567198330
0,0,0,0,30,0,0,0,0,7.7,11.2231,0.023448,1.96121e-06,0.868263,0.0165762,1.04323,47.1333,1567198471
0,0,0,0,30,0,0,0,0,7.7,11.2337,0.0234822,1.95603e-06,0.99038,0.0146046,0.778432,47.2466,1567198631
0,0,0,0,35,0,0,0,0,7.74,11.1774,0.0273965,1.92377e-06,0.957518,0.0153531,1.25414,48.066,1567198789
0,0,0,0,35,0,0,0,0,7.74,11.1753,0.027379,1.95112e-06,0.924448,0.0146444,1.09152,50.7777,1567198948
0,0,0,0,35,0,0,0,0,7.7,11.241,0.0273865,1.97133e-06,1.00721,0.013818,1.39032,38.1351,1567199107
0,0,0,0,35,0,0,0,0,7.79,11.1058,0.0273821,1.90603e-06,0.99953,0.0154418,0.990405,52.4847,1567199266
0,0,0,0,35,0,0,0,0,7.72,11.2064,0.0274077,1.9106e-06,0.898601,0.0140217,0.846834,48.3668,1567199426
0,0,0,0,35,0,0,0,0,8.57,10.1978,0.0274101,1.84005e-06,3.02307,0.0150891,0.520152,52.4815,1567199585
0,0,0,0,35,0,0,1,0,4.05,11.0432,0.0273655,2.22037e-06,0.323511,0.0153369,0.791667,45.2233,1567199751
0,0,0,0,35,0,0,0,0,7.71,11.205,0.0274052,1.86373e-06,0.943868,0.0153617,0.813236,43.372,1567199885
0,0,0,0,35,0,0,0,0,10.28,8.44187,0.027411,1.78257e-06,1.40363,0.0154831,0.56445,52.5804,1567200045
0,0,0,0,35,0,0,0,0,7.72,11.2077,0.0274042,1.90679e-06,0.919319,0.0147651,1.0716,53.0316,1567200222
0,0,0,0,35,0,0,0,0,9.71,8.87064,0.0273932,1.82504e-06,0.786598,0.0152781,0.806885,45.37,1567200383
0,0,0,0,35,0,0,0,0,7.77,11.149,0.0273747,1.90628e-06,1.01007,0.0141962,0.958029,43.1803,1567200556
0,0,0,0,35,0,0,0,0,7.71,11.2207,0.027371,1.91914e-06,1.03146,0.0122643,1.32813,47.3304,1567200717
0,0,0,0,35,0,0,0,0,7.73,11.1933,0.0273844,1.92531e-06,0.985361,0.0147146,1.05599,47.5347,1567200876
0,0,0,0,35,0,0,0,0,7.72,11.1976,0.027368,1.92754e-06,0.909971,0.0128436,1.26586,42.0137,1567201035
0,0,0,0,35,0,0,0,0,7.72,11.2068,0.0273813,1.92249e-06,0.982055,0.0120034,0.792599,47.8938,1567201195
0,0,0,0,35,0,0,0,0,7.73,11.1881,0.0274009,1.93846e-06,0.949086,0.0151139,0.915445,48.9435,1567201354
0,0,0,0,35,0,0,0,0,7.72,11.2046,0.0274294,1.92198e-06,1.05805,0.0128102,0.888781,52.8243,1567201515
0,0,0,0,35,0,0,0,0,7.7,11.2286,0.0273612,1.96432e-06,1.07466,0.0165307,0.851523,53.901,1567201674
0,0,0,0,35,0,0,0,1,12.8,6.88607,0.0273718,1.70138e-06,4.11468,0.0148922,0.680716,48.6294,1567201834
