Rain Rate,Dust Rate,Droput Rate,RTK Error,Lidar Error,Timed Out,Anvel Dropped,Collision,RolledOver,Simulation Time,Effective Speed,Point Cloud Error,Odometry Error,Path Error,Grid Error,Obstacle Error,Detection Range,Random Seed
4,0,0,0,0,0,0,1,0,3.92,11.1302,0.000625,2.22488e-06,0.234932,0.014174,3.40282e+38,-1,1566888715
4,0,0,0,0,0,0,1,0,3.9,11.1697,0.000625,2.21084e-06,0.233859,0.0143474,3.40282e+38,-1,1566888835
4,0,0,0,0,0,0,1,0,3.91,11.1544,0.000625,2.19196e-06,0.264521,0.0143186,3.40282e+38,-1,1566888961
4,0,0,0,0,0,0,1,0,3.91,11.1422,0.000625,2.30774e-06,0.234812,0.0154708,3.3541,63.0142,1566889088
4,0,0,0,0,0,0,1,0,3.93,11.082,0.000625,2.27959e-06,0.267898,0.0155897,3.40282e+38,-1,1566889217
4,0,0,0,0,0,0,1,0,3.91,11.1333,0.000625,2.29874e-06,0.263984,0.0152893,3.40282e+38,-1,1566889342
4,0,0,0,0,0,0,1,0,3.9,11.164,0.000625,2.23718e-06,0.268117,0.0139885,3.40282e+38,-1,1566889463
4,0,0,0,0,0,0,1,0,3.91,11.1371,0.000625,2.20115e-06,0.233413,0.0151921,3.40282e+38,-1,1566889587
4,0,0,0,0,0,0,1,0,3.91,11.1395,0.000625,2.28165e-06,0.232641,0.0150591,3.40282e+38,-1,1566889706
4,0,0,0,0,0,0,1,0,3.95,11.2108,0.000625,2.25154e-06,0.551951,0.0152141,3.40282e+38,-1,1566889826
4,0,0,0,0,0,0,1,0,3.9,11.1806,0.000625,2.21671e-06,0.263549,0.014732,3.40282e+38,-1,1566889953
4,0,0,0,0,0,0,1,0,3.92,11.1256,0.000625,2.19388e-06,0.268623,0.0177567,3.40282e+38,-1,1566890079
4,0,0,0,0,0,0,1,0,3.9,11.2016,0.000625,2.27932e-06,0.265044,0.0170314,3.40282e+38,-1,1566890198
4,0,0,0,0,0,0,1,0,3.9,11.1629,0.000625,2.21528e-06,0.26515,0.0151213,3.40282e+38,-1,1566890321
4,0,0,0,0,0,0,1,0,3.9,11.1791,0.000625,2.25072e-06,0.236676,0.0150774,3.40282e+38,-1,1566890447
4,0,0,0,0,0,0,1,0,3.91,11.1462,0.000625,2.29561e-06,0.264702,0.0143778,3.40282e+38,-1,1566890571
4,0,0,0,0,0,0,1,0,3.91,11.1498,0.000625,2.23541e-06,0.237439,0.0138293,3.40282e+38,-1,1566890694
4,0,0,0,0,0,0,1,0,3.91,11.1562,0.000625,2.20381e-06,0.26308,0.0143352,3.40282e+38,-1,1566890815
4,0,0,0,0,0,0,1,0,3.9,11.1669,0.000625,2.19695e-06,0.233832,0.0167114,3.40282e+38,-1,1566890935
4,0,0,0,0,0,0,1,0,3.9,11.1809,0.000625,2.26284e-06,0.234197,0.0148374,3.40282e+38,-1,1566891069
8,0,0,0,0,0,0,1,0,3.88,11.2229,0.000625,2.18059e-06,0.236562,0.0161374,3.40282e+38,-1,1566891192
8,0,0,0,0,0,0,1,0,3.91,11.1417,0.000625,2.2725e-06,0.236378,0.0151914,3.40282e+38,-1,1566891319
8,0,0,0,0,0,0,1,0,3.91,11.1373,0.000625,2.19469e-06,0.266047,0.015067,3.40282e+38,-1,1566891444
8,0,0,0,0,0,0,1,0,3.9,11.1649,0.000625,2.23433e-06,0.237589,0.0141579,3.40282e+38,-1,1566891573
8,0,0,0,0,0,0,1,0,3.9,11.1795,0.000625,2.24882e-06,0.234456,0.014457,3.40282e+38,-1,1566891699
8,0,0,0,0,0,0,1,0,3.91,11.1312,0.000625,2.19547e-06,0.266493,0.0166929,3.40282e+38,-1,1566891823
8,0,0,0,0,0,0,1,0,3.92,11.1277,0.000625,2.22144e-06,0.265095,0.0151452,3.40282e+38,-1,1566891949
8,0,0,0,0,0,0,1,0,3.91,11.1572,0.000625,2.19484e-06,0.236929,0.01496,3.40282e+38,-1,1566892075
8,0,0,0,0,0,0,1,0,3.9,11.1683,0.000625,2.29143e-06,0.266125,0.0144496,3.40282e+38,-1,1566892201
8,0,0,0,0,0,0,1,0,3.92,11.1216,0.000625,2.21885e-06,0.234486,0.0146356,3.40282e+38,-1,1566892326
8,0,0,0,0,0,0,1,0,3.9,11.1793,0.000625,2.28126e-06,0.235573,0.0162353,3.40282e+38,-1,1566892456
8,0,0,0,0,0,0,1,0,3.91,11.1489,0.000625,2.24205e-06,0.234936,0.0143266,3.40282e+38,-1,1566892584
8,0,0,0,0,0,0,1,0,3.92,11.1312,0.000625,2.23406e-06,0.265505,0.0139313,3.40282e+38,-1,1566892712
8,0,0,0,0,0,0,1,0,3.9,11.1692,0.000625,2.1354e-06,0.261218,0.0148606,3.40282e+38,-1,1566892837
8,0,0,0,0,0,0,1,0,3.93,11.1126,0.000625,2.23398e-06,0.268065,0.0156364,3.40282e+38,-1,1566892960
8,0,0,0,0,0,0,1,0,3.91,11.1342,0.000625,2.27853e-06,0.266065,0.017611,3.40282e+38,-1,1566893089
8,0,0,0,0,0,0,1,0,3.9,11.1675,0.000625,2.18361e-06,0.233721,0.0129695,3.40282e+38,-1,1566893218
8,0,0,0,0,0,0,1,0,3.9,11.1776,0.000625,2.19895e-06,0.237317,0.0153555,3.40282e+38,-1,1566893349
8,0,0,0,0,0,0,1,0,3.9,11.1613,0.000625,2.2565e-06,0.235517,0.0147521,3.40282e+38,-1,1566893480
8,0,0,0,0,0,0,1,0,3.91,11.1333,0.000625,2.2362e-06,0.233277,0.0162322,3.40282e+38,-1,1566893606
12,0,0,0,0,0,0,1,0,3.9,11.168,0.000625,2.26033e-06,0.236342,0.0122637,3.40282e+38,-1,1566893734
12,0,0,0,0,0,0,1,0,3.93,11.1019,0.000625,2.24532e-06,0.232181,0.0138878,3.40282e+38,-1,1566893864
12,0,0,0,0,0,0,1,0,3.91,11.1405,0.000625,2.25467e-06,0.264989,0.015625,3.40282e+38,-1,1566893996
12,0,0,0,0,0,0,1,0,3.9,11.1699,0.000625,2.21106e-06,0.266493,0.0137983,3.40282e+38,-1,1566894131
12,0,0,0,0,0,0,1,0,3.91,11.1436,0.000625,2.22595e-06,0.265698,0.018449,3.40282e+38,-1,1566894261
12,0,0,0,0,0,0,1,0,3.9,11.1838,0.000625,2.26699e-06,0.23311,0.0166626,3.40282e+38,-1,1566894392
12,0,0,0,0,0,0,1,0,3.91,11.1381,0.000625,2.30935e-06,0.267741,0.0133205,3.40282e+38,-1,1566894524
12,0,0,0,0,0,0,1,0,3.9,11.1676,0.000625,2.31468e-06,0.235594,0.0142876,3.40282e+38,-1,1566894652
12,0,0,0,0,0,0,1,0,3.91,11.1494,0.000625,2.28011e-06,0.267666,0.0148108,3.40282e+38,-1,1566894785
12,0,0,0,0,0,0,1,0,3.91,11.1392,0.000625,2.26478e-06,0.236552,0.0144652,3.40282e+38,-1,1566894913
12,0,0,0,0,0,0,1,0,3.91,11.146,0.000625,2.29518e-06,0.233987,0.0154021,3.40282e+38,-1,1566895042
12,0,0,0,0,0,0,1,0,3.91,11.1593,0.000625,2.30919e-06,0.235251,0.0163727,3.40282e+38,-1,1566895173
12,0,0,0,0,0,0,1,0,3.92,11.1245,0.000625,2.27034e-06,0.26627,0.0150455,3.40282e+38,-1,1566895303
12,0,0,0,0,0,0,1,0,3.91,11.1394,0.000625,2.26193e-06,0.235894,0.0155792,3.40282e+38,-1,1566895441
12,0,0,0,0,0,0,1,0,3.92,11.1393,0.000625,2.2529e-06,0.264985,0.0139681,3.40282e+38,-1,1566895575
12,0,0,0,0,0,0,1,0,3.9,11.1727,0.000625,2.26733e-06,0.23373,0.0155471,3.40282e+38,-1,1566895709
12,0,0,0,0,0,0,1,0,3.92,11.1152,0.000625,2.24464e-06,0.26552,0.0139131,3.40282e+38,-1,1566895844
12,0,0,0,0,0,0,1,0,3.94,11.0646,0.000625,2.26206e-06,0.266071,0.0176769,3.40282e+38,-1,1566895975
12,0,0,0,0,0,0,1,0,3.92,11.1251,0.000625,2.23259e-06,0.267588,0.0143446,3.40282e+38,-1,1566896108
12,0,0,0,0,0,0,1,0,3.91,11.158,0.000625,2.15758e-06,0.236033,0.0153133,3.40282e+38,-1,1566896238
16,0,0,0,0,0,0,1,0,3.91,11.1562,0.000625,2.23676e-06,0.261759,0.0165097,3.40282e+38,-1,1566896368
16,0,0,0,0,0,0,1,0,3.9,11.1796,0.000625,2.25076e-06,0.264952,0.0153101,3.40282e+38,-1,1566896503
16,0,0,0,0,0,0,1,0,3.9,11.1814,0.000625,2.24812e-06,0.262584,0.0147997,3.40282e+38,-1,1566896643
16,0,0,0,0,0,0,1,0,3.9,11.1635,0.000625,2.30695e-06,0.26615,0.0148511,3.40282e+38,-1,1566896781
16,0,0,0,0,0,0,1,0,3.91,11.1366,0.000625,2.24546e-06,0.262627,0.0165771,3.40282e+38,-1,1566896911
16,0,0,0,0,0,0,1,0,3.9,11.1663,0.000625,2.26876e-06,0.267308,0.0175398,3.40282e+38,-1,1566897041
16,0,0,0,0,0,0,1,0,3.9,11.162,0.000625,2.261e-06,0.233491,0.0149171,3.40282e+38,-1,1566897181
16,0,0,0,0,0,0,1,0,3.9,11.1605,0.000625,2.24067e-06,0.232907,0.0145705,3.40282e+38,-1,1566897313
16,0,0,0,0,0,0,1,0,3.93,11.0916,0.000625,2.26389e-06,0.236197,0.0148967,3.40282e+38,-1,1566897447
16,0,0,0,0,0,0,1,0,3.9,11.1631,0.000625,2.23308e-06,0.234126,0.0150754,3.40282e+38,-1,1566897582
16,0,0,0,0,0,0,1,0,3.92,11.11,0.000625,2.19135e-06,0.267333,0.0138868,3.40282e+38,-1,1566897718
16,0,0,0,0,0,0,1,0,3.9,11.1613,0.000625,2.23723e-06,0.262412,0.0148467,3.40282e+38,-1,1566897854
16,0,0,0,0,0,0,1,0,3.93,11.0961,0.000625,2.26304e-06,0.236875,0.0153596,3.40282e+38,-1,1566897983
16,0,0,0,0,0,0,1,0,3.9,11.1801,0.000625,2.19136e-06,0.237659,0.0170749,3.40282e+38,-1,1566898115
16,0,0,0,0,0,0,1,0,3.91,11.1391,0.000625,2.21447e-06,0.266806,0.0163105,3.40282e+38,-1,1566898247
16,0,0,0,0,0,0,1,0,3.93,11.0941,0.000625,2.19631e-06,0.263076,0.0165073,3.40282e+38,-1,1566898387
16,0,0,0,0,0,0,1,0,3.91,11.1543,0.000625,2.20836e-06,0.233276,0.0164192,3.40282e+38,-1,1566898531
16,0,0,0,0,0,0,1,0,3.9,11.1816,0.000625,2.25941e-06,0.234953,0.0134431,3.40282e+38,-1,1566898667
16,0,0,0,0,0,0,1,0,3.91,11.1504,0.000625,2.23617e-06,0.233821,0.0144039,3.40282e+38,-1,1566898801
16,0,0,0,0,0,0,1,0,3.93,11.1229,0.000625,2.21334e-06,0.233752,0.0154636,3.40282e+38,-1,1566898932
20,0,0,0,0,0,0,1,0,3.91,11.1327,0.000625,2.27589e-06,0.231452,0.0149834,3.40282e+38,-1,1566899061
20,0,0,0,0,0,0,1,0,3.92,11.1108,0.000625,2.23045e-06,0.233839,0.0139243,3.40282e+38,-1,1566899198
20,0,0,0,0,0,0,1,0,3.91,11.1475,0.000625,2.23471e-06,0.260977,0.0142227,3.40282e+38,-1,1566899333
20,0,0,0,0,0,0,1,0,3.91,11.1586,0.000625,2.2889e-06,0.266122,0.0155004,3.40282e+38,-1,1566899467
20,0,0,0,0,0,0,1,0,3.91,11.1351,0.000625,2.26049e-06,0.267819,0.0147397,3.40282e+38,-1,1566899601
20,0,0,0,0,0,0,1,0,3.9,11.1646,0.000625,2.16501e-06,0.264774,0.0170791,3.40282e+38,-1,1566899737
20,0,0,0,0,0,0,1,0,3.9,11.1785,0.000625,2.18392e-06,0.267414,0.0149877,3.40282e+38,-1,1566899872
20,0,0,0,0,0,0,1,0,3.93,11.0869,0.000625,2.2604e-06,0.231368,0.0148115,3.40282e+38,-1,1566900007
20,0,0,0,0,0,0,1,0,3.91,11.1599,0.000625,2.31201e-06,0.265382,0.0141495,3.40282e+38,-1,1566900143
20,0,0,0,0,0,0,1,0,3.92,11.1096,0.000625,2.21357e-06,0.267602,0.0162141,3.40282e+38,-1,1566900278
20,0,0,0,0,0,0,1,0,3.9,11.1811,0.000625,2.27284e-06,0.233315,0.0152306,3.40282e+38,-1,1566900412
20,0,0,0,0,0,0,1,0,3.9,11.1884,0.000625,2.25803e-06,0.263855,0.0146228,3.40282e+38,-1,1566900548
20,0,0,0,0,0,0,1,0,3.91,11.1346,0.000625,2.26468e-06,0.235539,0.0150601,3.40282e+38,-1,1566900683
20,0,0,0,0,0,0,1,0,3.92,11.1299,0.000625,2.29312e-06,0.265115,0.0157364,3.40282e+38,-1,1566900821
20,0,0,0,0,0,0,1,0,3.91,11.1365,0.000625,2.28714e-06,0.234892,0.0139104,3.40282e+38,-1,1566900959
20,0,0,0,0,0,0,1,0,3.91,11.1587,0.000625,2.19043e-06,0.262219,0.0147764,3.40282e+38,-1,1566901088
20,0,0,0,0,0,0,1,0,3.9,11.1668,0.000625,2.27439e-06,0.236655,0.0162049,3.40282e+38,-1,1566901229
20,0,0,0,0,0,0,1,0,3.91,11.1567,0.000625,2.23988e-06,0.234712,0.014206,3.40282e+38,-1,1566901360
20,0,0,0,0,0,0,1,0,3.93,11.0956,0.000625,2.2428e-06,0.267002,0.0167086,3.40282e+38,-1,1566901504
20,0,0,0,0,0,0,1,0,3.9,11.1607,0.000625,2.2837e-06,0.236857,0.0139156,3.40282e+38,-1,1566901639
24,0,0,0,0,0,0,1,0,3.91,11.1407,0.000625,2.25194e-06,0.236099,0.0139313,3.40282e+38,-1,1566901777
24,0,0,0,0,0,0,1,0,3.92,11.1061,0.000625,2.20746e-06,0.264487,0.015575,3.40282e+38,-1,1566901916
24,0,0,0,0,0,0,1,0,3.93,11.0967,0.000625,2.24928e-06,0.265142,0.0146843,3.40282e+38,-1,1566902061
24,0,0,0,0,0,0,1,0,3.9,11.1765,0.000625,2.26945e-06,0.266353,0.0129034,3.40282e+38,-1,1566902194
24,0,0,0,0,0,0,1,0,3.91,11.1442,0.000625,2.22968e-06,0.235869,0.0148481,3.40282e+38,-1,1566902329
24,0,0,0,0,0,0,1,0,3.92,11.1057,0.000625,2.29203e-06,0.235852,0.0164139,3.40282e+38,-1,1566902462
24,0,0,0,0,0,0,1,0,3.9,11.1704,0.000625,2.23504e-06,0.264826,0.0154521,3.40282e+38,-1,1566902597
24,0,0,0,0,0,0,1,0,3.9,11.183,0.000625,2.27014e-06,0.234913,0.0142216,3.40282e+38,-1,1566902732
24,0,0,0,0,0,0,1,0,3.92,11.1301,0.000625,2.30227e-06,0.234897,0.0147083,3.40282e+38,-1,1566902866
24,0,0,0,0,0,0,1,0,3.91,11.1422,0.000625,2.2358e-06,0.236607,0.0156246,3.40282e+38,-1,1566903002
24,0,0,0,0,0,0,1,0,3.91,11.1383,0.000625,2.23336e-06,0.234471,0.0146179,3.40282e+38,-1,1566903138
24,0,0,0,0,0,0,1,0,3.9,11.1833,0.000625,2.22828e-06,0.231974,0.0147872,3.40282e+38,-1,1566903273
24,0,0,0,0,0,0,1,0,3.91,11.1574,0.000625,2.15121e-06,0.264246,0.0130061,3.40282e+38,-1,1566903408
24,0,0,0,0,0,0,1,0,3.91,11.145,0.000625,2.22048e-06,0.235034,0.0133226,3.40282e+38,-1,1566903546
24,0,0,0,0,0,0,1,0,3.9,11.171,0.000625,2.23504e-06,0.265666,0.0134971,3.40282e+38,-1,1566903681
24,0,0,0,0,0,0,1,0,3.94,11.0633,0.000625,2.25919e-06,0.266696,0.013509,3.40282e+38,-1,1566903816
24,0,0,0,0,0,0,1,0,3.91,11.1488,0.000625,2.23641e-06,0.233488,0.0159346,3.40282e+38,-1,1566903957
24,0,0,0,0,0,0,1,0,3.91,11.1399,0.000625,2.2051e-06,0.23464,0.0152999,3.40282e+38,-1,1566904094
24,0,0,0,0,0,0,1,0,3.9,11.1716,0.000625,2.19406e-06,0.233348,0.0141667,3.40282e+38,-1,1566904236
24,0,0,0,0,0,0,1,0,3.91,11.1511,0.000625,2.32559e-06,0.265358,0.0148897,3.40282e+38,-1,1566904370
28,0,0,0,0,0,0,1,0,3.9,11.1664,0.000625,2.18426e-06,0.266124,0.0126577,3.40282e+38,-1,1566904508
28,0,0,0,0,0,0,1,0,3.92,11.1049,0.000625,2.29298e-06,0.232939,0.015395,3.40282e+38,-1,1566904648
28,0,0,0,0,0,0,1,0,3.9,11.1606,0.000625,2.2418e-06,0.233337,0.0164486,3.40282e+38,-1,1566904793
28,0,0,0,0,0,0,1,0,3.93,11.1018,0.000625,2.27818e-06,0.233012,0.0168101,3.40282e+38,-1,1566904935
28,0,0,0,0,0,0,1,0,3.91,11.1566,0.000625,2.23508e-06,0.266901,0.0158844,3.40282e+38,-1,1566905077
28,0,0,0,0,0,0,1,0,3.92,11.1282,0.000625,2.22667e-06,0.265442,0.0138372,3.40282e+38,-1,1566905214
28,0,0,0,0,0,0,1,0,3.93,11.0978,0.000625,2.24535e-06,0.264567,0.0175895,3.40282e+38,-1,1566905351
28,0,0,0,0,0,0,1,0,3.91,11.1434,0.000625,2.24057e-06,0.232899,0.0156207,3.40282e+38,-1,1566905493
28,0,0,0,0,0,0,1,0,3.91,11.1395,0.000625,2.22507e-06,0.234577,0.0136973,3.40282e+38,-1,1566905634
28,0,0,0,0,0,0,1,0,3.93,11.0874,0.000625,2.23417e-06,0.231736,0.0145973,3.40282e+38,-1,1566905778
28,0,0,0,0,0,0,1,0,3.93,11.0805,0.000625,2.25366e-06,0.2351,0.0140928,3.40282e+38,-1,1566905916
28,0,0,0,0,0,0,1,0,3.91,11.1468,0.000625,2.24424e-06,0.263645,0.0133668,3.40282e+38,-1,1566906053
28,0,0,0,0,0,0,1,0,3.91,11.1459,0.000625,2.25627e-06,0.26583,0.0136722,3.40282e+38,-1,1566906196
28,0,0,0,0,0,0,1,0,3.91,11.1402,0.000625,2.27997e-06,0.268525,0.0139325,3.40282e+38,-1,1566906340
28,0,0,0,0,0,0,1,0,3.9,11.1764,0.000625,2.22209e-06,0.263239,0.0159671,3.40282e+38,-1,1566906476
28,0,0,0,0,0,0,1,0,3.93,11.0796,0.000625,2.29427e-06,0.265071,0.0151763,3.40282e+38,-1,1566906616
28,0,0,0,0,0,0,1,0,3.91,11.1413,0.000625,2.23281e-06,0.268989,0.0142352,3.40282e+38,-1,1566906754
28,0,0,0,0,0,0,1,0,3.93,11.1003,0.000625,2.26988e-06,0.263762,0.0151215,3.40282e+38,-1,1566906889
28,0,0,0,0,0,0,1,0,3.91,11.1535,0.000625,2.20101e-06,0.264658,0.0139174,3.40282e+38,-1,1566907028
28,0,0,0,0,0,0,1,0,3.9,11.1632,0.000625,2.22608e-06,0.234877,0.0141854,3.40282e+38,-1,1566907165
